(module EC2SA-12D12 (layer F.Cu) (tedit 5945551A)
  (fp_text reference REF** (at 0 -4.318) (layer F.SilkS)
    (effects (font (size 1 1) (thickness 0.15)))
  )
  (fp_text value EC2SA-12D12 (at 8.636 4.826) (layer F.Fab)
    (effects (font (size 1 1) (thickness 0.15)))
  )
  (fp_line (start -2.032 -3.556) (end 19.812 -3.556) (layer F.SilkS) (width 0.1))
  (fp_line (start 19.812 -3.556) (end 19.812 5.842) (layer F.SilkS) (width 0.1))
  (fp_line (start 19.812 5.842) (end -2.032 5.842) (layer F.SilkS) (width 0.1))
  (fp_line (start -2.032 0) (end -2.032 -3.556) (layer F.SilkS) (width 0.1))
  (fp_line (start -2.032 -3.556) (end -2.032 -3.302) (layer F.SilkS) (width 0.1))
  (fp_line (start -2.032 0) (end -2.032 5.842) (layer F.SilkS) (width 0.1))
  (pad 5 thru_hole circle (at 10.3 0) (size 1.5 1.5) (drill 0.7) (layers *.Cu *.Mask F.SilkS))
  (pad 6 thru_hole circle (at 12.8 0) (size 1.5 1.5) (drill 0.7) (layers *.Cu *.Mask F.SilkS))
  (pad 7 thru_hole circle (at 15.3 0) (size 1.5 1.5) (drill 0.7) (layers *.Cu *.Mask F.SilkS))
  (pad 8 thru_hole circle (at 17.8 0) (size 1.5 1.5) (drill 0.7) (layers *.Cu *.Mask F.SilkS))
  (pad 3 thru_hole circle (at 5 0) (size 1.5 1.5) (drill 0.7) (layers *.Cu *.Mask F.SilkS))
  (pad 2 thru_hole circle (at 2.5 0) (size 1.5 1.5) (drill 0.7) (layers *.Cu *.Mask F.SilkS))
  (pad 1 thru_hole circle (at 0 0) (size 1.5 1.5) (drill 0.7) (layers *.Cu *.Mask F.SilkS))
)
