(module TI_SOIC8 (layer F.Cu) (tedit 59456307)
  (fp_text reference REF** (at 0 -3.556) (layer F.SilkS)
    (effects (font (size 1 1) (thickness 0.15)))
  )
  (fp_text value TI_SOIC8 (at 0 3.556 180) (layer F.Fab)
    (effects (font (size 1 1) (thickness 0.15)))
  )
  (fp_circle (center -1.524 -2.286) (end -1.35 -2.286) (layer F.SilkS) (width 0.4))
  (fp_line (start -2.54 -1.016) (end -2.54 -1.524) (layer F.SilkS) (width 0.1))
  (fp_line (start -2.54 0.254) (end -2.54 -0.254) (layer F.SilkS) (width 0.1))
  (fp_line (start -2.54 1.524) (end -2.54 1.016) (layer F.SilkS) (width 0.1))
  (fp_line (start 2.54 2.286) (end 2.54 2.794) (layer F.SilkS) (width 0.1))
  (fp_line (start 2.54 2.794) (end -2.54 2.794) (layer F.SilkS) (width 0.1))
  (fp_line (start -2.54 2.794) (end -2.54 2.286) (layer F.SilkS) (width 0.1))
  (fp_line (start 2.54 1.016) (end 2.54 1.524) (layer F.SilkS) (width 0.1))
  (fp_line (start 2.54 -0.254) (end 2.54 0.254) (layer F.SilkS) (width 0.1))
  (fp_line (start 2.54 -1.524) (end 2.54 -1.016) (layer F.SilkS) (width 0.1))
  (fp_line (start -2.54 -2.286) (end -2.54 -2.794) (layer F.SilkS) (width 0.1))
  (fp_line (start -2.54 -2.794) (end 2.54 -2.794) (layer F.SilkS) (width 0.1))
  (fp_line (start 2.54 -2.794) (end 2.54 -2.286) (layer F.SilkS) (width 0.1))
  (pad 5 smd rect (at 2.7 1.905) (size 1.55 0.6) (layers F.Cu F.Paste F.Mask))
  (pad 8 smd rect (at 2.7 -1.905) (size 1.55 0.6) (layers F.Cu F.Paste F.Mask))
  (pad 7 smd rect (at 2.7 -0.635) (size 1.55 0.6) (layers F.Cu F.Paste F.Mask))
  (pad 6 smd rect (at 2.7 0.635) (size 1.55 0.6) (layers F.Cu F.Paste F.Mask))
  (pad 3 smd rect (at -2.7 0.635) (size 1.55 0.6) (layers F.Cu F.Paste F.Mask))
  (pad 2 smd rect (at -2.7 -0.635) (size 1.55 0.6) (layers F.Cu F.Paste F.Mask))
  (pad 1 smd rect (at -2.7 -1.905) (size 1.55 0.6) (layers F.Cu F.Paste F.Mask))
  (pad 4 smd rect (at -2.7 1.905) (size 1.55 0.6) (layers F.Cu F.Paste F.Mask))
)
