   SWEEP MEASUREMENT
------------------------
Date:       2017/06/21
Time:         07:48:03
HIGH       : 14.14uF 
LOW        :-88.45nF 
STARTFREQ  : 1.000kHz
STOPFREQ   : 60.00kHz
LEVEL      : 1  VRMS
STEP       : 1
AUTOSCALE  : ON 
SCALE      : LINEAR   
  1  FREQ: 1.000kHz  Cs :   7.200 nF 
  2  FREQ: 1.197kHz  Cs :   7.196 nF 
  3  FREQ: 1.393kHz  Cs :   7.194 nF 
  4  FREQ: 1.590kHz  Cs :   7.192 nF 
  5  FREQ: 1.787kHz  Cs :   7.190 nF 
  6  FREQ: 1.983kHz  Cs :   7.188 nF 
  7  FREQ: 2.180kHz  Cs :   7.187 nF 
  8  FREQ: 2.377kHz  Cs :   7.187 nF 
  9  FREQ: 2.573kHz  Cs :   7.186 nF 
 10  FREQ: 2.770kHz  Cs :   7.184 nF 
 11  FREQ: 2.967kHz  Cs :   7.184 nF 
 12  FREQ: 3.163kHz  Cs :   7.184 nF 
 13  FREQ: 3.360kHz  Cs :   7.184 nF 
 14  FREQ: 3.557kHz  Cs :   7.186 nF 
 15  FREQ: 3.753kHz  Cs :   7.185 nF 
 16  FREQ: 3.950kHz  Cs :   7.185 nF 
 17  FREQ: 4.147kHz  Cs :   7.185 nF 
 18  FREQ: 4.343kHz  Cs :   7.185 nF 
 19  FREQ: 4.540kHz  Cs :   7.185 nF 
 20  FREQ: 4.737kHz  Cs :   7.185 nF 
 21  FREQ: 4.933kHz  Cs :   7.186 nF 
 22  FREQ: 5.130kHz  Cs :   7.187 nF 
 23  FREQ: 5.327kHz  Cs :   7.187 nF 
 24  FREQ: 5.523kHz  Cs :   7.187 nF 
 25  FREQ: 5.720kHz  Cs :   7.188 nF 
 26  FREQ: 5.917kHz  Cs :   7.189 nF 
 27  FREQ: 6.113kHz  Cs :   7.190 nF 
 28  FREQ: 6.310kHz  Cs :   7.191 nF 
 29  FREQ: 6.507kHz  Cs :   7.192 nF 
 30  FREQ: 6.703kHz  Cs :   7.193 nF 
 31  FREQ: 6.900kHz  Cs :   7.198 nF 
 32  FREQ: 7.097kHz  Cs :   7.200 nF 
 33  FREQ: 7.293kHz  Cs :   7.201 nF 
 34  FREQ: 7.490kHz  Cs :   7.202 nF 
 35  FREQ: 7.687kHz  Cs :   7.205 nF 
 36  FREQ: 7.883kHz  Cs :   7.206 nF 
 37  FREQ: 8.080kHz  Cs :   7.208 nF 
 38  FREQ: 8.277kHz  Cs :   7.209 nF 
 39  FREQ: 8.473kHz  Cs :   7.211 nF 
 40  FREQ: 8.670kHz  Cs :   7.213 nF 
 41  FREQ: 8.867kHz  Cs :   7.215 nF 
 42  FREQ: 9.063kHz  Cs :   7.215 nF 
 43  FREQ: 9.260kHz  Cs :   7.217 nF 
 44  FREQ: 9.457kHz  Cs :   7.219 nF 
 45  FREQ: 9.653kHz  Cs :   7.222 nF 
 46  FREQ: 9.850kHz  Cs :   7.224 nF 
 47  FREQ: 10.05kHz  Cs :   7.226 nF 
 48  FREQ: 10.24kHz  Cs :   7.228 nF 
 49  FREQ: 10.44kHz  Cs :   7.230 nF 
 50  FREQ: 10.64kHz  Cs :   7.233 nF 
 51  FREQ: 10.83kHz  Cs :   7.235 nF 
 52  FREQ: 11.03kHz  Cs :   7.237 nF 
 53  FREQ: 11.23kHz  Cs :   7.239 nF 
 54  FREQ: 11.42kHz  Cs :   7.240 nF 
 55  FREQ: 11.62kHz  Cs :   7.244 nF 
 56  FREQ: 11.82kHz  Cs :   7.247 nF 
 57  FREQ: 12.01kHz  Cs :   7.250 nF 
 58  FREQ: 12.21kHz  Cs :   7.253 nF 
 59  FREQ: 12.41kHz  Cs :   7.256 nF 
 60  FREQ: 12.60kHz  Cs :   7.259 nF 
 61  FREQ: 12.80kHz  Cs :   7.262 nF 
 62  FREQ: 13.00kHz  Cs :   7.265 nF 
 63  FREQ: 13.19kHz  Cs :   7.269 nF 
 64  FREQ: 13.39kHz  Cs :   7.284 nF 
 65  FREQ: 13.59kHz  Cs :   7.287 nF 
 66  FREQ: 13.78kHz  Cs :   7.283 nF 
 67  FREQ: 13.98kHz  Cs :   7.286 nF 
 68  FREQ: 14.18kHz  Cs :   7.290 nF 
 69  FREQ: 14.37kHz  Cs :   7.293 nF 
 70  FREQ: 14.57kHz  Cs :   7.297 nF 
 71  FREQ: 14.77kHz  Cs :   7.300 nF 
 72  FREQ: 14.96kHz  Cs :   7.304 nF 
 73  FREQ: 15.16kHz  Cs :   7.307 nF 
 74  FREQ: 15.36kHz  Cs :   7.312 nF 
 75  FREQ: 15.55kHz  Cs :   7.320 nF 
 76  FREQ: 15.75kHz  Cs :   7.324 nF 
 77  FREQ: 15.95kHz  Cs :   7.329 nF 
 78  FREQ: 16.14kHz  Cs :   7.333 nF 
 79  FREQ: 16.34kHz  Cs :   7.337 nF 
 80  FREQ: 16.54kHz  Cs :   7.342 nF 
 81  FREQ: 16.73kHz  Cs :   7.346 nF 
 82  FREQ: 16.93kHz  Cs :   7.352 nF 
 83  FREQ: 17.13kHz  Cs :   7.357 nF 
 84  FREQ: 17.32kHz  Cs :   7.362 nF 
 85  FREQ: 17.52kHz  Cs :   7.367 nF 
 86  FREQ: 17.72kHz  Cs :   7.372 nF 
 87  FREQ: 17.91kHz  Cs :   7.377 nF 
 88  FREQ: 18.11kHz  Cs :   7.382 nF 
 89  FREQ: 18.31kHz  Cs :   7.381 nF 
 90  FREQ: 18.50kHz  Cs :   7.386 nF 
 91  FREQ: 18.70kHz  Cs :   7.392 nF 
 92  FREQ: 18.90kHz  Cs :   7.398 nF 
 93  FREQ: 19.09kHz  Cs :   7.404 nF 
 94  FREQ: 19.29kHz  Cs :   7.410 nF 
 95  FREQ: 19.49kHz  Cs :   7.419 nF 
 96  FREQ: 19.68kHz  Cs :   7.425 nF 
 97  FREQ: 19.88kHz  Cs :   7.432 nF 
 98  FREQ: 20.08kHz  Cs :   7.439 nF 
 99  FREQ: 20.27kHz  Cs :   7.446 nF 
100  FREQ: 20.47kHz  Cs :   7.453 nF 
101  FREQ: 20.67kHz  Cs :   7.460 nF 
102  FREQ: 20.86kHz  Cs :   7.468 nF 
103  FREQ: 21.06kHz  Cs :   7.475 nF 
104  FREQ: 21.26kHz  Cs :   7.483 nF 
105  FREQ: 21.45kHz  Cs :   7.490 nF 
106  FREQ: 21.65kHz  Cs :   7.498 nF 
107  FREQ: 21.85kHz  Cs :   7.506 nF 
108  FREQ: 22.04kHz  Cs :   7.514 nF 
109  FREQ: 22.24kHz  Cs :   7.522 nF 
110  FREQ: 22.44kHz  Cs :   7.531 nF 
111  FREQ: 22.63kHz  Cs :   7.539 nF 
112  FREQ: 22.83kHz  Cs :   7.540 nF 
113  FREQ: 23.03kHz  Cs :   7.549 nF 
114  FREQ: 23.22kHz  Cs :   7.558 nF 
115  FREQ: 23.42kHz  Cs :   7.569 nF 
116  FREQ: 23.62kHz  Cs :   7.579 nF 
117  FREQ: 23.81kHz  Cs :   7.588 nF 
118  FREQ: 24.01kHz  Cs :   7.599 nF 
119  FREQ: 24.21kHz  Cs :   7.609 nF 
120  FREQ: 24.40kHz  Cs :   7.619 nF 
121  FREQ: 24.60kHz  Cs :   7.630 nF 
122  FREQ: 24.80kHz  Cs :   7.641 nF 
123  FREQ: 24.99kHz  Cs :   7.652 nF 
124  FREQ: 25.19kHz  Cs :   7.650 nF 
125  FREQ: 25.39kHz  Cs :   7.662 nF 
126  FREQ: 25.58kHz  Cs :   7.672 nF 
127  FREQ: 25.78kHz  Cs :   7.684 nF 
128  FREQ: 25.98kHz  Cs :   7.697 nF 
129  FREQ: 26.17kHz  Cs :   7.709 nF 
130  FREQ: 26.37kHz  Cs :   7.736 nF 
131  FREQ: 26.57kHz  Cs :   7.749 nF 
132  FREQ: 26.76kHz  Cs :   7.762 nF 
133  FREQ: 26.96kHz  Cs :   7.776 nF 
134  FREQ: 27.16kHz  Cs :   7.790 nF 
135  FREQ: 27.35kHz  Cs :   7.804 nF 
136  FREQ: 27.55kHz  Cs :   7.804 nF 
137  FREQ: 27.75kHz  Cs :   7.819 nF 
138  FREQ: 27.94kHz  Cs :   7.834 nF 
139  FREQ: 28.14kHz  Cs :   7.850 nF 
140  FREQ: 28.34kHz  Cs :   7.867 nF 
141  FREQ: 28.53kHz  Cs :   7.883 nF 
142  FREQ: 28.73kHz  Cs :   7.900 nF 
143  FREQ: 28.93kHz  Cs :   7.919 nF 
144  FREQ: 29.12kHz  Cs :   7.936 nF 
145  FREQ: 29.32kHz  Cs :   7.955 nF 
146  FREQ: 29.52kHz  Cs :   7.974 nF 
147  FREQ: 29.71kHz  Cs :   7.993 nF 
148  FREQ: 29.91kHz  Cs :   8.014 nF 
149  FREQ: 30.11kHz  Cs :   8.035 nF 
150  FREQ: 30.30kHz  Cs :   8.056 nF 
151  FREQ: 30.50kHz  Cs :   8.078 nF 
152  FREQ: 30.70kHz  Cs :   8.101 nF 
153  FREQ: 30.89kHz  Cs :   8.124 nF 
154  FREQ: 31.09kHz  Cs :   8.151 nF 
155  FREQ: 31.29kHz  Cs :   8.177 nF 
156  FREQ: 31.48kHz  Cs :   8.203 nF 
157  FREQ: 31.68kHz  Cs :   8.232 nF 
158  FREQ: 31.88kHz  Cs :   8.261 nF 
159  FREQ: 32.07kHz  Cs :   8.290 nF 
160  FREQ: 32.27kHz  Cs :   8.322 nF 
161  FREQ: 32.47kHz  Cs :   8.354 nF 
162  FREQ: 32.66kHz  Cs :   8.386 nF 
163  FREQ: 32.86kHz  Cs :   8.421 nF 
164  FREQ: 33.06kHz  Cs :   8.457 nF 
165  FREQ: 33.25kHz  Cs :   8.493 nF 
166  FREQ: 33.45kHz  Cs :   8.532 nF 
167  FREQ: 33.65kHz  Cs :   8.572 nF 
168  FREQ: 33.84kHz  Cs :   8.612 nF 
169  FREQ: 34.04kHz  Cs :   8.656 nF 
170  FREQ: 34.24kHz  Cs :   8.702 nF 
171  FREQ: 34.43kHz  Cs :   8.748 nF 
172  FREQ: 34.63kHz  Cs :   8.798 nF 
173  FREQ: 34.83kHz  Cs :   8.851 nF 
174  FREQ: 35.02kHz  Cs :   8.903 nF 
175  FREQ: 35.22kHz  Cs :   8.962 nF 
176  FREQ: 35.42kHz  Cs :   9.029 nF 
177  FREQ: 35.61kHz  Cs :   9.089 nF 
178  FREQ: 35.81kHz  Cs :   9.156 nF 
179  FREQ: 36.01kHz  Cs :   9.226 nF 
180  FREQ: 36.20kHz  Cs :   9.296 nF 
181  FREQ: 36.40kHz  Cs :   9.373 nF 
182  FREQ: 36.60kHz  Cs :   9.438 nF 
183  FREQ: 36.79kHz  Cs :   9.522 nF 
184  FREQ: 36.99kHz  Cs :   9.615 nF 
185  FREQ: 37.19kHz  Cs :   9.715 nF 
186  FREQ: 37.38kHz  Cs :   9.816 nF 
187  FREQ: 37.58kHz  Cs :   9.930 nF 
188  FREQ: 37.78kHz  Cs :   10.05 nF 
189  FREQ: 37.97kHz  Cs :   10.18 nF 
190  FREQ: 38.17kHz  Cs :   10.32 nF 
191  FREQ: 38.37kHz  Cs :   10.47 nF 
192  FREQ: 38.56kHz  Cs :   10.63 nF 
193  FREQ: 38.76kHz  Cs :   10.81 nF 
194  FREQ: 38.96kHz  Cs :   11.00 nF 
195  FREQ: 39.15kHz  Cs :   11.21 nF 
196  FREQ: 39.35kHz  Cs :   11.44 nF 
197  FREQ: 39.55kHz  Cs :   11.70 nF 
198  FREQ: 39.74kHz  Cs :   11.98 nF 
199  FREQ: 39.94kHz  Cs :   12.30 nF 
200  FREQ: 40.14kHz  Cs :   12.67 nF 
201  FREQ: 40.33kHz  Cs :   13.06 nF 
202  FREQ: 40.53kHz  Cs :   13.53 nF 
203  FREQ: 40.73kHz  Cs :   14.08 nF 
204  FREQ: 40.92kHz  Cs :   14.68 nF 
205  FREQ: 41.12kHz  Cs :   15.43 nF 
206  FREQ: 41.32kHz  Cs :   16.34 nF 
207  FREQ: 41.51kHz  Cs :   17.39 nF 
208  FREQ: 41.71kHz  Cs :   18.80 nF 
209  FREQ: 41.91kHz  Cs :   20.59 nF 
210  FREQ: 42.10kHz  Cs :   22.86 nF 
211  FREQ: 42.30kHz  Cs :   26.19 nF 
212  FREQ: 42.50kHz  Cs :   31.22 nF 
213  FREQ: 42.69kHz  Cs :   39.15 nF 
214  FREQ: 42.89kHz  Cs :   55.92 nF 
215  FREQ: 43.09kHz  Cs :   108.7 nF 
216  FREQ: 43.28kHz  Cs :   9.412 uF 
217  FREQ: 43.48kHz  Cs :  -86.54 nF 
218  FREQ: 43.68kHz  Cs :  -40.33 nF 
219  FREQ: 43.87kHz  Cs :  -25.29 nF 
220  FREQ: 44.07kHz  Cs :  -17.27 nF 
221  FREQ: 44.27kHz  Cs :  -12.48 nF 
222  FREQ: 44.46kHz  Cs :  -9.451 nF 
223  FREQ: 44.66kHz  Cs :  -7.177 nF 
224  FREQ: 44.86kHz  Cs :  -5.495 nF 
225  FREQ: 45.05kHz  Cs :  -4.261 nF 
226  FREQ: 45.25kHz  Cs :  -3.273 nF 
227  FREQ: 45.45kHz  Cs :  -2.556 nF 
228  FREQ: 45.64kHz  Cs :  -2.211 nF 
229  FREQ: 45.84kHz  Cs :  -3.209 nF 
230  FREQ: 46.04kHz  Cs :   3.448 nF 
231  FREQ: 46.23kHz  Cs :   1.422 nF 
232  FREQ: 46.43kHz  Cs :   1.371 nF 
233  FREQ: 46.63kHz  Cs :   1.548 nF 
234  FREQ: 46.82kHz  Cs :   1.756 nF 
235  FREQ: 47.02kHz  Cs :   1.979 nF 
236  FREQ: 47.22kHz  Cs :   2.194 nF 
237  FREQ: 47.41kHz  Cs :   2.387 nF 
238  FREQ: 47.61kHz  Cs :   2.576 nF 
239  FREQ: 47.81kHz  Cs :   2.751 nF 
240  FREQ: 48.00kHz  Cs :   2.903 nF 
241  FREQ: 48.20kHz  Cs :   3.047 nF 
242  FREQ: 48.40kHz  Cs :   3.175 nF 
243  FREQ: 48.59kHz  Cs :   3.285 nF 
244  FREQ: 48.79kHz  Cs :   3.399 nF 
245  FREQ: 48.99kHz  Cs :   3.513 nF 
246  FREQ: 49.18kHz  Cs :   3.617 nF 
247  FREQ: 49.38kHz  Cs :   3.723 nF 
248  FREQ: 49.58kHz  Cs :   3.822 nF 
249  FREQ: 49.77kHz  Cs :   3.910 nF 
250  FREQ: 49.97kHz  Cs :   3.998 nF 
251  FREQ: 50.17kHz  Cs :   4.085 nF 
252  FREQ: 50.36kHz  Cs :   4.154 nF 
253  FREQ: 50.56kHz  Cs :   4.220 nF 
254  FREQ: 50.76kHz  Cs :   4.302 nF 
255  FREQ: 50.95kHz  Cs :   4.355 nF 
256  FREQ: 51.15kHz  Cs :   4.426 nF 
257  FREQ: 51.35kHz  Cs :   4.485 nF 
258  FREQ: 51.54kHz  Cs :   4.547 nF 
259  FREQ: 51.74kHz  Cs :   4.588 nF 
260  FREQ: 51.94kHz  Cs :   4.654 nF 
261  FREQ: 52.13kHz  Cs :   4.702 nF 
262  FREQ: 52.33kHz  Cs :   4.754 nF 
263  FREQ: 52.53kHz  Cs :   4.798 nF 
264  FREQ: 52.72kHz  Cs :   4.840 nF 
265  FREQ: 52.92kHz  Cs :   4.894 nF 
266  FREQ: 53.12kHz  Cs :   4.928 nF 
267  FREQ: 53.31kHz  Cs :   4.957 nF 
268  FREQ: 53.51kHz  Cs :   5.005 nF 
269  FREQ: 53.71kHz  Cs :   5.034 nF 
270  FREQ: 53.90kHz  Cs :   5.069 nF 
271  FREQ: 54.10kHz  Cs :   5.119 nF 
272  FREQ: 54.30kHz  Cs :   5.152 nF 
273  FREQ: 54.49kHz  Cs :   5.171 nF 
274  FREQ: 54.69kHz  Cs :   5.213 nF 
275  FREQ: 54.89kHz  Cs :   5.239 nF 
276  FREQ: 55.08kHz  Cs :   5.280 nF 
277  FREQ: 55.28kHz  Cs :   5.301 nF 
278  FREQ: 55.48kHz  Cs :   5.347 nF 
279  FREQ: 55.67kHz  Cs :   5.364 nF 
280  FREQ: 55.87kHz  Cs :   5.392 nF 
281  FREQ: 56.07kHz  Cs :   5.428 nF 
282  FREQ: 56.26kHz  Cs :   5.465 nF 
283  FREQ: 56.46kHz  Cs :   5.485 nF 
284  FREQ: 56.66kHz  Cs :   5.516 nF 
285  FREQ: 56.85kHz  Cs :   5.542 nF 
286  FREQ: 57.05kHz  Cs :   5.585 nF 
287  FREQ: 57.25kHz  Cs :   5.598 nF 
288  FREQ: 57.44kHz  Cs :   5.640 nF 
289  FREQ: 57.64kHz  Cs :   5.667 nF 
290  FREQ: 57.84kHz  Cs :   5.690 nF 
291  FREQ: 58.03kHz  Cs :   5.732 nF 
292  FREQ: 58.23kHz  Cs :   5.748 nF 
293  FREQ: 58.43kHz  Cs :   5.784 nF 
294  FREQ: 58.62kHz  Cs :   5.799 nF 
295  FREQ: 58.82kHz  Cs :   5.818 nF 
296  FREQ: 59.02kHz  Cs :   5.827 nF 
297  FREQ: 59.21kHz  Cs :   5.804 nF 
298  FREQ: 59.41kHz  Cs :   5.798 nF 
299  FREQ: 59.61kHz  Cs :   5.769 nF 
300  FREQ: 59.80kHz  Cs :   5.753 nF 
301  FREQ: 60.00kHz  Cs :   5.736 nF 
