   SWEEP MEASUREMENT
------------------------
Date:       2017/06/19
Time:         04:54:54
HIGH       : 345.6nF 
LOW        :-323.0nF 
STARTFREQ  : 1.000kHz
STOPFREQ   : 60.00kHz
LEVEL      : 1  VRMS
STEP       : 1
AUTOSCALE  : ON 
SCALE      : LINEAR   
  1  FREQ: 1.000kHz  Cs :   6.921 nF 
  2  FREQ: 1.197kHz  Cs :   6.917 nF 
  3  FREQ: 1.393kHz  Cs :   6.916 nF 
  4  FREQ: 1.590kHz  Cs :   6.913 nF 
  5  FREQ: 1.787kHz  Cs :   6.913 nF 
  6  FREQ: 1.983kHz  Cs :   6.911 nF 
  7  FREQ: 2.180kHz  Cs :   6.911 nF 
  8  FREQ: 2.377kHz  Cs :   6.910 nF 
  9  FREQ: 2.573kHz  Cs :   6.910 nF 
 10  FREQ: 2.770kHz  Cs :   6.909 nF 
 11  FREQ: 2.967kHz  Cs :   6.909 nF 
 12  FREQ: 3.163kHz  Cs :   6.909 nF 
 13  FREQ: 3.360kHz  Cs :   6.908 nF 
 14  FREQ: 3.557kHz  Cs :   6.910 nF 
 15  FREQ: 3.753kHz  Cs :   6.910 nF 
 16  FREQ: 3.950kHz  Cs :   6.910 nF 
 17  FREQ: 4.147kHz  Cs :   6.910 nF 
 18  FREQ: 4.343kHz  Cs :   6.910 nF 
 19  FREQ: 4.540kHz  Cs :   6.910 nF 
 20  FREQ: 4.737kHz  Cs :   6.911 nF 
 21  FREQ: 4.933kHz  Cs :   6.912 nF 
 22  FREQ: 5.130kHz  Cs :   6.912 nF 
 23  FREQ: 5.327kHz  Cs :   6.913 nF 
 24  FREQ: 5.523kHz  Cs :   6.913 nF 
 25  FREQ: 5.720kHz  Cs :   6.914 nF 
 26  FREQ: 5.917kHz  Cs :   6.915 nF 
 27  FREQ: 6.113kHz  Cs :   6.916 nF 
 28  FREQ: 6.310kHz  Cs :   6.917 nF 
 29  FREQ: 6.507kHz  Cs :   6.918 nF 
 30  FREQ: 6.703kHz  Cs :   6.919 nF 
 31  FREQ: 6.900kHz  Cs :   6.918 nF 
 32  FREQ: 7.097kHz  Cs :   6.926 nF 
 33  FREQ: 7.293kHz  Cs :   6.928 nF 
 34  FREQ: 7.490kHz  Cs :   6.929 nF 
 35  FREQ: 7.687kHz  Cs :   6.932 nF 
 36  FREQ: 7.883kHz  Cs :   6.933 nF 
 37  FREQ: 8.080kHz  Cs :   6.935 nF 
 38  FREQ: 8.277kHz  Cs :   6.937 nF 
 39  FREQ: 8.473kHz  Cs :   6.939 nF 
 40  FREQ: 8.670kHz  Cs :   6.940 nF 
 41  FREQ: 8.867kHz  Cs :   6.942 nF 
 42  FREQ: 9.063kHz  Cs :   6.942 nF 
 43  FREQ: 9.260kHz  Cs :   6.945 nF 
 44  FREQ: 9.457kHz  Cs :   6.947 nF 
 45  FREQ: 9.653kHz  Cs :   6.950 nF 
 46  FREQ: 9.850kHz  Cs :   6.952 nF 
 47  FREQ: 10.05kHz  Cs :   6.955 nF 
 48  FREQ: 10.24kHz  Cs :   6.957 nF 
 49  FREQ: 10.44kHz  Cs :   6.960 nF 
 50  FREQ: 10.64kHz  Cs :   6.962 nF 
 51  FREQ: 10.83kHz  Cs :   6.965 nF 
 52  FREQ: 11.03kHz  Cs :   6.968 nF 
 53  FREQ: 11.23kHz  Cs :   6.968 nF 
 54  FREQ: 11.42kHz  Cs :   6.971 nF 
 55  FREQ: 11.62kHz  Cs :   6.975 nF 
 56  FREQ: 11.82kHz  Cs :   6.978 nF 
 57  FREQ: 12.01kHz  Cs :   6.981 nF 
 58  FREQ: 12.21kHz  Cs :   6.984 nF 
 59  FREQ: 12.41kHz  Cs :   6.984 nF 
 60  FREQ: 12.60kHz  Cs :   6.991 nF 
 61  FREQ: 12.80kHz  Cs :   6.994 nF 
 62  FREQ: 13.00kHz  Cs :   6.997 nF 
 63  FREQ: 13.19kHz  Cs :   7.001 nF 
 64  FREQ: 13.39kHz  Cs :   7.005 nF 
 65  FREQ: 13.59kHz  Cs :   7.001 nF 
 66  FREQ: 13.78kHz  Cs :   7.015 nF 
 67  FREQ: 13.98kHz  Cs :   7.019 nF 
 68  FREQ: 14.18kHz  Cs :   7.022 nF 
 69  FREQ: 14.37kHz  Cs :   7.026 nF 
 70  FREQ: 14.57kHz  Cs :   7.030 nF 
 71  FREQ: 14.77kHz  Cs :   7.034 nF 
 72  FREQ: 14.96kHz  Cs :   7.038 nF 
 73  FREQ: 15.16kHz  Cs :   7.042 nF 
 74  FREQ: 15.36kHz  Cs :   7.047 nF 
 75  FREQ: 15.55kHz  Cs :   7.055 nF 
 76  FREQ: 15.75kHz  Cs :   7.060 nF 
 77  FREQ: 15.95kHz  Cs :   7.065 nF 
 78  FREQ: 16.14kHz  Cs :   7.070 nF 
 79  FREQ: 16.34kHz  Cs :   7.075 nF 
 80  FREQ: 16.54kHz  Cs :   7.080 nF 
 81  FREQ: 16.73kHz  Cs :   7.085 nF 
 82  FREQ: 16.93kHz  Cs :   7.091 nF 
 83  FREQ: 17.13kHz  Cs :   7.097 nF 
 84  FREQ: 17.32kHz  Cs :   7.102 nF 
 85  FREQ: 17.52kHz  Cs :   7.108 nF 
 86  FREQ: 17.72kHz  Cs :   7.114 nF 
 87  FREQ: 17.91kHz  Cs :   7.120 nF 
 88  FREQ: 18.11kHz  Cs :   7.126 nF 
 89  FREQ: 18.31kHz  Cs :   7.126 nF 
 90  FREQ: 18.50kHz  Cs :   7.132 nF 
 91  FREQ: 18.70kHz  Cs :   7.138 nF 
 92  FREQ: 18.90kHz  Cs :   7.145 nF 
 93  FREQ: 19.09kHz  Cs :   7.152 nF 
 94  FREQ: 19.29kHz  Cs :   7.158 nF 
 95  FREQ: 19.49kHz  Cs :   7.169 nF 
 96  FREQ: 19.68kHz  Cs :   7.176 nF 
 97  FREQ: 19.88kHz  Cs :   7.184 nF 
 98  FREQ: 20.08kHz  Cs :   7.192 nF 
 99  FREQ: 20.27kHz  Cs :   7.199 nF 
100  FREQ: 20.47kHz  Cs :   7.208 nF 
101  FREQ: 20.67kHz  Cs :   7.216 nF 
102  FREQ: 20.86kHz  Cs :   7.224 nF 
103  FREQ: 21.06kHz  Cs :   7.233 nF 
104  FREQ: 21.26kHz  Cs :   7.242 nF 
105  FREQ: 21.45kHz  Cs :   7.251 nF 
106  FREQ: 21.65kHz  Cs :   7.260 nF 
107  FREQ: 21.85kHz  Cs :   7.270 nF 
108  FREQ: 22.04kHz  Cs :   7.280 nF 
109  FREQ: 22.24kHz  Cs :   7.290 nF 
110  FREQ: 22.44kHz  Cs :   7.300 nF 
111  FREQ: 22.63kHz  Cs :   7.310 nF 
112  FREQ: 22.83kHz  Cs :   7.317 nF 
113  FREQ: 23.03kHz  Cs :   7.325 nF 
114  FREQ: 23.22kHz  Cs :   7.337 nF 
115  FREQ: 23.42kHz  Cs :   7.349 nF 
116  FREQ: 23.62kHz  Cs :   7.360 nF 
117  FREQ: 23.81kHz  Cs :   7.370 nF 
118  FREQ: 24.01kHz  Cs :   7.379 nF 
119  FREQ: 24.21kHz  Cs :   7.393 nF 
120  FREQ: 24.40kHz  Cs :   7.406 nF 
121  FREQ: 24.60kHz  Cs :   7.416 nF 
122  FREQ: 24.80kHz  Cs :   7.427 nF 
123  FREQ: 24.99kHz  Cs :   7.439 nF 
124  FREQ: 25.19kHz  Cs :   7.440 nF 
125  FREQ: 25.39kHz  Cs :   7.455 nF 
126  FREQ: 25.58kHz  Cs :   7.483 nF 
127  FREQ: 25.78kHz  Cs :   7.484 nF 
128  FREQ: 25.98kHz  Cs :   7.500 nF 
129  FREQ: 26.17kHz  Cs :   7.514 nF 
130  FREQ: 26.37kHz  Cs :   7.544 nF 
131  FREQ: 26.57kHz  Cs :   7.560 nF 
132  FREQ: 26.76kHz  Cs :   7.577 nF 
133  FREQ: 26.96kHz  Cs :   7.596 nF 
134  FREQ: 27.16kHz  Cs :   7.612 nF 
135  FREQ: 27.35kHz  Cs :   7.628 nF 
136  FREQ: 27.55kHz  Cs :   7.634 nF 
137  FREQ: 27.75kHz  Cs :   7.654 nF 
138  FREQ: 27.94kHz  Cs :   7.674 nF 
139  FREQ: 28.14kHz  Cs :   7.696 nF 
140  FREQ: 28.34kHz  Cs :   7.718 nF 
141  FREQ: 28.53kHz  Cs :   7.740 nF 
142  FREQ: 28.73kHz  Cs :   7.763 nF 
143  FREQ: 28.93kHz  Cs :   7.788 nF 
144  FREQ: 29.12kHz  Cs :   7.812 nF 
145  FREQ: 29.32kHz  Cs :   7.837 nF 
146  FREQ: 29.52kHz  Cs :   7.863 nF 
147  FREQ: 29.71kHz  Cs :   7.890 nF 
148  FREQ: 29.91kHz  Cs :   7.917 nF 
149  FREQ: 30.11kHz  Cs :   7.946 nF 
150  FREQ: 30.30kHz  Cs :   7.974 nF 
151  FREQ: 30.50kHz  Cs :   8.004 nF 
152  FREQ: 30.70kHz  Cs :   8.036 nF 
153  FREQ: 30.89kHz  Cs :   8.067 nF 
154  FREQ: 31.09kHz  Cs :   8.103 nF 
155  FREQ: 31.29kHz  Cs :   8.138 nF 
156  FREQ: 31.48kHz  Cs :   8.172 nF 
157  FREQ: 31.68kHz  Cs :   8.210 nF 
158  FREQ: 31.88kHz  Cs :   8.248 nF 
159  FREQ: 32.07kHz  Cs :   8.287 nF 
160  FREQ: 32.27kHz  Cs :   8.329 nF 
161  FREQ: 32.47kHz  Cs :   8.373 nF 
162  FREQ: 32.66kHz  Cs :   8.416 nF 
163  FREQ: 32.86kHz  Cs :   8.464 nF 
164  FREQ: 33.06kHz  Cs :   8.516 nF 
165  FREQ: 33.25kHz  Cs :   8.567 nF 
166  FREQ: 33.45kHz  Cs :   8.625 nF 
167  FREQ: 33.65kHz  Cs :   8.687 nF 
168  FREQ: 33.84kHz  Cs :   8.749 nF 
169  FREQ: 34.04kHz  Cs :   8.818 nF 
170  FREQ: 34.24kHz  Cs :   8.893 nF 
171  FREQ: 34.43kHz  Cs :   8.963 nF 
172  FREQ: 34.63kHz  Cs :   9.047 nF 
173  FREQ: 34.83kHz  Cs :   9.137 nF 
174  FREQ: 35.02kHz  Cs :   9.228 nF 
175  FREQ: 35.22kHz  Cs :   9.340 nF 
176  FREQ: 35.42kHz  Cs :   9.450 nF 
177  FREQ: 35.61kHz  Cs :   9.562 nF 
178  FREQ: 35.81kHz  Cs :   9.689 nF 
179  FREQ: 36.01kHz  Cs :   9.825 nF 
180  FREQ: 36.20kHz  Cs :   9.964 nF 
181  FREQ: 36.40kHz  Cs :   10.12 nF 
182  FREQ: 36.60kHz  Cs :   10.28 nF 
183  FREQ: 36.79kHz  Cs :   10.46 nF 
184  FREQ: 36.99kHz  Cs :   10.66 nF 
185  FREQ: 37.19kHz  Cs :   10.89 nF 
186  FREQ: 37.38kHz  Cs :   11.13 nF 
187  FREQ: 37.58kHz  Cs :   11.41 nF 
188  FREQ: 37.78kHz  Cs :   11.73 nF 
189  FREQ: 37.97kHz  Cs :   12.07 nF 
190  FREQ: 38.17kHz  Cs :   12.48 nF 
191  FREQ: 38.37kHz  Cs :   12.96 nF 
192  FREQ: 38.56kHz  Cs :   13.49 nF 
193  FREQ: 38.76kHz  Cs :   14.15 nF 
194  FREQ: 38.96kHz  Cs :   14.95 nF 
195  FREQ: 39.15kHz  Cs :   15.90 nF 
196  FREQ: 39.35kHz  Cs :   17.16 nF 
197  FREQ: 39.55kHz  Cs :   18.87 nF 
198  FREQ: 39.74kHz  Cs :   21.25 nF 
199  FREQ: 39.94kHz  Cs :   25.86 nF 
200  FREQ: 40.14kHz  Cs :   25.11 nF 
201  FREQ: 40.33kHz  Cs :   30.37 nF 
202  FREQ: 40.53kHz  Cs :   40.46 nF 
203  FREQ: 40.73kHz  Cs :   63.94 nF 
204  FREQ: 40.92kHz  Cs :   163.1 nF 
205  FREQ: 41.12kHz  Cs :  -201.8 nF 
206  FREQ: 41.32kHz  Cs :  -57.93 nF 
207  FREQ: 41.51kHz  Cs :  -33.09 nF 
208  FREQ: 41.71kHz  Cs :  -22.16 nF 
209  FREQ: 41.91kHz  Cs :  -16.41 nF 
210  FREQ: 42.10kHz  Cs :  -13.19 nF 
211  FREQ: 42.30kHz  Cs :  -11.26 nF 
212  FREQ: 42.50kHz  Cs :  -10.65 nF 
213  FREQ: 42.69kHz  Cs :  -12.24 nF 
214  FREQ: 42.89kHz  Cs :  -26.93 nF 
215  FREQ: 43.09kHz  Cs :   19.58 nF 
216  FREQ: 43.28kHz  Cs :   6.143 nF 
217  FREQ: 43.48kHz  Cs :   3.640 nF 
218  FREQ: 43.68kHz  Cs :   2.866 nF 
219  FREQ: 43.87kHz  Cs :   2.619 nF 
220  FREQ: 44.07kHz  Cs :   2.565 nF 
221  FREQ: 44.27kHz  Cs :   2.613 nF 
222  FREQ: 44.46kHz  Cs :   2.695 nF 
223  FREQ: 44.66kHz  Cs :   2.803 nF 
224  FREQ: 44.86kHz  Cs :   2.920 nF 
225  FREQ: 45.05kHz  Cs :   3.034 nF 
226  FREQ: 45.25kHz  Cs :   3.152 nF 
227  FREQ: 45.45kHz  Cs :   3.264 nF 
228  FREQ: 45.64kHz  Cs :   3.369 nF 
229  FREQ: 45.84kHz  Cs :   3.470 nF 
230  FREQ: 46.04kHz  Cs :   3.570 nF 
231  FREQ: 46.23kHz  Cs :   3.660 nF 
232  FREQ: 46.43kHz  Cs :   3.750 nF 
233  FREQ: 46.63kHz  Cs :   3.835 nF 
234  FREQ: 46.82kHz  Cs :   3.912 nF 
235  FREQ: 47.02kHz  Cs :   3.990 nF 
236  FREQ: 47.22kHz  Cs :   4.064 nF 
237  FREQ: 47.41kHz  Cs :   4.131 nF 
238  FREQ: 47.61kHz  Cs :   4.198 nF 
239  FREQ: 47.81kHz  Cs :   4.263 nF 
240  FREQ: 48.00kHz  Cs :   4.322 nF 
241  FREQ: 48.20kHz  Cs :   4.381 nF 
242  FREQ: 48.40kHz  Cs :   4.437 nF 
243  FREQ: 48.59kHz  Cs :   4.489 nF 
244  FREQ: 48.79kHz  Cs :   4.540 nF 
245  FREQ: 48.99kHz  Cs :   4.589 nF 
246  FREQ: 49.18kHz  Cs :   4.634 nF 
247  FREQ: 49.38kHz  Cs :   4.678 nF 
248  FREQ: 49.58kHz  Cs :   4.721 nF 
249  FREQ: 49.77kHz  Cs :   4.761 nF 
250  FREQ: 49.97kHz  Cs :   4.801 nF 
251  FREQ: 50.17kHz  Cs :   4.801 nF 
252  FREQ: 50.36kHz  Cs :   4.878 nF 
253  FREQ: 50.56kHz  Cs :   4.906 nF 
254  FREQ: 50.76kHz  Cs :   4.958 nF 
255  FREQ: 50.95kHz  Cs :   4.981 nF 
256  FREQ: 51.15kHz  Cs :   5.025 nF 
257  FREQ: 51.35kHz  Cs :   5.058 nF 
258  FREQ: 51.54kHz  Cs :   5.097 nF 
259  FREQ: 51.74kHz  Cs :   5.115 nF 
260  FREQ: 51.94kHz  Cs :   5.160 nF 
261  FREQ: 52.13kHz  Cs :   5.188 nF 
262  FREQ: 52.33kHz  Cs :   5.221 nF 
263  FREQ: 52.53kHz  Cs :   5.247 nF 
264  FREQ: 52.72kHz  Cs :   5.272 nF 
265  FREQ: 52.92kHz  Cs :   5.311 nF 
266  FREQ: 53.12kHz  Cs :   5.328 nF 
267  FREQ: 53.31kHz  Cs :   5.344 nF 
268  FREQ: 53.51kHz  Cs :   5.380 nF 
269  FREQ: 53.71kHz  Cs :   5.398 nF 
270  FREQ: 53.90kHz  Cs :   5.426 nF 
271  FREQ: 54.10kHz  Cs :   5.470 nF 
272  FREQ: 54.30kHz  Cs :   5.487 nF 
273  FREQ: 54.49kHz  Cs :   5.491 nF 
274  FREQ: 54.69kHz  Cs :   5.521 nF 
275  FREQ: 54.89kHz  Cs :   5.538 nF 
276  FREQ: 55.08kHz  Cs :   5.571 nF 
277  FREQ: 55.28kHz  Cs :   5.581 nF 
278  FREQ: 55.48kHz  Cs :   5.620 nF 
279  FREQ: 55.67kHz  Cs :   5.628 nF 
280  FREQ: 55.87kHz  Cs :   5.649 nF 
281  FREQ: 56.07kHz  Cs :   5.675 nF 
282  FREQ: 56.26kHz  Cs :   5.705 nF 
283  FREQ: 56.46kHz  Cs :   5.714 nF 
284  FREQ: 56.66kHz  Cs :   5.736 nF 
285  FREQ: 56.85kHz  Cs :   5.752 nF 
286  FREQ: 57.05kHz  Cs :   5.783 nF 
287  FREQ: 57.25kHz  Cs :   5.782 nF 
288  FREQ: 57.44kHz  Cs :   5.809 nF 
289  FREQ: 57.64kHz  Cs :   5.818 nF 
290  FREQ: 57.84kHz  Cs :   5.820 nF 
291  FREQ: 58.03kHz  Cs :   5.842 nF 
292  FREQ: 58.23kHz  Cs :   5.839 nF 
293  FREQ: 58.43kHz  Cs :   5.858 nF 
294  FREQ: 58.62kHz  Cs :   5.862 nF 
295  FREQ: 58.82kHz  Cs :   5.878 nF 
296  FREQ: 59.02kHz  Cs :   5.893 nF 
297  FREQ: 59.21kHz  Cs :   5.886 nF 
298  FREQ: 59.41kHz  Cs :   5.905 nF 
299  FREQ: 59.61kHz  Cs :   5.905 nF 
300  FREQ: 59.80kHz  Cs :   5.915 nF 
301  FREQ: 60.00kHz  Cs :   5.919 nF 
