   SWEEP MEASUREMENT
------------------------
Date:       2017/06/22
Time:         22:20:09
HIGH       : 86.90nF 
LOW        :-54.17nF 
STARTFREQ  : 1.000kHz
STOPFREQ   : 60.00kHz
LEVEL      : 1  VRMS
STEP       : 1
AUTOSCALE  : ON 
SCALE      : LINEAR   
  1  FREQ: 1.000kHz  Cs :   3.578 nF 
  2  FREQ: 1.197kHz  Cs :   3.577 nF 
  3  FREQ: 1.393kHz  Cs :   3.576 nF 
  4  FREQ: 1.590kHz  Cs :   3.575 nF 
  5  FREQ: 1.787kHz  Cs :   3.576 nF 
  6  FREQ: 1.983kHz  Cs :   3.575 nF 
  7  FREQ: 2.180kHz  Cs :   3.575 nF 
  8  FREQ: 2.377kHz  Cs :   3.575 nF 
  9  FREQ: 2.573kHz  Cs :   3.575 nF 
 10  FREQ: 2.770kHz  Cs :   3.575 nF 
 11  FREQ: 2.967kHz  Cs :   3.575 nF 
 12  FREQ: 3.163kHz  Cs :   3.575 nF 
 13  FREQ: 3.360kHz  Cs :   3.575 nF 
 14  FREQ: 3.557kHz  Cs :   3.575 nF 
 15  FREQ: 3.753kHz  Cs :   3.575 nF 
 16  FREQ: 3.950kHz  Cs :   3.575 nF 
 17  FREQ: 4.147kHz  Cs :   3.575 nF 
 18  FREQ: 4.343kHz  Cs :   3.575 nF 
 19  FREQ: 4.540kHz  Cs :   3.576 nF 
 20  FREQ: 4.737kHz  Cs :   3.576 nF 
 21  FREQ: 4.933kHz  Cs :   3.577 nF 
 22  FREQ: 5.130kHz  Cs :   3.577 nF 
 23  FREQ: 5.327kHz  Cs :   3.577 nF 
 24  FREQ: 5.523kHz  Cs :   3.577 nF 
 25  FREQ: 5.720kHz  Cs :   3.578 nF 
 26  FREQ: 5.917kHz  Cs :   3.578 nF 
 27  FREQ: 6.113kHz  Cs :   3.579 nF 
 28  FREQ: 6.310kHz  Cs :   3.580 nF 
 29  FREQ: 6.507kHz  Cs :   3.580 nF 
 30  FREQ: 6.703kHz  Cs :   3.581 nF 
 31  FREQ: 6.900kHz  Cs :   3.581 nF 
 32  FREQ: 7.097kHz  Cs :   3.582 nF 
 33  FREQ: 7.293kHz  Cs :   3.583 nF 
 34  FREQ: 7.490kHz  Cs :   3.583 nF 
 35  FREQ: 7.687kHz  Cs :   3.584 nF 
 36  FREQ: 7.883kHz  Cs :   3.585 nF 
 37  FREQ: 8.080kHz  Cs :   3.586 nF 
 38  FREQ: 8.277kHz  Cs :   3.587 nF 
 39  FREQ: 8.473kHz  Cs :   3.588 nF 
 40  FREQ: 8.670kHz  Cs :   3.589 nF 
 41  FREQ: 8.867kHz  Cs :   3.590 nF 
 42  FREQ: 9.063kHz  Cs :   3.590 nF 
 43  FREQ: 9.260kHz  Cs :   3.591 nF 
 44  FREQ: 9.457kHz  Cs :   3.592 nF 
 45  FREQ: 9.653kHz  Cs :   3.593 nF 
 46  FREQ: 9.850kHz  Cs :   3.595 nF 
 47  FREQ: 10.05kHz  Cs :   3.596 nF 
 48  FREQ: 10.24kHz  Cs :   3.597 nF 
 49  FREQ: 10.44kHz  Cs :   3.598 nF 
 50  FREQ: 10.64kHz  Cs :   3.600 nF 
 51  FREQ: 10.83kHz  Cs :   3.601 nF 
 52  FREQ: 11.03kHz  Cs :   3.602 nF 
 53  FREQ: 11.23kHz  Cs :   3.603 nF 
 54  FREQ: 11.42kHz  Cs :   3.604 nF 
 55  FREQ: 11.62kHz  Cs :   3.606 nF 
 56  FREQ: 11.82kHz  Cs :   3.607 nF 
 57  FREQ: 12.01kHz  Cs :   3.609 nF 
 58  FREQ: 12.21kHz  Cs :   3.611 nF 
 59  FREQ: 12.41kHz  Cs :   3.612 nF 
 60  FREQ: 12.60kHz  Cs :   3.614 nF 
 61  FREQ: 12.80kHz  Cs :   3.616 nF 
 62  FREQ: 13.00kHz  Cs :   3.617 nF 
 63  FREQ: 13.19kHz  Cs :   3.619 nF 
 64  FREQ: 13.39kHz  Cs :   3.624 nF 
 65  FREQ: 13.59kHz  Cs :   3.622 nF 
 66  FREQ: 13.78kHz  Cs :   3.624 nF 
 67  FREQ: 13.98kHz  Cs :   3.626 nF 
 68  FREQ: 14.18kHz  Cs :   3.628 nF 
 69  FREQ: 14.37kHz  Cs :   3.630 nF 
 70  FREQ: 14.57kHz  Cs :   3.632 nF 
 71  FREQ: 14.77kHz  Cs :   3.634 nF 
 72  FREQ: 14.96kHz  Cs :   3.636 nF 
 73  FREQ: 15.16kHz  Cs :   3.638 nF 
 74  FREQ: 15.36kHz  Cs :   3.642 nF 
 75  FREQ: 15.55kHz  Cs :   3.644 nF 
 76  FREQ: 15.75kHz  Cs :   3.646 nF 
 77  FREQ: 15.95kHz  Cs :   3.648 nF 
 78  FREQ: 16.14kHz  Cs :   3.651 nF 
 79  FREQ: 16.34kHz  Cs :   3.653 nF 
 80  FREQ: 16.54kHz  Cs :   3.655 nF 
 81  FREQ: 16.73kHz  Cs :   3.658 nF 
 82  FREQ: 16.93kHz  Cs :   3.660 nF 
 83  FREQ: 17.13kHz  Cs :   3.663 nF 
 84  FREQ: 17.32kHz  Cs :   3.665 nF 
 85  FREQ: 17.52kHz  Cs :   3.668 nF 
 86  FREQ: 17.72kHz  Cs :   3.671 nF 
 87  FREQ: 17.91kHz  Cs :   3.674 nF 
 88  FREQ: 18.11kHz  Cs :   3.673 nF 
 89  FREQ: 18.31kHz  Cs :   3.676 nF 
 90  FREQ: 18.50kHz  Cs :   3.679 nF 
 91  FREQ: 18.70kHz  Cs :   3.682 nF 
 92  FREQ: 18.90kHz  Cs :   3.685 nF 
 93  FREQ: 19.09kHz  Cs :   3.688 nF 
 94  FREQ: 19.29kHz  Cs :   3.693 nF 
 95  FREQ: 19.49kHz  Cs :   3.696 nF 
 96  FREQ: 19.68kHz  Cs :   3.700 nF 
 97  FREQ: 19.88kHz  Cs :   3.703 nF 
 98  FREQ: 20.08kHz  Cs :   3.707 nF 
 99  FREQ: 20.27kHz  Cs :   3.710 nF 
100  FREQ: 20.47kHz  Cs :   3.714 nF 
101  FREQ: 20.67kHz  Cs :   3.718 nF 
102  FREQ: 20.86kHz  Cs :   3.722 nF 
103  FREQ: 21.06kHz  Cs :   3.726 nF 
104  FREQ: 21.26kHz  Cs :   3.730 nF 
105  FREQ: 21.45kHz  Cs :   3.734 nF 
106  FREQ: 21.65kHz  Cs :   3.738 nF 
107  FREQ: 21.85kHz  Cs :   3.743 nF 
108  FREQ: 22.04kHz  Cs :   3.747 nF 
109  FREQ: 22.24kHz  Cs :   3.752 nF 
110  FREQ: 22.44kHz  Cs :   3.756 nF 
111  FREQ: 22.63kHz  Cs :   3.757 nF 
112  FREQ: 22.83kHz  Cs :   3.762 nF 
113  FREQ: 23.03kHz  Cs :   3.768 nF 
114  FREQ: 23.22kHz  Cs :   3.774 nF 
115  FREQ: 23.42kHz  Cs :   3.779 nF 
116  FREQ: 23.62kHz  Cs :   3.785 nF 
117  FREQ: 23.81kHz  Cs :   3.790 nF 
118  FREQ: 24.01kHz  Cs :   3.796 nF 
119  FREQ: 24.21kHz  Cs :   3.802 nF 
120  FREQ: 24.40kHz  Cs :   3.802 nF 
121  FREQ: 24.60kHz  Cs :   3.814 nF 
122  FREQ: 24.80kHz  Cs :   3.820 nF 
123  FREQ: 24.99kHz  Cs :   3.826 nF 
124  FREQ: 25.19kHz  Cs :   3.839 nF 
125  FREQ: 25.39kHz  Cs :   3.839 nF 
126  FREQ: 25.58kHz  Cs :   3.852 nF 
127  FREQ: 25.78kHz  Cs :   3.859 nF 
128  FREQ: 25.98kHz  Cs :   3.859 nF 
129  FREQ: 26.17kHz  Cs :   3.866 nF 
130  FREQ: 26.37kHz  Cs :   3.881 nF 
131  FREQ: 26.57kHz  Cs :   3.888 nF 
132  FREQ: 26.76kHz  Cs :   3.896 nF 
133  FREQ: 26.96kHz  Cs :   3.905 nF 
134  FREQ: 27.16kHz  Cs :   3.913 nF 
135  FREQ: 27.35kHz  Cs :   3.922 nF 
136  FREQ: 27.55kHz  Cs :   3.923 nF 
137  FREQ: 27.75kHz  Cs :   3.932 nF 
138  FREQ: 27.94kHz  Cs :   3.941 nF 
139  FREQ: 28.14kHz  Cs :   3.951 nF 
140  FREQ: 28.34kHz  Cs :   3.961 nF 
141  FREQ: 28.53kHz  Cs :   3.970 nF 
142  FREQ: 28.73kHz  Cs :   3.981 nF 
143  FREQ: 28.93kHz  Cs :   3.992 nF 
144  FREQ: 29.12kHz  Cs :   4.002 nF 
145  FREQ: 29.32kHz  Cs :   4.014 nF 
146  FREQ: 29.52kHz  Cs :   4.026 nF 
147  FREQ: 29.71kHz  Cs :   4.038 nF 
148  FREQ: 29.91kHz  Cs :   4.050 nF 
149  FREQ: 30.11kHz  Cs :   4.064 nF 
150  FREQ: 30.30kHz  Cs :   4.077 nF 
151  FREQ: 30.50kHz  Cs :   4.092 nF 
152  FREQ: 30.70kHz  Cs :   4.107 nF 
153  FREQ: 30.89kHz  Cs :   4.122 nF 
154  FREQ: 31.09kHz  Cs :   4.140 nF 
155  FREQ: 31.29kHz  Cs :   4.157 nF 
156  FREQ: 31.48kHz  Cs :   4.174 nF 
157  FREQ: 31.68kHz  Cs :   4.193 nF 
158  FREQ: 31.88kHz  Cs :   4.212 nF 
159  FREQ: 32.07kHz  Cs :   4.231 nF 
160  FREQ: 32.27kHz  Cs :   4.252 nF 
161  FREQ: 32.47kHz  Cs :   4.274 nF 
162  FREQ: 32.66kHz  Cs :   4.296 nF 
163  FREQ: 32.86kHz  Cs :   4.320 nF 
164  FREQ: 33.06kHz  Cs :   4.346 nF 
165  FREQ: 33.25kHz  Cs :   4.371 nF 
166  FREQ: 33.45kHz  Cs :   4.399 nF 
167  FREQ: 33.65kHz  Cs :   4.429 nF 
168  FREQ: 33.84kHz  Cs :   4.458 nF 
169  FREQ: 34.04kHz  Cs :   4.491 nF 
170  FREQ: 34.24kHz  Cs :   4.526 nF 
171  FREQ: 34.43kHz  Cs :   4.561 nF 
172  FREQ: 34.63kHz  Cs :   4.601 nF 
173  FREQ: 34.83kHz  Cs :   4.643 nF 
174  FREQ: 35.02kHz  Cs :   4.685 nF 
175  FREQ: 35.22kHz  Cs :   4.733 nF 
176  FREQ: 35.42kHz  Cs :   4.788 nF 
177  FREQ: 35.61kHz  Cs :   4.840 nF 
178  FREQ: 35.81kHz  Cs :   4.898 nF 
179  FREQ: 36.01kHz  Cs :   4.961 nF 
180  FREQ: 36.20kHz  Cs :   5.026 nF 
181  FREQ: 36.40kHz  Cs :   5.099 nF 
182  FREQ: 36.60kHz  Cs :   5.171 nF 
183  FREQ: 36.79kHz  Cs :   5.254 nF 
184  FREQ: 36.99kHz  Cs :   5.351 nF 
185  FREQ: 37.19kHz  Cs :   5.459 nF 
186  FREQ: 37.38kHz  Cs :   5.572 nF 
187  FREQ: 37.58kHz  Cs :   5.706 nF 
188  FREQ: 37.78kHz  Cs :   5.856 nF 
189  FREQ: 37.97kHz  Cs :   6.017 nF 
190  FREQ: 38.17kHz  Cs :   6.210 nF 
191  FREQ: 38.37kHz  Cs :   6.432 nF 
192  FREQ: 38.56kHz  Cs :   6.676 nF 
193  FREQ: 38.76kHz  Cs :   6.976 nF 
194  FREQ: 38.96kHz  Cs :   7.335 nF 
195  FREQ: 39.15kHz  Cs :   7.747 nF 
196  FREQ: 39.35kHz  Cs :   8.280 nF 
197  FREQ: 39.55kHz  Cs :   8.956 nF 
198  FREQ: 39.74kHz  Cs :   9.791 nF 
199  FREQ: 39.94kHz  Cs :   11.00 nF 
200  FREQ: 40.14kHz  Cs :   12.79 nF 
201  FREQ: 40.33kHz  Cs :   15.36 nF 
202  FREQ: 40.53kHz  Cs :   19.94 nF 
203  FREQ: 40.73kHz  Cs :   29.40 nF 
204  FREQ: 40.92kHz  Cs :   57.93 nF 
205  FREQ: 41.12kHz  Cs :  -325.5 nF 
206  FREQ: 41.32kHz  Cs :  -39.37 nF 
207  FREQ: 41.51kHz  Cs :  -20.83 nF 
208  FREQ: 41.71kHz  Cs :  -13.83 nF 
209  FREQ: 41.91kHz  Cs :  -10.70 nF 
210  FREQ: 42.10kHz  Cs :  -9.432 nF 
211  FREQ: 42.30kHz  Cs :  -9.928 nF 
212  FREQ: 42.50kHz  Cs :  -16.80 nF 
213  FREQ: 42.69kHz  Cs :   34.35 nF 
214  FREQ: 42.89kHz  Cs :   5.720 nF 
215  FREQ: 43.09kHz  Cs :   2.937 nF 
216  FREQ: 43.28kHz  Cs :   2.098 nF 
217  FREQ: 43.48kHz  Cs :   1.736 nF 
218  FREQ: 43.68kHz  Cs :   1.578 nF 
219  FREQ: 43.87kHz  Cs :   1.516 nF 
220  FREQ: 44.07kHz  Cs :   1.508 nF 
221  FREQ: 44.27kHz  Cs :   1.530 nF 
222  FREQ: 44.46kHz  Cs :   1.569 nF 
223  FREQ: 44.66kHz  Cs :   1.620 nF 
224  FREQ: 44.86kHz  Cs :   1.675 nF 
225  FREQ: 45.05kHz  Cs :   1.729 nF 
226  FREQ: 45.25kHz  Cs :   1.785 nF 
227  FREQ: 45.45kHz  Cs :   1.838 nF 
228  FREQ: 45.64kHz  Cs :   1.888 nF 
229  FREQ: 45.84kHz  Cs :   1.936 nF 
230  FREQ: 46.04kHz  Cs :   1.983 nF 
231  FREQ: 46.23kHz  Cs :   2.026 nF 
232  FREQ: 46.43kHz  Cs :   2.068 nF 
233  FREQ: 46.63kHz  Cs :   2.109 nF 
234  FREQ: 46.82kHz  Cs :   2.145 nF 
235  FREQ: 47.02kHz  Cs :   2.182 nF 
236  FREQ: 47.22kHz  Cs :   2.217 nF 
237  FREQ: 47.41kHz  Cs :   2.249 nF 
238  FREQ: 47.61kHz  Cs :   2.281 nF 
239  FREQ: 47.81kHz  Cs :   2.311 nF 
240  FREQ: 48.00kHz  Cs :   2.339 nF 
241  FREQ: 48.20kHz  Cs :   2.367 nF 
242  FREQ: 48.40kHz  Cs :   2.394 nF 
243  FREQ: 48.59kHz  Cs :   2.418 nF 
244  FREQ: 48.79kHz  Cs :   2.418 nF 
245  FREQ: 48.99kHz  Cs :   2.467 nF 
246  FREQ: 49.18kHz  Cs :   2.488 nF 
247  FREQ: 49.38kHz  Cs :   2.510 nF 
248  FREQ: 49.58kHz  Cs :   2.531 nF 
249  FREQ: 49.77kHz  Cs :   2.551 nF 
250  FREQ: 49.97kHz  Cs :   2.570 nF 
251  FREQ: 50.17kHz  Cs :   2.592 nF 
252  FREQ: 50.36kHz  Cs :   2.606 nF 
253  FREQ: 50.56kHz  Cs :   2.618 nF 
254  FREQ: 50.76kHz  Cs :   2.642 nF 
255  FREQ: 50.95kHz  Cs :   2.652 nF 
256  FREQ: 51.15kHz  Cs :   2.672 nF 
257  FREQ: 51.35kHz  Cs :   2.686 nF 
258  FREQ: 51.54kHz  Cs :   2.704 nF 
259  FREQ: 51.74kHz  Cs :   2.710 nF 
260  FREQ: 51.94kHz  Cs :   2.732 nF 
261  FREQ: 52.13kHz  Cs :   2.745 nF 
262  FREQ: 52.33kHz  Cs :   2.760 nF 
263  FREQ: 52.53kHz  Cs :   2.772 nF 
264  FREQ: 52.72kHz  Cs :   2.783 nF 
265  FREQ: 52.92kHz  Cs :   2.802 nF 
266  FREQ: 53.12kHz  Cs :   2.810 nF 
267  FREQ: 53.31kHz  Cs :   2.816 nF 
268  FREQ: 53.51kHz  Cs :   2.833 nF 
269  FREQ: 53.71kHz  Cs :   2.840 nF 
270  FREQ: 53.90kHz  Cs :   2.852 nF 
271  FREQ: 54.10kHz  Cs :   2.872 nF 
272  FREQ: 54.30kHz  Cs :   2.883 nF 
273  FREQ: 54.49kHz  Cs :   2.886 nF 
274  FREQ: 54.69kHz  Cs :   2.902 nF 
275  FREQ: 54.89kHz  Cs :   2.910 nF 
276  FREQ: 55.08kHz  Cs :   2.927 nF 
277  FREQ: 55.28kHz  Cs :   2.932 nF 
278  FREQ: 55.48kHz  Cs :   2.951 nF 
279  FREQ: 55.67kHz  Cs :   2.954 nF 
280  FREQ: 55.87kHz  Cs :   2.964 nF 
281  FREQ: 56.07kHz  Cs :   2.977 nF 
282  FREQ: 56.26kHz  Cs :   2.991 nF 
283  FREQ: 56.46kHz  Cs :   2.995 nF 
284  FREQ: 56.66kHz  Cs :   3.004 nF 
285  FREQ: 56.85kHz  Cs :   3.011 nF 
286  FREQ: 57.05kHz  Cs :   3.026 nF 
287  FREQ: 57.25kHz  Cs :   3.025 nF 
288  FREQ: 57.44kHz  Cs :   3.038 nF 
289  FREQ: 57.64kHz  Cs :   3.043 nF 
290  FREQ: 57.84kHz  Cs :   3.045 nF 
291  FREQ: 58.03kHz  Cs :   3.057 nF 
292  FREQ: 58.23kHz  Cs :   3.056 nF 
293  FREQ: 58.43kHz  Cs :   3.066 nF 
294  FREQ: 58.62kHz  Cs :   3.069 nF 
295  FREQ: 58.82kHz  Cs :   3.077 nF 
296  FREQ: 59.02kHz  Cs :   3.084 nF 
297  FREQ: 59.21kHz  Cs :   3.080 nF 
298  FREQ: 59.41kHz  Cs :   3.089 nF 
299  FREQ: 59.61kHz  Cs :   3.088 nF 
300  FREQ: 59.80kHz  Cs :   3.093 nF 
301  FREQ: 60.00kHz  Cs :   3.094 nF 
