   SWEEP MEASUREMENT
------------------------
Date:       2017/06/18
Time:         04:00:54
HIGH       : 373.8nF 
LOW        :-571.8nF 
STARTFREQ  : 1.000kHz
STOPFREQ   : 60.00kHz
LEVEL      : 1  VRMS
STEP       : 1
AUTOSCALE  : ON 
SCALE      : LINEAR   
  1  FREQ: 1.000kHz  Cs :   6.991 nF 
  2  FREQ: 1.197kHz  Cs :   6.989 nF 
  3  FREQ: 1.393kHz  Cs :   6.986 nF 
  4  FREQ: 1.590kHz  Cs :   6.984 nF 
  5  FREQ: 1.787kHz  Cs :   6.984 nF 
  6  FREQ: 1.983kHz  Cs :   6.982 nF 
  7  FREQ: 2.180kHz  Cs :   6.981 nF 
  8  FREQ: 2.377kHz  Cs :   6.981 nF 
  9  FREQ: 2.573kHz  Cs :   6.980 nF 
 10  FREQ: 2.770kHz  Cs :   6.979 nF 
 11  FREQ: 2.967kHz  Cs :   6.979 nF 
 12  FREQ: 3.163kHz  Cs :   6.979 nF 
 13  FREQ: 3.360kHz  Cs :   6.978 nF 
 14  FREQ: 3.557kHz  Cs :   6.980 nF 
 15  FREQ: 3.753kHz  Cs :   6.980 nF 
 16  FREQ: 3.950kHz  Cs :   6.979 nF 
 17  FREQ: 4.147kHz  Cs :   6.979 nF 
 18  FREQ: 4.343kHz  Cs :   6.980 nF 
 19  FREQ: 4.540kHz  Cs :   6.980 nF 
 20  FREQ: 4.737kHz  Cs :   6.980 nF 
 21  FREQ: 4.933kHz  Cs :   6.981 nF 
 22  FREQ: 5.130kHz  Cs :   6.982 nF 
 23  FREQ: 5.327kHz  Cs :   6.982 nF 
 24  FREQ: 5.523kHz  Cs :   6.982 nF 
 25  FREQ: 5.720kHz  Cs :   6.983 nF 
 26  FREQ: 5.917kHz  Cs :   6.984 nF 
 27  FREQ: 6.113kHz  Cs :   6.985 nF 
 28  FREQ: 6.310kHz  Cs :   6.986 nF 
 29  FREQ: 6.507kHz  Cs :   6.987 nF 
 30  FREQ: 6.703kHz  Cs :   6.988 nF 
 31  FREQ: 6.900kHz  Cs :   6.987 nF 
 32  FREQ: 7.097kHz  Cs :   6.995 nF 
 33  FREQ: 7.293kHz  Cs :   6.996 nF 
 34  FREQ: 7.490kHz  Cs :   6.997 nF 
 35  FREQ: 7.687kHz  Cs :   6.999 nF 
 36  FREQ: 7.883kHz  Cs :   7.001 nF 
 37  FREQ: 8.080kHz  Cs :   7.003 nF 
 38  FREQ: 8.277kHz  Cs :   7.005 nF 
 39  FREQ: 8.473kHz  Cs :   7.006 nF 
 40  FREQ: 8.670kHz  Cs :   7.008 nF 
 41  FREQ: 8.867kHz  Cs :   7.010 nF 
 42  FREQ: 9.063kHz  Cs :   7.010 nF 
 43  FREQ: 9.260kHz  Cs :   7.011 nF 
 44  FREQ: 9.457kHz  Cs :   7.013 nF 
 45  FREQ: 9.653kHz  Cs :   7.016 nF 
 46  FREQ: 9.850kHz  Cs :   7.018 nF 
 47  FREQ: 10.05kHz  Cs :   7.020 nF 
 48  FREQ: 10.24kHz  Cs :   7.022 nF 
 49  FREQ: 10.44kHz  Cs :   7.024 nF 
 50  FREQ: 10.64kHz  Cs :   7.027 nF 
 51  FREQ: 10.83kHz  Cs :   7.029 nF 
 52  FREQ: 11.03kHz  Cs :   7.031 nF 
 53  FREQ: 11.23kHz  Cs :   7.032 nF 
 54  FREQ: 11.42kHz  Cs :   7.034 nF 
 55  FREQ: 11.62kHz  Cs :   7.037 nF 
 56  FREQ: 11.82kHz  Cs :   7.040 nF 
 57  FREQ: 12.01kHz  Cs :   7.043 nF 
 58  FREQ: 12.21kHz  Cs :   7.046 nF 
 59  FREQ: 12.41kHz  Cs :   7.049 nF 
 60  FREQ: 12.60kHz  Cs :   7.052 nF 
 61  FREQ: 12.80kHz  Cs :   7.055 nF 
 62  FREQ: 13.00kHz  Cs :   7.058 nF 
 63  FREQ: 13.19kHz  Cs :   7.062 nF 
 64  FREQ: 13.39kHz  Cs :   7.065 nF 
 65  FREQ: 13.59kHz  Cs :   7.061 nF 
 66  FREQ: 13.78kHz  Cs :   7.077 nF 
 67  FREQ: 13.98kHz  Cs :   7.080 nF 
 68  FREQ: 14.18kHz  Cs :   7.083 nF 
 69  FREQ: 14.37kHz  Cs :   7.086 nF 
 70  FREQ: 14.57kHz  Cs :   7.090 nF 
 71  FREQ: 14.77kHz  Cs :   7.093 nF 
 72  FREQ: 14.96kHz  Cs :   7.097 nF 
 73  FREQ: 15.16kHz  Cs :   7.100 nF 
 74  FREQ: 15.36kHz  Cs :   7.104 nF 
 75  FREQ: 15.55kHz  Cs :   7.112 nF 
 76  FREQ: 15.75kHz  Cs :   7.116 nF 
 77  FREQ: 15.95kHz  Cs :   7.121 nF 
 78  FREQ: 16.14kHz  Cs :   7.125 nF 
 79  FREQ: 16.34kHz  Cs :   7.129 nF 
 80  FREQ: 16.54kHz  Cs :   7.134 nF 
 81  FREQ: 16.73kHz  Cs :   7.138 nF 
 82  FREQ: 16.93kHz  Cs :   7.143 nF 
 83  FREQ: 17.13kHz  Cs :   7.148 nF 
 84  FREQ: 17.32kHz  Cs :   7.152 nF 
 85  FREQ: 17.52kHz  Cs :   7.157 nF 
 86  FREQ: 17.72kHz  Cs :   7.162 nF 
 87  FREQ: 17.91kHz  Cs :   7.167 nF 
 88  FREQ: 18.11kHz  Cs :   7.172 nF 
 89  FREQ: 18.31kHz  Cs :   7.171 nF 
 90  FREQ: 18.50kHz  Cs :   7.176 nF 
 91  FREQ: 18.70kHz  Cs :   7.181 nF 
 92  FREQ: 18.90kHz  Cs :   7.187 nF 
 93  FREQ: 19.09kHz  Cs :   7.192 nF 
 94  FREQ: 19.29kHz  Cs :   7.199 nF 
 95  FREQ: 19.49kHz  Cs :   7.207 nF 
 96  FREQ: 19.68kHz  Cs :   7.214 nF 
 97  FREQ: 19.88kHz  Cs :   7.220 nF 
 98  FREQ: 20.08kHz  Cs :   7.227 nF 
 99  FREQ: 20.27kHz  Cs :   7.234 nF 
100  FREQ: 20.47kHz  Cs :   7.241 nF 
101  FREQ: 20.67kHz  Cs :   7.248 nF 
102  FREQ: 20.86kHz  Cs :   7.254 nF 
103  FREQ: 21.06kHz  Cs :   7.262 nF 
104  FREQ: 21.26kHz  Cs :   7.269 nF 
105  FREQ: 21.45kHz  Cs :   7.276 nF 
106  FREQ: 21.65kHz  Cs :   7.284 nF 
107  FREQ: 21.85kHz  Cs :   7.292 nF 
108  FREQ: 22.04kHz  Cs :   7.299 nF 
109  FREQ: 22.24kHz  Cs :   7.307 nF 
110  FREQ: 22.44kHz  Cs :   7.315 nF 
111  FREQ: 22.63kHz  Cs :   7.323 nF 
112  FREQ: 22.83kHz  Cs :   7.328 nF 
113  FREQ: 23.03kHz  Cs :   7.334 nF 
114  FREQ: 23.22kHz  Cs :   7.343 nF 
115  FREQ: 23.42kHz  Cs :   7.353 nF 
116  FREQ: 23.62kHz  Cs :   7.363 nF 
117  FREQ: 23.81kHz  Cs :   7.372 nF 
118  FREQ: 24.01kHz  Cs :   7.382 nF 
119  FREQ: 24.21kHz  Cs :   7.392 nF 
120  FREQ: 24.40kHz  Cs :   7.402 nF 
121  FREQ: 24.60kHz  Cs :   7.413 nF 
122  FREQ: 24.80kHz  Cs :   7.423 nF 
123  FREQ: 24.99kHz  Cs :   7.432 nF 
124  FREQ: 25.19kHz  Cs :   7.440 nF 
125  FREQ: 25.39kHz  Cs :   7.436 nF 
126  FREQ: 25.58kHz  Cs :   7.459 nF 
127  FREQ: 25.78kHz  Cs :   7.456 nF 
128  FREQ: 25.98kHz  Cs :   7.467 nF 
129  FREQ: 26.17kHz  Cs :   7.493 nF 
130  FREQ: 26.37kHz  Cs :   7.506 nF 
131  FREQ: 26.57kHz  Cs :   7.519 nF 
132  FREQ: 26.76kHz  Cs :   7.532 nF 
133  FREQ: 26.96kHz  Cs :   7.547 nF 
134  FREQ: 27.16kHz  Cs :   7.559 nF 
135  FREQ: 27.35kHz  Cs :   7.571 nF 
136  FREQ: 27.55kHz  Cs :   7.571 nF 
137  FREQ: 27.75kHz  Cs :   7.587 nF 
138  FREQ: 27.94kHz  Cs :   7.602 nF 
139  FREQ: 28.14kHz  Cs :   7.618 nF 
140  FREQ: 28.34kHz  Cs :   7.634 nF 
141  FREQ: 28.53kHz  Cs :   7.650 nF 
142  FREQ: 28.73kHz  Cs :   7.667 nF 
143  FREQ: 28.93kHz  Cs :   7.684 nF 
144  FREQ: 29.12kHz  Cs :   7.701 nF 
145  FREQ: 29.32kHz  Cs :   7.720 nF 
146  FREQ: 29.52kHz  Cs :   7.739 nF 
147  FREQ: 29.71kHz  Cs :   7.757 nF 
148  FREQ: 29.91kHz  Cs :   7.777 nF 
149  FREQ: 30.11kHz  Cs :   7.798 nF 
150  FREQ: 30.30kHz  Cs :   7.818 nF 
151  FREQ: 30.50kHz  Cs :   7.839 nF 
152  FREQ: 30.70kHz  Cs :   7.862 nF 
153  FREQ: 30.89kHz  Cs :   7.884 nF 
154  FREQ: 31.09kHz  Cs :   7.911 nF 
155  FREQ: 31.29kHz  Cs :   7.936 nF 
156  FREQ: 31.48kHz  Cs :   7.961 nF 
157  FREQ: 31.68kHz  Cs :   7.988 nF 
158  FREQ: 31.88kHz  Cs :   8.015 nF 
159  FREQ: 32.07kHz  Cs :   8.043 nF 
160  FREQ: 32.27kHz  Cs :   8.073 nF 
161  FREQ: 32.47kHz  Cs :   8.103 nF 
162  FREQ: 32.66kHz  Cs :   8.130 nF 
163  FREQ: 32.86kHz  Cs :   8.163 nF 
164  FREQ: 33.06kHz  Cs :   8.198 nF 
165  FREQ: 33.25kHz  Cs :   8.232 nF 
166  FREQ: 33.45kHz  Cs :   8.269 nF 
167  FREQ: 33.65kHz  Cs :   8.308 nF 
168  FREQ: 33.84kHz  Cs :   8.346 nF 
169  FREQ: 34.04kHz  Cs :   8.384 nF 
170  FREQ: 34.24kHz  Cs :   8.427 nF 
171  FREQ: 34.43kHz  Cs :   8.471 nF 
172  FREQ: 34.63kHz  Cs :   8.518 nF 
173  FREQ: 34.83kHz  Cs :   8.567 nF 
174  FREQ: 35.02kHz  Cs :   8.616 nF 
175  FREQ: 35.22kHz  Cs :   8.671 nF 
176  FREQ: 35.42kHz  Cs :   8.735 nF 
177  FREQ: 35.61kHz  Cs :   8.792 nF 
178  FREQ: 35.81kHz  Cs :   8.855 nF 
179  FREQ: 36.01kHz  Cs :   8.921 nF 
180  FREQ: 36.20kHz  Cs :   8.987 nF 
181  FREQ: 36.40kHz  Cs :   9.059 nF 
182  FREQ: 36.60kHz  Cs :   9.122 nF 
183  FREQ: 36.79kHz  Cs :   9.199 nF 
184  FREQ: 36.99kHz  Cs :   9.286 nF 
185  FREQ: 37.19kHz  Cs :   9.380 nF 
186  FREQ: 37.38kHz  Cs :   9.474 nF 
187  FREQ: 37.58kHz  Cs :   9.580 nF 
188  FREQ: 37.78kHz  Cs :   9.694 nF 
189  FREQ: 37.97kHz  Cs :   9.810 nF 
190  FREQ: 38.17kHz  Cs :   9.940 nF 
191  FREQ: 38.37kHz  Cs :   10.08 nF 
192  FREQ: 38.56kHz  Cs :   10.23 nF 
193  FREQ: 38.76kHz  Cs :   10.40 nF 
194  FREQ: 38.96kHz  Cs :   10.59 nF 
195  FREQ: 39.15kHz  Cs :   10.78 nF 
196  FREQ: 39.35kHz  Cs :   11.01 nF 
197  FREQ: 39.55kHz  Cs :   11.26 nF 
198  FREQ: 39.74kHz  Cs :   11.53 nF 
199  FREQ: 39.94kHz  Cs :   11.85 nF 
200  FREQ: 40.14kHz  Cs :   11.97 nF 
201  FREQ: 40.33kHz  Cs :   12.16 nF 
202  FREQ: 40.53kHz  Cs :   12.64 nF 
203  FREQ: 40.73kHz  Cs :   13.16 nF 
204  FREQ: 40.92kHz  Cs :   13.70 nF 
205  FREQ: 41.12kHz  Cs :   14.35 nF 
206  FREQ: 41.32kHz  Cs :   15.12 nF 
207  FREQ: 41.51kHz  Cs :   15.99 nF 
208  FREQ: 41.71kHz  Cs :   17.10 nF 
209  FREQ: 41.91kHz  Cs :   18.52 nF 
210  FREQ: 42.10kHz  Cs :   20.25 nF 
211  FREQ: 42.30kHz  Cs :   22.70 nF 
212  FREQ: 42.50kHz  Cs :   26.19 nF 
213  FREQ: 42.69kHz  Cs :   31.24 nF 
214  FREQ: 42.89kHz  Cs :   40.29 nF 
215  FREQ: 43.09kHz  Cs :   59.99 nF 
216  FREQ: 43.28kHz  Cs :   126.6 nF 
217  FREQ: 43.48kHz  Cs :  -367.7 nF 
218  FREQ: 43.68kHz  Cs :  -66.66 nF 
219  FREQ: 43.87kHz  Cs :  -35.02 nF 
220  FREQ: 44.07kHz  Cs :  -22.09 nF 
221  FREQ: 44.27kHz  Cs :  -15.31 nF 
222  FREQ: 44.46kHz  Cs :  -11.31 nF 
223  FREQ: 44.66kHz  Cs :  -8.440 nF 
224  FREQ: 44.86kHz  Cs :  -6.384 nF 
225  FREQ: 45.05kHz  Cs :  -4.910 nF 
226  FREQ: 45.25kHz  Cs :  -3.703 nF 
227  FREQ: 45.45kHz  Cs :  -2.756 nF 
228  FREQ: 45.64kHz  Cs :  -2.051 nF 
229  FREQ: 45.84kHz  Cs :  -1.560 nF 
230  FREQ: 46.04kHz  Cs :  -1.890 nF 
231  FREQ: 46.23kHz  Cs :   2.049 nF 
232  FREQ: 46.43kHz  Cs :   1.028 nF 
233  FREQ: 46.63kHz  Cs :   1.175 nF 
234  FREQ: 46.82kHz  Cs :   1.404 nF 
235  FREQ: 47.02kHz  Cs :   1.652 nF 
236  FREQ: 47.22kHz  Cs :   1.891 nF 
237  FREQ: 47.41kHz  Cs :   2.102 nF 
238  FREQ: 47.61kHz  Cs :   2.309 nF 
239  FREQ: 47.81kHz  Cs :   2.499 nF 
240  FREQ: 48.00kHz  Cs :   2.663 nF 
241  FREQ: 48.20kHz  Cs :   2.815 nF 
242  FREQ: 48.40kHz  Cs :   2.951 nF 
243  FREQ: 48.59kHz  Cs :   3.075 nF 
244  FREQ: 48.79kHz  Cs :   3.201 nF 
245  FREQ: 48.99kHz  Cs :   3.323 nF 
246  FREQ: 49.18kHz  Cs :   3.432 nF 
247  FREQ: 49.38kHz  Cs :   3.540 nF 
248  FREQ: 49.58kHz  Cs :   3.641 nF 
249  FREQ: 49.77kHz  Cs :   3.732 nF 
250  FREQ: 49.97kHz  Cs :   3.822 nF 
251  FREQ: 50.17kHz  Cs :   3.910 nF 
252  FREQ: 50.36kHz  Cs :   3.981 nF 
253  FREQ: 50.56kHz  Cs :   4.050 nF 
254  FREQ: 50.76kHz  Cs :   4.133 nF 
255  FREQ: 50.95kHz  Cs :   4.188 nF 
256  FREQ: 51.15kHz  Cs :   4.261 nF 
257  FREQ: 51.35kHz  Cs :   4.323 nF 
258  FREQ: 51.54kHz  Cs :   4.385 nF 
259  FREQ: 51.74kHz  Cs :   4.428 nF 
260  FREQ: 51.94kHz  Cs :   4.493 nF 
261  FREQ: 52.13kHz  Cs :   4.536 nF 
262  FREQ: 52.33kHz  Cs :   4.588 nF 
263  FREQ: 52.53kHz  Cs :   4.634 nF 
264  FREQ: 52.72kHz  Cs :   4.677 nF 
265  FREQ: 52.92kHz  Cs :   4.732 nF 
266  FREQ: 53.12kHz  Cs :   4.766 nF 
267  FREQ: 53.31kHz  Cs :   4.797 nF 
268  FREQ: 53.51kHz  Cs :   4.846 nF 
269  FREQ: 53.71kHz  Cs :   4.876 nF 
270  FREQ: 53.90kHz  Cs :   4.913 nF 
271  FREQ: 54.10kHz  Cs :   4.964 nF 
272  FREQ: 54.30kHz  Cs :   4.999 nF 
273  FREQ: 54.49kHz  Cs :   5.021 nF 
274  FREQ: 54.69kHz  Cs :   5.064 nF 
275  FREQ: 54.89kHz  Cs :   5.094 nF 
276  FREQ: 55.08kHz  Cs :   5.140 nF 
277  FREQ: 55.28kHz  Cs :   5.170 nF 
278  FREQ: 55.48kHz  Cs :   5.238 nF 
279  FREQ: 55.67kHz  Cs :   5.227 nF 
280  FREQ: 55.87kHz  Cs :   5.202 nF 
281  FREQ: 56.07kHz  Cs :   5.249 nF 
282  FREQ: 56.26kHz  Cs :   5.294 nF 
283  FREQ: 56.46kHz  Cs :   5.317 nF 
284  FREQ: 56.66kHz  Cs :   5.350 nF 
285  FREQ: 56.85kHz  Cs :   5.377 nF 
286  FREQ: 57.05kHz  Cs :   5.420 nF 
287  FREQ: 57.25kHz  Cs :   5.434 nF 
288  FREQ: 57.44kHz  Cs :   5.474 nF 
289  FREQ: 57.64kHz  Cs :   5.500 nF 
290  FREQ: 57.84kHz  Cs :   5.519 nF 
291  FREQ: 58.03kHz  Cs :   5.555 nF 
292  FREQ: 58.23kHz  Cs :   5.563 nF 
293  FREQ: 58.43kHz  Cs :   5.587 nF 
294  FREQ: 58.62kHz  Cs :   5.590 nF 
295  FREQ: 58.82kHz  Cs :   5.595 nF 
296  FREQ: 59.02kHz  Cs :   5.590 nF 
297  FREQ: 59.21kHz  Cs :   5.561 nF 
298  FREQ: 59.41kHz  Cs :   5.555 nF 
299  FREQ: 59.61kHz  Cs :   5.535 nF 
300  FREQ: 59.80kHz  Cs :   5.529 nF 
301  FREQ: 60.00kHz  Cs :   5.523 nF 
