Freq [kHz]	Gain [dB]
30.0	40.15937859
30.5	40.62068467
31.0	41.19995859
31.5	41.61039194
32.0	42.00230306
32.5	42.2540856
33.0	42.7367592
33.5	42.96839665
34.0	43.19401686
34.5	43.52182518
35.0	43.73368665
35.5	43.83771052
36.0	44.04209383
36.5	44.14250986
37.0	44.29099022
37.5	44.33992494
38.0	44.33992494
38.5	44.33992494
39.0	44.29099022
39.5	44.24177825
40.0	44.19228586
40.5	44.04209383
41.0	43.94050332
41.5	43.68120377
42.0	43.52182518
42.5	43.41392454
43.0	43.19401686
43.5	42.96839665
44.0	42.7367592
44.5	42.55888493
45.0	42.31590714
45.5	42.06593623
46.0	41.74300351
46.5	41.61039194
47.0	41.33893579
47.5	41.0587215
48.0	40.84246412
48.5	40.5454817
49.0	40.31588534
49.5	40
50.0	39.75531087