Freq [kHz]	Gain [dB]
30.0	39.67219168
30.5	40.31588534
31.0	40.69524213
31.5	41.19995859
32.0	41.47572428
32.5	42.00230306
33.0	42.2540856
33.5	42.61858201
34.0	42.96839665
34.5	43.19401686
35.0	43.41392454
35.5	43.62840185
36.0	43.83771052
36.5	44.04209383
37.0	44.33992494
37.5	44.38858551
38.0	44.43697499
38.5	44.43697499
39.0	44.43697499
39.5	44.43697499
40.0	44.43697499
40.5	44.38858551
41.0	44.33992494
41.5	44.24177825
42.0	44.09244695
42.5	43.94050332
43.0	43.73368665
43.5	43.62840185
44.0	43.46804241
44.5	43.24951794
45.0	43.02535351
45.5	42.79525026
46.0	42.61858201
46.5	42.31590714
47.0	42.12910662
47.5	41.93820026
48.0	41.6769508
48.5	41.33893579
49.0	41.19995859
49.5	40.9872323
50.0	40.69524213