(module 2pinTerminal (layer F.Cu) (tedit 5945B15B)
  (fp_text reference REF** (at 0.381 4.064) (layer F.SilkS)
    (effects (font (size 1 1) (thickness 0.15)))
  )
  (fp_text value 2pinTerminal (at 1.016 -4.445) (layer F.Fab)
    (effects (font (size 1 1) (thickness 0.15)))
  )
  (fp_line (start 0 -3.302) (end -1.524 -3.302) (layer F.SilkS) (width 0.1))
  (fp_line (start -1.524 -3.302) (end -1.524 3.302) (layer F.SilkS) (width 0.1))
  (fp_line (start -1.524 3.302) (end 4.064 3.302) (layer F.SilkS) (width 0.1))
  (fp_line (start 4.064 3.302) (end 4.064 -3.175) (layer F.SilkS) (width 0.1))
  (fp_line (start 4.064 -3.175) (end 4.064 -3.302) (layer F.SilkS) (width 0.1))
  (fp_line (start 4.064 -3.302) (end 0 -3.302) (layer F.SilkS) (width 0.1))
  (pad 2 thru_hole circle (at 2.54 0) (size 1.8 1.8) (drill 0.9) (layers *.Cu *.Mask F.SilkS))
  (pad 1 thru_hole circle (at 0 0) (size 1.8 1.8) (drill 0.9) (layers *.Cu *.Mask F.SilkS))
)
