(module Sumida_3pin_Ind (layer F.Cu) (tedit 59455942)
  (fp_text reference REF** (at -6.096 4.064) (layer F.SilkS)
    (effects (font (size 1 1) (thickness 0.15)))
  )
  (fp_text value Sumida_3pin_Ind (at 0 -5.588) (layer F.Fab)
    (effects (font (size 1 1) (thickness 0.15)))
  )
  (fp_circle (center 0 0) (end -5.08 0) (layer F.SilkS) (width 0.1))
  (pad 1 thru_hole circle (at 2 2.5) (size 2 2) (drill 0.9) (layers *.Cu *.Mask F.SilkS))
  (pad "" np_thru_hole circle (at -2 2.5) (size 2 2) (drill 0.9) (layers *.Cu *.Mask F.SilkS))
  (pad 2 thru_hole circle (at -2 -2.5) (size 2 2) (drill 0.9) (layers *.Cu *.Mask F.SilkS))
)
