(module Sumida_2pin_Ind (layer F.Cu) (tedit 594558C9)
  (fp_text reference REF** (at -4.064 3.556) (layer F.SilkS)
    (effects (font (size 1 1) (thickness 0.15)))
  )
  (fp_text value "Sumida 2pin Ind" (at 0.254 -5.08) (layer F.Fab)
    (effects (font (size 1 1) (thickness 0.15)))
  )
  (fp_circle (center 0 0) (end 4 0) (layer F.SilkS) (width 0.1))
  (pad 1 thru_hole circle (at 0 -2.5) (size 2 2) (drill 0.9) (layers *.Cu *.Mask F.SilkS))
  (pad 2 thru_hole circle (at 0 2.5) (size 2 2) (drill 0.9) (layers *.Cu *.Mask F.SilkS))
)
