(module TestPoint (layer F.Cu) (tedit 5810FDCD)
  (fp_text reference REF** (at 0 -2.54) (layer F.SilkS)
    (effects (font (size 1 1) (thickness 0.15)))
  )
  (fp_text value TP (at 0 2.54) (layer F.Fab)
    (effects (font (size 1 1) (thickness 0.15)))
  )
  (pad 1 smd rect (at 0 0) (size 3.45 1.85) (layers F.Cu F.Paste F.Mask))
)
