EESchema Schematic File Version 2
LIBS:Receiverv01-sch_lib
LIBS:power
LIBS:device
LIBS:transistors
LIBS:conn
LIBS:linear
LIBS:regul
LIBS:74xx
LIBS:cmos4000
LIBS:adc-dac
LIBS:memory
LIBS:xilinx
LIBS:microcontrollers
LIBS:dsp
LIBS:microchip
LIBS:analog_switches
LIBS:motorola
LIBS:texas
LIBS:intel
LIBS:audio
LIBS:interface
LIBS:digital-audio
LIBS:philips
LIBS:display
LIBS:cypress
LIBS:siliconi
LIBS:opto
LIBS:atmel
LIBS:contrib
LIBS:valves
LIBS:Receiverv01-cache
EELAYER 25 0
EELAYER END
$Descr A4 11693 8268
encoding utf-8
Sheet 1 1
Title ""
Date ""
Rev ""
Comp ""
Comment1 ""
Comment2 ""
Comment3 ""
Comment4 ""
$EndDescr
$Comp
L TL072 U2
U 1 1 59445CCE
P 3000 3850
F 0 "U2" H 2950 4050 50  0000 L CNN
F 1 "TL072" H 2950 3600 50  0000 L CNN
F 2 "Receiver_v0:TI_SOIC8" H 3000 3850 50  0001 C CNN
F 3 "" H 3000 3850 50  0000 C CNN
	1    3000 3850
	1    0    0    1   
$EndComp
$Comp
L TL072 U2
U 2 1 59445D27
P 5550 3950
F 0 "U2" H 5500 4150 50  0000 L CNN
F 1 "TL072" H 5500 3700 50  0000 L CNN
F 2 "Receiver_v0:TI_SOIC8" H 5550 3950 50  0001 C CNN
F 3 "" H 5550 3950 50  0000 C CNN
	2    5550 3950
	1    0    0    1   
$EndComp
$Comp
L R R2
U 1 1 59445E72
P 1350 4100
F 0 "R2" V 1430 4100 50  0000 C CNN
F 1 "150" V 1350 4100 50  0000 C CNN
F 2 "Resistors_SMD:R_0603_HandSoldering" V 1280 4100 50  0001 C CNN
F 3 "" H 1350 4100 50  0000 C CNN
	1    1350 4100
	1    0    0    -1  
$EndComp
$Comp
L R R11
U 1 1 59445F13
P 6550 3950
F 0 "R11" V 6630 3950 50  0000 C CNN
F 1 "600" V 6550 3950 50  0000 C CNN
F 2 "Resistors_SMD:R_0603_HandSoldering" V 6480 3950 50  0001 C CNN
F 3 "" H 6550 3950 50  0000 C CNN
	1    6550 3950
	0    1    1    0   
$EndComp
$Comp
L R R6
U 1 1 59446084
P 2500 4400
F 0 "R6" V 2580 4400 50  0000 C CNN
F 1 "10M" V 2500 4400 50  0000 C CNN
F 2 "Resistors_SMD:R_0603_HandSoldering" V 2430 4400 50  0001 C CNN
F 3 "" H 2500 4400 50  0000 C CNN
	1    2500 4400
	1    0    0    -1  
$EndComp
$Comp
L R R4
U 1 1 594460B9
P 2100 3850
F 0 "R4" V 2180 3850 50  0000 C CNN
F 1 "10M" V 2100 3850 50  0000 C CNN
F 2 "Resistors_SMD:R_0603_HandSoldering" V 2030 3850 50  0001 C CNN
F 3 "" H 2100 3850 50  0000 C CNN
	1    2100 3850
	0    1    1    0   
$EndComp
$Comp
L R R5
U 1 1 594460FD
P 2300 3200
F 0 "R5" V 2380 3200 50  0000 C CNN
F 1 "15k" V 2300 3200 50  0000 C CNN
F 2 "Resistors_SMD:R_0603_HandSoldering" V 2230 3200 50  0001 C CNN
F 3 "" H 2300 3200 50  0000 C CNN
	1    2300 3200
	0    1    1    0   
$EndComp
$Comp
L R R7
U 1 1 59446140
P 3750 3850
F 0 "R7" V 3830 3850 50  0000 C CNN
F 1 "3.9k" V 3750 3850 50  0000 C CNN
F 2 "Resistors_SMD:R_0603_HandSoldering" V 3680 3850 50  0001 C CNN
F 3 "" H 3750 3850 50  0000 C CNN
	1    3750 3850
	0    1    1    0   
$EndComp
$Comp
L R R8
U 1 1 594461B0
P 4200 4200
F 0 "R8" V 4280 4200 50  0000 C CNN
F 1 "1.8k" V 4200 4200 50  0000 C CNN
F 2 "Resistors_SMD:R_0603_HandSoldering" V 4130 4200 50  0001 C CNN
F 3 "" H 4200 4200 50  0000 C CNN
	1    4200 4200
	-1   0    0    1   
$EndComp
$Comp
L R R9
U 1 1 59446213
P 4750 4200
F 0 "R9" V 4830 4200 50  0000 C CNN
F 1 "82k" V 4750 4200 50  0000 C CNN
F 2 "Resistors_SMD:R_0603_HandSoldering" V 4680 4200 50  0001 C CNN
F 3 "" H 4750 4200 50  0000 C CNN
	1    4750 4200
	-1   0    0    1   
$EndComp
$Comp
L R R10
U 1 1 5944625B
P 4800 3550
F 0 "R10" V 4880 3550 50  0000 C CNN
F 1 "12k" V 4800 3550 50  0000 C CNN
F 2 "Resistors_SMD:R_0603_HandSoldering" V 4730 3550 50  0001 C CNN
F 3 "" H 4800 3550 50  0000 C CNN
	1    4800 3550
	-1   0    0    1   
$EndComp
$Comp
L C C2
U 1 1 594462A5
P 1350 4450
F 0 "C2" H 1375 4550 50  0000 L CNN
F 1 "20nF" H 1375 4350 50  0000 L CNN
F 2 "Capacitors_SMD:C_0603_HandSoldering" H 1388 4300 50  0001 C CNN
F 3 "" H 1350 4450 50  0000 C CNN
	1    1350 4450
	1    0    0    -1  
$EndComp
$Comp
L C C3
U 1 1 5944634E
P 2100 3550
F 0 "C3" H 2125 3650 50  0000 L CNN
F 1 "10nF" H 1900 3450 50  0000 L CNN
F 2 "Capacitors_SMD:C_0603_HandSoldering" H 2138 3400 50  0001 C CNN
F 3 "" H 2100 3550 50  0000 C CNN
	1    2100 3550
	0    1    1    0   
$EndComp
$Comp
L C C5
U 1 1 594464A7
P 4500 3850
F 0 "C5" H 4525 3950 50  0000 L CNN
F 1 "1nF" H 4525 3750 50  0000 L CNN
F 2 "Capacitors_SMD:C_0603_HandSoldering" H 4538 3700 50  0001 C CNN
F 3 "" H 4500 3850 50  0000 C CNN
	1    4500 3850
	0    1    1    0   
$EndComp
$Comp
L C C4
U 1 1 59446539
P 4150 3550
F 0 "C4" H 4175 3650 50  0000 L CNN
F 1 "1nF" H 4175 3450 50  0000 L CNN
F 2 "Capacitors_SMD:C_0603_HandSoldering" H 4188 3400 50  0001 C CNN
F 3 "" H 4150 3550 50  0000 C CNN
	1    4150 3550
	-1   0    0    1   
$EndComp
$Comp
L GNDA #PWR01
U 1 1 5944657D
P 2500 4850
F 0 "#PWR01" H 2500 4600 50  0001 C CNN
F 1 "GNDA" H 2500 4700 50  0000 C CNN
F 2 "" H 2500 4850 50  0000 C CNN
F 3 "" H 2500 4850 50  0000 C CNN
	1    2500 4850
	1    0    0    -1  
$EndComp
$Comp
L -12VA #PWR02
U 1 1 594465AF
P 2900 3500
F 0 "#PWR02" H 2900 3350 50  0001 C CNN
F 1 "-12VA" H 2900 3640 50  0000 C CNN
F 2 "" H 2900 3500 50  0000 C CNN
F 3 "" H 2900 3500 50  0000 C CNN
	1    2900 3500
	1    0    0    -1  
$EndComp
$Comp
L -12VA #PWR03
U 1 1 59446626
P 4750 4500
F 0 "#PWR03" H 4750 4350 50  0001 C CNN
F 1 "-12VA" H 4750 4640 50  0000 C CNN
F 2 "" H 4750 4500 50  0000 C CNN
F 3 "" H 4750 4500 50  0000 C CNN
	1    4750 4500
	-1   0    0    1   
$EndComp
$Comp
L +12V #PWR04
U 1 1 59446651
P 2900 4300
F 0 "#PWR04" H 2900 4150 50  0001 C CNN
F 1 "+12V" H 2900 4440 50  0000 C CNN
F 2 "" H 2900 4300 50  0000 C CNN
F 3 "" H 2900 4300 50  0000 C CNN
	1    2900 4300
	-1   0    0    1   
$EndComp
$Comp
L GNDA #PWR05
U 1 1 59446DC5
P 1350 4650
F 0 "#PWR05" H 1350 4400 50  0001 C CNN
F 1 "GNDA" H 1350 4500 50  0000 C CNN
F 2 "" H 1350 4650 50  0000 C CNN
F 3 "" H 1350 4650 50  0000 C CNN
	1    1350 4650
	1    0    0    -1  
$EndComp
Wire Wire Line
	1350 4600 1350 4650
Wire Wire Line
	1350 4250 1350 4300
Wire Wire Line
	1950 3550 1850 3550
Wire Wire Line
	1850 3550 1850 3850
Wire Wire Line
	1850 3850 1950 3850
Connection ~ 1850 3700
Wire Wire Line
	2700 3950 2500 3950
Wire Wire Line
	2500 3950 2500 4250
Wire Wire Line
	2400 3850 2250 3850
Wire Wire Line
	2400 3550 2400 3850
Wire Wire Line
	2400 3750 2700 3750
Wire Wire Line
	2250 3550 2400 3550
Connection ~ 2400 3750
$Comp
L D D3
U 1 1 59447039
P 2200 4400
F 0 "D3" H 2200 4500 50  0000 C CNN
F 1 "D 5.36V" H 2200 4300 50  0000 C CNN
F 2 "Diodes_SMD:D_0603" H 2200 4400 50  0001 C CNN
F 3 "" H 2200 4400 50  0000 C CNN
	1    2200 4400
	0    1    1    0   
$EndComp
Wire Wire Line
	2200 4550 2200 4700
Wire Wire Line
	2200 4700 2500 4700
Wire Wire Line
	2500 4550 2500 4850
Connection ~ 2500 4700
Wire Wire Line
	2200 4250 2200 4150
Wire Wire Line
	2000 4150 2500 4150
Connection ~ 2500 4150
Wire Wire Line
	2900 4150 2900 4300
Wire Wire Line
	3300 3850 3600 3850
Wire Wire Line
	3900 3850 4350 3850
Wire Wire Line
	4150 3850 4150 3700
Connection ~ 4150 3850
Wire Wire Line
	4200 4050 4200 3850
Connection ~ 4200 3850
$Comp
L GNDA #PWR06
U 1 1 594473C8
P 4200 4500
F 0 "#PWR06" H 4200 4250 50  0001 C CNN
F 1 "GNDA" H 4200 4350 50  0000 C CNN
F 2 "" H 4200 4500 50  0000 C CNN
F 3 "" H 4200 4500 50  0000 C CNN
	1    4200 4500
	1    0    0    -1  
$EndComp
Wire Wire Line
	4200 4350 4200 4500
Wire Wire Line
	4650 3850 5250 3850
Wire Wire Line
	4750 3850 4750 4050
Wire Wire Line
	4150 3400 4150 3250
Wire Wire Line
	4150 3250 6100 3250
Wire Wire Line
	4800 3400 4800 3250
Connection ~ 4800 3250
Wire Wire Line
	4800 3850 4800 3700
Connection ~ 4750 3850
Wire Wire Line
	4750 4350 4750 4500
Connection ~ 4800 3850
Wire Wire Line
	6100 3250 6100 3950
Wire Wire Line
	5850 3950 6400 3950
$Comp
L -12VA #PWR07
U 1 1 594487D8
P 5450 3550
F 0 "#PWR07" H 5450 3400 50  0001 C CNN
F 1 "-12VA" H 5450 3690 50  0000 C CNN
F 2 "" H 5450 3550 50  0000 C CNN
F 3 "" H 5450 3550 50  0000 C CNN
	1    5450 3550
	1    0    0    -1  
$EndComp
Wire Wire Line
	2900 3500 2900 3550
Wire Wire Line
	2150 3200 1350 3200
Wire Wire Line
	1350 3200 1350 3950
Wire Wire Line
	1850 3700 1350 3700
Connection ~ 1350 3700
Wire Wire Line
	2450 3200 3450 3200
Wire Wire Line
	3450 3200 3450 3850
Connection ~ 3450 3850
Wire Wire Line
	2000 4150 2000 4200
Connection ~ 2200 4150
Text Label 2000 4200 2    60   ~ 0
Hyd_In
$Comp
L GNDA #PWR08
U 1 1 594491B2
P 5150 4400
F 0 "#PWR08" H 5150 4150 50  0001 C CNN
F 1 "GNDA" H 5150 4250 50  0000 C CNN
F 2 "" H 5150 4400 50  0000 C CNN
F 3 "" H 5150 4400 50  0000 C CNN
	1    5150 4400
	1    0    0    -1  
$EndComp
Wire Wire Line
	5250 4050 5150 4050
Wire Wire Line
	5150 4050 5150 4400
Wire Wire Line
	5450 3550 5450 3650
$Comp
L +12V #PWR09
U 1 1 59449288
P 5450 4350
F 0 "#PWR09" H 5450 4200 50  0001 C CNN
F 1 "+12V" H 5450 4490 50  0000 C CNN
F 2 "" H 5450 4350 50  0000 C CNN
F 3 "" H 5450 4350 50  0000 C CNN
	1    5450 4350
	-1   0    0    1   
$EndComp
Wire Wire Line
	5450 4250 5450 4350
$Comp
L D_Schottky_x2_Serial_ACK D4
U 1 1 5944AE6A
P 7250 3650
F 0 "D4" H 7300 3550 50  0000 C CNN
F 1 "D_Schottky_x2_Serial_ACK" H 6950 3800 50  0000 C CNN
F 2 "Receiver_v0:BAT54S" H 7250 3650 50  0001 C CNN
F 3 "" H 7250 3650 50  0000 C CNN
	1    7250 3650
	1    0    0    -1  
$EndComp
Connection ~ 6100 3950
$Comp
L GNDA #PWR010
U 1 1 5944BD42
P 6850 3700
F 0 "#PWR010" H 6850 3450 50  0001 C CNN
F 1 "GNDA" H 6850 3550 50  0000 C CNN
F 2 "" H 6850 3700 50  0000 C CNN
F 3 "" H 6850 3700 50  0000 C CNN
	1    6850 3700
	1    0    0    -1  
$EndComp
$Comp
L +3.3V #PWR011
U 1 1 5944BDBD
P 7650 3550
F 0 "#PWR011" H 7650 3400 50  0001 C CNN
F 1 "+3.3V" H 7650 3690 50  0000 C CNN
F 2 "" H 7650 3550 50  0000 C CNN
F 3 "" H 7650 3550 50  0000 C CNN
	1    7650 3550
	1    0    0    -1  
$EndComp
$Comp
L EC2SA-12D12 U1
U 1 1 5944C70F
P 2250 1300
F 0 "U1" H 2200 1600 60  0000 C CNN
F 1 "EC2SA-12D12" H 2250 1000 60  0000 C CNN
F 2 "Receiver_v0:EC2SA-12D12" H 2250 1300 60  0001 C CNN
F 3 "" H 2250 1300 60  0000 C CNN
	1    2250 1300
	1    0    0    -1  
$EndComp
$Comp
L -12VA #PWR012
U 1 1 5944C7EE
P 3250 1500
F 0 "#PWR012" H 3250 1350 50  0001 C CNN
F 1 "-12VA" H 3250 1640 50  0000 C CNN
F 2 "" H 3250 1500 50  0000 C CNN
F 3 "" H 3250 1500 50  0000 C CNN
	1    3250 1500
	-1   0    0    1   
$EndComp
$Comp
L GNDA #PWR013
U 1 1 5944C89B
P 3050 1700
F 0 "#PWR013" H 3050 1450 50  0001 C CNN
F 1 "GNDA" H 3050 1550 50  0000 C CNN
F 2 "" H 3050 1700 50  0000 C CNN
F 3 "" H 3050 1700 50  0000 C CNN
	1    3050 1700
	1    0    0    -1  
$EndComp
$Comp
L +12V #PWR014
U 1 1 5944C95A
P 3250 1050
F 0 "#PWR014" H 3250 900 50  0001 C CNN
F 1 "+12V" H 3250 1190 50  0000 C CNN
F 2 "" H 3250 1050 50  0000 C CNN
F 3 "" H 3250 1050 50  0000 C CNN
	1    3250 1050
	1    0    0    -1  
$EndComp
Wire Wire Line
	2900 1150 3250 1150
Wire Wire Line
	3250 1150 3250 1050
Wire Wire Line
	2900 1250 3250 1250
Wire Wire Line
	3250 1250 3250 1500
Wire Wire Line
	2900 1400 3050 1400
Wire Wire Line
	3050 1400 3050 1700
Wire Wire Line
	1600 1300 1600 1650
Wire Wire Line
	1600 1450 1650 1450
Wire Wire Line
	1650 1300 1600 1300
Connection ~ 1600 1450
Wire Wire Line
	6950 3650 6850 3650
Wire Wire Line
	6850 3650 6850 3700
Wire Wire Line
	7550 3650 7650 3650
Wire Wire Line
	7650 3650 7650 3550
Wire Wire Line
	7250 3850 7250 3950
Connection ~ 7250 3950
$Comp
L FGPMMOPA6H U3
U 1 1 594523A1
P 3050 6300
F 0 "U3" H 3050 6850 60  0000 C CNN
F 1 "FGPMMOPA6H" H 3050 5550 60  0000 C CNN
F 2 "Receiver_v0:FGPMMOPA6H" H 3050 6300 60  0001 C CNN
F 3 "" H 3050 6300 60  0000 C CNN
	1    3050 6300
	1    0    0    -1  
$EndComp
$Comp
L +3.3V #PWR015
U 1 1 59452BA5
P 1800 5850
F 0 "#PWR015" H 1800 5700 50  0001 C CNN
F 1 "+3.3V" H 1800 5990 50  0000 C CNN
F 2 "" H 1800 5850 50  0000 C CNN
F 3 "" H 1800 5850 50  0000 C CNN
	1    1800 5850
	1    0    0    -1  
$EndComp
$Comp
L GNDD #PWR016
U 1 1 59452C24
P 2050 6950
F 0 "#PWR016" H 2050 6700 50  0001 C CNN
F 1 "GNDD" H 2050 6800 50  0000 C CNN
F 2 "" H 2050 6950 50  0000 C CNN
F 3 "" H 2050 6950 50  0000 C CNN
	1    2050 6950
	1    0    0    -1  
$EndComp
$Comp
L GNDD #PWR017
U 1 1 59452C6F
P 3950 7000
F 0 "#PWR017" H 3950 6750 50  0001 C CNN
F 1 "GNDD" H 3950 6850 50  0000 C CNN
F 2 "" H 3950 7000 50  0000 C CNN
F 3 "" H 3950 7000 50  0000 C CNN
	1    3950 7000
	1    0    0    -1  
$EndComp
Wire Wire Line
	3600 6000 3950 6000
Wire Wire Line
	3950 6000 3950 7000
Wire Wire Line
	3600 6700 3950 6700
Connection ~ 3950 6700
Wire Wire Line
	2150 6100 2500 6100
NoConn ~ 2500 6000
Wire Wire Line
	3600 6600 3900 6600
Text Label 3900 6600 2    60   ~ 0
PPS
NoConn ~ 3600 6500
Wire Wire Line
	2500 6300 2150 6300
$Comp
L R R3
U 1 1 5945325E
P 1550 6300
F 0 "R3" V 1630 6300 50  0000 C CNN
F 1 "470" V 1550 6300 50  0000 C CNN
F 2 "Resistors_SMD:R_0603_HandSoldering" V 1480 6300 50  0001 C CNN
F 3 "" H 1550 6300 50  0000 C CNN
	1    1550 6300
	0    1    1    0   
$EndComp
$Comp
L LED D2
U 1 1 594532E2
P 1950 6300
F 0 "D2" H 1950 6400 50  0000 C CNN
F 1 "LED" H 1950 6200 50  0000 C CNN
F 2 "Diodes_SMD:D_0603" H 1950 6300 50  0001 C CNN
F 3 "" H 1950 6300 50  0000 C CNN
	1    1950 6300
	1    0    0    -1  
$EndComp
Wire Wire Line
	1750 6300 1700 6300
Wire Wire Line
	1800 5850 1800 5950
Wire Wire Line
	1800 5900 2500 5900
Wire Wire Line
	2050 6600 2050 6950
Wire Wire Line
	1300 6900 2050 6900
Wire Wire Line
	2500 6600 2050 6600
Connection ~ 2050 6900
Wire Wire Line
	1400 6300 1300 6300
Wire Wire Line
	1300 6250 1300 6900
$Comp
L C C1
U 1 1 59453C60
P 1300 6100
F 0 "C1" H 1325 6200 50  0000 L CNN
F 1 "10uF" H 1325 6000 50  0000 L CNN
F 2 "Capacitors_SMD:C_0603_HandSoldering" H 1338 5950 50  0001 C CNN
F 3 "" H 1300 6100 50  0000 C CNN
	1    1300 6100
	1    0    0    -1  
$EndComp
Connection ~ 1300 6300
Wire Wire Line
	1800 5950 1300 5950
Connection ~ 1800 5900
Wire Wire Line
	2500 6700 2200 6700
Text Label 2200 6700 0    60   ~ 0
TX
Wire Wire Line
	2500 6800 2200 6800
Text Label 2200 6800 0    60   ~ 0
RX
Wire Wire Line
	2150 6100 2150 6600
Connection ~ 2150 6600
Wire Wire Line
	2500 6200 2250 6200
Text Label 2250 6200 0    60   ~ 0
Vbat
$Comp
L EX_ANT E1
U 1 1 59456C97
P 4350 6800
F 0 "E1" H 4450 7000 60  0000 C CNN
F 1 "EX_ANT" H 4350 6350 60  0000 C CNN
F 2 "Receiver_v0:SMA-RP_SMD_CONN" H 4350 6800 60  0001 C CNN
F 3 "" H 4350 6800 60  0000 C CNN
	1    4350 6800
	1    0    0    -1  
$EndComp
Wire Wire Line
	3600 6800 4150 6800
$Comp
L GNDD #PWR018
U 1 1 59457179
P 4600 7200
F 0 "#PWR018" H 4600 6950 50  0001 C CNN
F 1 "GNDD" H 4600 7050 50  0000 C CNN
F 2 "" H 4600 7200 50  0000 C CNN
F 3 "" H 4600 7200 50  0000 C CNN
	1    4600 7200
	1    0    0    -1  
$EndComp
Wire Wire Line
	4550 7150 4600 7150
Wire Wire Line
	4600 7050 4600 7200
Wire Wire Line
	4550 7050 4600 7050
Connection ~ 4600 7150
$Comp
L INDUCTOR L4
U 1 1 5945F470
P 6000 1200
F 0 "L4" V 6100 1450 50  0000 C CNN
F 1 "INDUCTOR" V 6100 1200 50  0000 C CNN
F 2 "Receiver_v0:Sumida_3pin_Ind" H 6000 1200 50  0001 C CNN
F 3 "" H 6000 1200 50  0000 C CNN
	1    6000 1200
	1    0    0    -1  
$EndComp
$Comp
L INDUCTOR L1
U 1 1 5945F9AE
P 5400 1200
F 0 "L1" V 5500 1450 50  0000 C CNN
F 1 "INDUCTOR" V 5500 1200 50  0000 C CNN
F 2 "Receiver_v0:Sumida_2pin_Ind" H 5400 1200 50  0001 C CNN
F 3 "" H 5400 1200 50  0000 C CNN
	1    5400 1200
	1    0    0    -1  
$EndComp
$Comp
L INDUCTOR L3
U 1 1 59461895
P 6000 1900
F 0 "L3" V 6100 2150 50  0000 C CNN
F 1 "INDUCTOR" V 6100 1900 50  0000 C CNN
F 2 "Receiver_v0:Sumida_2pin_Ind" H 6000 1900 50  0001 C CNN
F 3 "" H 6000 1900 50  0000 C CNN
	1    6000 1900
	1    0    0    -1  
$EndComp
$Comp
L GNDA #PWR019
U 1 1 5946605E
P 5300 2350
F 0 "#PWR019" H 5300 2100 50  0001 C CNN
F 1 "GNDA" H 5300 2200 50  0000 C CNN
F 2 "" H 5300 2350 50  0000 C CNN
F 3 "" H 5300 2350 50  0000 C CNN
	1    5300 2350
	1    0    0    -1  
$EndComp
$Comp
L JUMPER JP1
U 1 1 5946698D
P 5200 1200
F 0 "JP1" H 5200 1250 50  0000 C CNN
F 1 "JUMPER" H 5200 1120 50  0000 C CNN
F 2 "Resistors_SMD:R_0603_HandSoldering" H 5200 1200 50  0001 C CNN
F 3 "" H 5200 1200 50  0000 C CNN
	1    5200 1200
	0    -1   -1   0   
$EndComp
$Comp
L JUMPER JP4
U 1 1 59466B1D
P 5850 1200
F 0 "JP4" H 5850 1250 50  0000 C CNN
F 1 "JUMPER" H 5850 1120 50  0000 C CNN
F 2 "Resistors_SMD:R_0603_HandSoldering" H 5850 1200 50  0001 C CNN
F 3 "" H 5850 1200 50  0000 C CNN
	1    5850 1200
	0    -1   -1   0   
$EndComp
$Comp
L JUMPER JP3
U 1 1 59466BB1
P 5850 1900
F 0 "JP3" H 5850 1950 50  0000 C CNN
F 1 "JUMPER" H 5850 1820 50  0000 C CNN
F 2 "Resistors_SMD:R_0603_HandSoldering" H 5850 1900 50  0001 C CNN
F 3 "" H 5850 1900 50  0000 C CNN
	1    5850 1900
	0    -1   -1   0   
$EndComp
Wire Wire Line
	5200 1500 5400 1500
Wire Wire Line
	5850 2200 6000 2200
Wire Wire Line
	5850 1600 6000 1600
Wire Wire Line
	5850 1500 6000 1500
Wire Wire Line
	5300 1500 5300 2350
Wire Wire Line
	5950 2300 5950 2200
Connection ~ 5950 2200
Connection ~ 5900 1600
Wire Wire Line
	5900 900  5900 800 
Text Label 6450 800  2    60   ~ 0
Hyd_In
Text Label 7700 3950 0    60   ~ 0
PC0
$Comp
L Nucleo144 J1
U 1 1 5944801A
P 10150 4750
F 0 "J1" H 9850 6100 60  0000 C CNN
F 1 "Nucleo144" H 9900 3100 60  0000 C CNN
F 2 "Receiver_v0:NUCLEO_CN8&9" H 10250 4300 60  0001 C CNN
F 3 "" H 10250 4300 60  0000 C CNN
	1    10150 4750
	1    0    0    -1  
$EndComp
$Comp
L +3.3V #PWR020
U 1 1 594485C5
P 8950 4000
F 0 "#PWR020" H 8950 3850 50  0001 C CNN
F 1 "+3.3V" H 8950 4140 50  0000 C CNN
F 2 "" H 8950 4000 50  0000 C CNN
F 3 "" H 8950 4000 50  0000 C CNN
	1    8950 4000
	1    0    0    -1  
$EndComp
Wire Wire Line
	8950 4000 8950 4050
Wire Wire Line
	8950 4050 9400 4050
Wire Wire Line
	9400 4700 8900 4700
Text Label 8900 4700 0    60   ~ 0
PPS
$Comp
L TEST_1P W1
U 1 1 59452907
P 10500 1150
F 0 "W1" H 10500 1420 50  0000 C CNN
F 1 "TEST_1P" V 10600 1300 50  0000 C CNN
F 2 "Receiver_v0:TestPoint" H 10700 1150 50  0001 C CNN
F 3 "" H 10700 1150 50  0000 C CNN
	1    10500 1150
	0    -1   -1   0   
$EndComp
Text Label 10700 1150 2    60   ~ 0
PC0
Wire Wire Line
	10500 1150 10700 1150
Text Label 10700 1350 2    60   ~ 0
PPS
$Comp
L TEST_1P W2
U 1 1 59453468
P 10500 1350
F 0 "W2" H 10500 1620 50  0000 C CNN
F 1 "TEST_1P" V 10600 1500 50  0000 C CNN
F 2 "Receiver_v0:TestPoint" H 10700 1350 50  0001 C CNN
F 3 "" H 10700 1350 50  0000 C CNN
	1    10500 1350
	0    -1   -1   0   
$EndComp
Wire Wire Line
	10500 1350 10700 1350
$Comp
L TEST_1P W3
U 1 1 594535CD
P 10500 1550
F 0 "W3" H 10500 1820 50  0000 C CNN
F 1 "TEST_1P" V 10600 1700 50  0000 C CNN
F 2 "Receiver_v0:TestPoint" H 10700 1550 50  0001 C CNN
F 3 "" H 10700 1550 50  0000 C CNN
	1    10500 1550
	0    -1   -1   0   
$EndComp
Wire Wire Line
	10500 1550 10700 1550
$Comp
L GNDA #PWR021
U 1 1 59453734
P 10700 1550
F 0 "#PWR021" H 10700 1300 50  0001 C CNN
F 1 "GNDA" H 10700 1400 50  0000 C CNN
F 2 "" H 10700 1550 50  0000 C CNN
F 3 "" H 10700 1550 50  0000 C CNN
	1    10700 1550
	1    0    0    -1  
$EndComp
$Comp
L LED D1
U 1 1 59456397
P 1150 1400
F 0 "D1" H 1150 1500 50  0000 C CNN
F 1 "VAOL GREEN LED" H 950 1300 50  0000 C CNN
F 2 "Diodes_SMD:D_0603" H 1150 1400 50  0001 C CNN
F 3 "" H 1150 1400 50  0000 C CNN
	1    1150 1400
	0    -1   -1   0   
$EndComp
$Comp
L R R1
U 1 1 5945655D
P 1150 1850
F 0 "R1" V 1230 1850 50  0000 C CNN
F 1 "500" V 1150 1850 50  0000 C CNN
F 2 "Resistors_SMD:R_0603_HandSoldering" V 1080 1850 50  0001 C CNN
F 3 "" H 1150 1850 50  0000 C CNN
	1    1150 1850
	-1   0    0    1   
$EndComp
$Comp
L GNDD #PWR022
U 1 1 59456656
P 1150 2100
F 0 "#PWR022" H 1150 1850 50  0001 C CNN
F 1 "GNDD" H 1150 1950 50  0000 C CNN
F 2 "" H 1150 2100 50  0000 C CNN
F 3 "" H 1150 2100 50  0000 C CNN
	1    1150 2100
	1    0    0    -1  
$EndComp
Wire Wire Line
	1150 2100 1150 2000
Wire Wire Line
	1150 1600 1150 1700
Wire Wire Line
	800  1150 1650 1150
Wire Wire Line
	1150 1150 1150 1200
Connection ~ 1150 1150
Text Label 800  1150 0    60   ~ 0
Vin
$Comp
L GNDA #PWR023
U 1 1 5945A301
P 8650 1250
F 0 "#PWR023" H 8650 1000 50  0001 C CNN
F 1 "GNDA" H 8650 1100 50  0000 C CNN
F 2 "" H 8650 1250 50  0000 C CNN
F 3 "" H 8650 1250 50  0000 C CNN
	1    8650 1250
	1    0    0    -1  
$EndComp
$Comp
L GNDD #PWR024
U 1 1 5945A8AC
P 9150 1250
F 0 "#PWR024" H 9150 1000 50  0001 C CNN
F 1 "GNDD" H 9150 1100 50  0000 C CNN
F 2 "" H 9150 1250 50  0000 C CNN
F 3 "" H 9150 1250 50  0000 C CNN
	1    9150 1250
	1    0    0    -1  
$EndComp
Wire Wire Line
	8650 1250 8650 1150
Wire Wire Line
	8650 1150 9150 1150
Wire Wire Line
	9150 1150 9150 1250
$Comp
L GNDD #PWR025
U 1 1 5945AC6B
P 9050 6200
F 0 "#PWR025" H 9050 5950 50  0001 C CNN
F 1 "GNDD" H 9050 6050 50  0000 C CNN
F 2 "" H 9050 6200 50  0000 C CNN
F 3 "" H 9050 6200 50  0000 C CNN
	1    9050 6200
	1    0    0    -1  
$EndComp
Wire Wire Line
	9400 5800 9050 5800
Wire Wire Line
	9050 5800 9050 6200
$Comp
L GNDD #PWR026
U 1 1 5945B379
P 10600 6200
F 0 "#PWR026" H 10600 5950 50  0001 C CNN
F 1 "GNDD" H 10600 6050 50  0000 C CNN
F 2 "" H 10600 6200 50  0000 C CNN
F 3 "" H 10600 6200 50  0000 C CNN
	1    10600 6200
	1    0    0    -1  
$EndComp
$Comp
L GNDD #PWR027
U 1 1 5945B40B
P 9200 4450
F 0 "#PWR027" H 9200 4200 50  0001 C CNN
F 1 "GNDD" H 9200 4300 50  0000 C CNN
F 2 "" H 9200 4450 50  0000 C CNN
F 3 "" H 9200 4450 50  0000 C CNN
	1    9200 4450
	1    0    0    -1  
$EndComp
Wire Wire Line
	9400 4350 9200 4350
Wire Wire Line
	9200 4350 9200 4450
Wire Wire Line
	9400 4250 9200 4250
Wire Wire Line
	9200 4250 9200 4400
Connection ~ 9200 4400
Wire Wire Line
	10350 5200 10600 5200
Wire Wire Line
	10600 5200 10600 6200
NoConn ~ 9400 3850
NoConn ~ 9400 3950
NoConn ~ 9400 4150
NoConn ~ 9400 4450
NoConn ~ 10350 3750
NoConn ~ 10350 3850
NoConn ~ 10350 3950
NoConn ~ 10350 4050
NoConn ~ 10350 4150
NoConn ~ 10350 4250
NoConn ~ 10350 4350
NoConn ~ 10350 4450
NoConn ~ 10350 4700
NoConn ~ 10350 5000
NoConn ~ 10350 5100
NoConn ~ 10350 5300
NoConn ~ 10350 5400
NoConn ~ 10350 5500
NoConn ~ 10350 5600
NoConn ~ 10350 5700
NoConn ~ 10350 5800
NoConn ~ 10350 5900
NoConn ~ 10350 6000
NoConn ~ 10350 6100
NoConn ~ 9400 6100
NoConn ~ 9400 6000
NoConn ~ 9400 5900
NoConn ~ 9400 5700
NoConn ~ 9400 5600
NoConn ~ 9400 5500
NoConn ~ 9400 5400
NoConn ~ 9400 5200
NoConn ~ 9400 5100
NoConn ~ 9400 5000
NoConn ~ 9400 4900
Wire Notes Line
	500  5250 5150 5250
Wire Notes Line
	5150 5250 5150 7750
Wire Notes Line
	5150 5300 5150 5750
Text Notes 600  5550 0    197  ~ 0
GPS 
Wire Notes Line
	500  2550 8200 2550
Wire Notes Line
	3750 2550 3750 500 
Text Notes 550  750  0    197  ~ 0
Power Supply
Wire Wire Line
	5400 900  5200 900 
Connection ~ 5300 900 
Text Notes 4650 700  0    157  ~ 0
Impedance matching network\n
Wire Notes Line
	8200 500  8200 6500
Text Label 8900 4800 0    60   ~ 0
PC0
Wire Wire Line
	8900 4800 9400 4800
Wire Wire Line
	6700 3950 7700 3950
$Comp
L CONN_01X02 P1
U 1 1 5946AAB7
P 9300 2100
F 0 "P1" H 9300 2250 50  0000 C CNN
F 1 "CONN_01X02" V 9400 2100 50  0000 C CNN
F 2 "Receiver_v0:2pinTerminal" H 9300 2100 50  0001 C CNN
F 3 "" H 9300 2100 50  0000 C CNN
	1    9300 2100
	1    0    0    -1  
$EndComp
$Comp
L CONN_01X02 P2
U 1 1 5946ABEC
P 9300 2700
F 0 "P2" H 9300 2850 50  0000 C CNN
F 1 "CONN_01X02" V 9400 2700 50  0000 C CNN
F 2 "Receiver_v0:2pinTerminal" H 9300 2700 50  0001 C CNN
F 3 "" H 9300 2700 50  0000 C CNN
	1    9300 2700
	1    0    0    -1  
$EndComp
Wire Wire Line
	9100 2050 8750 2050
Text Label 8750 2050 0    60   ~ 0
Hyd_In
$Comp
L GNDA #PWR028
U 1 1 5946D7BC
P 8850 2150
F 0 "#PWR028" H 8850 1900 50  0001 C CNN
F 1 "GNDA" H 8850 2000 50  0000 C CNN
F 2 "" H 8850 2150 50  0000 C CNN
F 3 "" H 8850 2150 50  0000 C CNN
	1    8850 2150
	1    0    0    -1  
$EndComp
Wire Wire Line
	9100 2150 8850 2150
$Comp
L GNDD #PWR029
U 1 1 5946E098
P 1600 1650
F 0 "#PWR029" H 1600 1400 50  0001 C CNN
F 1 "GNDD" H 1600 1500 50  0000 C CNN
F 2 "" H 1600 1650 50  0000 C CNN
F 3 "" H 1600 1650 50  0000 C CNN
	1    1600 1650
	1    0    0    -1  
$EndComp
$Comp
L GNDD #PWR030
U 1 1 5946EABC
P 8900 2800
F 0 "#PWR030" H 8900 2550 50  0001 C CNN
F 1 "GNDD" H 8900 2650 50  0000 C CNN
F 2 "" H 8900 2800 50  0000 C CNN
F 3 "" H 8900 2800 50  0000 C CNN
	1    8900 2800
	1    0    0    -1  
$EndComp
Wire Wire Line
	9100 2750 8900 2750
Wire Wire Line
	8900 2750 8900 2800
Wire Wire Line
	9100 2650 8850 2650
Text Label 8850 2650 0    60   ~ 0
Vin
Text Notes 750  2850 0    157  ~ 0
Analog bandpass filter & amplifier
Text Notes 8150 7650 0    59   ~ 0
16/06/2017
$Comp
L C C6
U 1 1 59473F16
P 6200 4900
F 0 "C6" H 6225 5000 50  0000 L CNN
F 1 "10uF" H 6225 4800 50  0000 L CNN
F 2 "Capacitors_SMD:C_0603_HandSoldering" H 6238 4750 50  0001 C CNN
F 3 "" H 6200 4900 50  0000 C CNN
	1    6200 4900
	1    0    0    -1  
$EndComp
$Comp
L C C8
U 1 1 59475801
P 6550 4900
F 0 "C8" H 6575 5000 50  0000 L CNN
F 1 "0.1uF" H 6575 4800 50  0000 L CNN
F 2 "Capacitors_SMD:C_0603_HandSoldering" H 6588 4750 50  0001 C CNN
F 3 "" H 6550 4900 50  0000 C CNN
	1    6550 4900
	1    0    0    -1  
$EndComp
$Comp
L C C7
U 1 1 594758B6
P 6200 5600
F 0 "C7" H 6225 5700 50  0000 L CNN
F 1 "10uF" H 6225 5500 50  0000 L CNN
F 2 "Capacitors_SMD:C_0603_HandSoldering" H 6238 5450 50  0001 C CNN
F 3 "" H 6200 5600 50  0000 C CNN
	1    6200 5600
	1    0    0    -1  
$EndComp
$Comp
L C C9
U 1 1 59475974
P 6550 5600
F 0 "C9" H 6575 5700 50  0000 L CNN
F 1 "0.1uF" H 6575 5500 50  0000 L CNN
F 2 "Capacitors_SMD:C_0603_HandSoldering" H 6588 5450 50  0001 C CNN
F 3 "" H 6550 5600 50  0000 C CNN
	1    6550 5600
	1    0    0    -1  
$EndComp
$Comp
L GNDA #PWR031
U 1 1 59475A51
P 5750 5300
F 0 "#PWR031" H 5750 5050 50  0001 C CNN
F 1 "GNDA" H 5750 5150 50  0000 C CNN
F 2 "" H 5750 5300 50  0000 C CNN
F 3 "" H 5750 5300 50  0000 C CNN
	1    5750 5300
	1    0    0    -1  
$EndComp
Wire Wire Line
	6550 5050 6550 5450
Wire Wire Line
	6550 5250 5750 5250
Wire Wire Line
	5750 5250 5750 5300
Connection ~ 6550 5250
Wire Wire Line
	6200 5050 6200 5450
Connection ~ 6200 5250
Wire Wire Line
	6200 5750 6550 5750
Wire Wire Line
	6200 4750 6550 4750
$Comp
L +12V #PWR032
U 1 1 5947631D
P 6400 4600
F 0 "#PWR032" H 6400 4450 50  0001 C CNN
F 1 "+12V" H 6400 4740 50  0000 C CNN
F 2 "" H 6400 4600 50  0000 C CNN
F 3 "" H 6400 4600 50  0000 C CNN
	1    6400 4600
	1    0    0    -1  
$EndComp
Wire Wire Line
	6400 4600 6400 4750
Connection ~ 6400 4750
$Comp
L -12VA #PWR033
U 1 1 594764EF
P 6400 5850
F 0 "#PWR033" H 6400 5700 50  0001 C CNN
F 1 "-12VA" H 6400 5990 50  0000 C CNN
F 2 "" H 6400 5850 50  0000 C CNN
F 3 "" H 6400 5850 50  0000 C CNN
	1    6400 5850
	-1   0    0    1   
$EndComp
Wire Wire Line
	6400 5850 6400 5750
Connection ~ 6400 5750
$Comp
L GNDD #PWR034
U 1 1 59478467
P 4300 2150
F 0 "#PWR034" H 4300 1900 50  0001 C CNN
F 1 "GNDD" H 4300 2000 50  0000 C CNN
F 2 "" H 4300 2150 50  0000 C CNN
F 3 "" H 4300 2150 50  0000 C CNN
	1    4300 2150
	1    0    0    -1  
$EndComp
$Comp
L Battery BT1
U 1 1 59478D6A
P 4300 1800
F 0 "BT1" H 4400 1850 50  0000 L CNN
F 1 "Battery" H 4400 1750 50  0000 L CNN
F 2 "Receiver_v0:CR1632" V 4300 1840 50  0001 C CNN
F 3 "" V 4300 1840 50  0000 C CNN
	1    4300 1800
	1    0    0    -1  
$EndComp
Wire Wire Line
	4300 1950 4300 2150
Wire Wire Line
	4300 1650 4300 1350
Text Label 4300 1350 3    60   ~ 0
Vbat
Connection ~ 5300 1500
Wire Wire Line
	5300 900  5300 800 
Wire Wire Line
	5300 800  5600 800 
Wire Wire Line
	5600 800  5600 2300
Wire Wire Line
	5600 2300 5950 2300
Wire Wire Line
	5900 800  6450 800 
$Comp
L EX_ANT E2
U 1 1 5947F58D
P 10350 2300
F 0 "E2" H 10450 2500 60  0000 C CNN
F 1 "EX_ANT" H 10350 1850 60  0000 C CNN
F 2 "Receiver_v0:SMA-RP_SMD_CONN" H 10350 2300 60  0001 C CNN
F 3 "" H 10350 2300 60  0000 C CNN
	1    10350 2300
	1    0    0    -1  
$EndComp
$Comp
L GNDA #PWR035
U 1 1 5947FCCB
P 10700 2700
F 0 "#PWR035" H 10700 2450 50  0001 C CNN
F 1 "GNDA" H 10700 2550 50  0000 C CNN
F 2 "" H 10700 2700 50  0000 C CNN
F 3 "" H 10700 2700 50  0000 C CNN
	1    10700 2700
	1    0    0    -1  
$EndComp
Wire Wire Line
	10550 2550 10700 2550
Wire Wire Line
	10700 2550 10700 2700
Wire Wire Line
	10550 2650 10700 2650
Connection ~ 10700 2650
Text Label 9800 2300 0    60   ~ 0
Hyd_In
Wire Wire Line
	9800 2300 10150 2300
Wire Wire Line
	5850 900  6000 900 
Connection ~ 5900 900 
Connection ~ 5900 1500
Wire Wire Line
	5900 1600 5900 1500
Wire Wire Line
	10350 4900 10700 4900
Text Label 10700 4800 2    60   ~ 0
TX
Text Label 10700 4900 2    60   ~ 0
RX
Wire Wire Line
	10350 4800 10700 4800
$EndSCHEMATC
