EESchema Schematic File Version 2
LIBS:Transmitter
LIBS:power
LIBS:device
LIBS:transistors
LIBS:conn
LIBS:linear
LIBS:regul
LIBS:74xx
LIBS:cmos4000
LIBS:adc-dac
LIBS:memory
LIBS:xilinx
LIBS:microcontrollers
LIBS:dsp
LIBS:microchip
LIBS:analog_switches
LIBS:motorola
LIBS:texas
LIBS:intel
LIBS:audio
LIBS:interface
LIBS:digital-audio
LIBS:philips
LIBS:display
LIBS:cypress
LIBS:siliconi
LIBS:opto
LIBS:atmel
LIBS:contrib
LIBS:valves
EELAYER 25 0
EELAYER END
$Descr A4 11693 8268
encoding utf-8
Sheet 1 1
Title ""
Date ""
Rev ""
Comp ""
Comment1 ""
Comment2 ""
Comment3 ""
Comment4 ""
$EndDescr
$Comp
L TL072 U2
U 2 1 59445CCE
P 5000 3900
F 0 "U2" H 4950 4100 50  0000 L CNN
F 1 "NE5532" H 4950 3650 50  0000 L CNN
F 2 "Transmitter:TI_SOIC8" H 5000 3900 50  0001 C CNN
F 3 "" H 5000 3900 50  0000 C CNN
	2    5000 3900
	1    0    0    -1  
$EndComp
$Comp
L TL072 U2
U 1 1 59445D27
P 2950 3900
F 0 "U2" H 2900 4100 50  0000 L CNN
F 1 "NE5532" H 2900 3650 50  0000 L CNN
F 2 "Transmitter:TI_SOIC8" H 2950 3900 50  0001 C CNN
F 3 "" H 2950 3900 50  0000 C CNN
	1    2950 3900
	1    0    0    1   
$EndComp
$Comp
L R R8
U 1 1 59445E72
P 5300 4550
F 0 "R8" V 5200 4550 50  0000 C CNN
F 1 "1.8k" V 5300 4550 50  0000 C CNN
F 2 "Resistors_SMD:R_0603_HandSoldering" V 5230 4550 50  0001 C CNN
F 3 "" H 5300 4550 50  0000 C CNN
	1    5300 4550
	0    1    1    0   
$EndComp
$Comp
L R R7
U 1 1 59445F13
P 4650 4800
F 0 "R7" V 4730 4800 50  0000 C CNN
F 1 "220" V 4650 4800 50  0000 C CNN
F 2 "Resistors_SMD:R_0603_HandSoldering" V 4580 4800 50  0001 C CNN
F 3 "" H 4650 4800 50  0000 C CNN
	1    4650 4800
	-1   0    0    1   
$EndComp
$Comp
L R R11
U 1 1 59446084
P 6750 3750
F 0 "R11" V 6830 3750 50  0000 C CNN
F 1 "2.2" V 6750 3750 50  0000 C CNN
F 2 "Resistors_SMD:R_2512_HandSoldering" V 6680 3750 50  0001 C CNN
F 3 "" H 6750 3750 50  0000 C CNN
	1    6750 3750
	0    1    1    0   
$EndComp
$Comp
L R R6
U 1 1 594460FD
P 3800 4150
F 0 "R6" V 3880 4150 50  0000 C CNN
F 1 "220" V 3800 4150 50  0000 C CNN
F 2 "Resistors_SMD:R_0603_HandSoldering" V 3730 4150 50  0001 C CNN
F 3 "" H 3800 4150 50  0000 C CNN
	1    3800 4150
	-1   0    0    1   
$EndComp
$Comp
L R R2
U 1 1 59446140
P 1150 3800
F 0 "R2" V 1230 3800 50  0000 C CNN
F 1 "3.9k" V 1150 3800 50  0000 C CNN
F 2 "Resistors_SMD:R_0603_HandSoldering" V 1080 3800 50  0001 C CNN
F 3 "" H 1150 3800 50  0000 C CNN
	1    1150 3800
	0    1    1    0   
$EndComp
$Comp
L R R4
U 1 1 594461B0
P 1600 4150
F 0 "R4" V 1680 4150 50  0000 C CNN
F 1 "1.8k" V 1600 4150 50  0000 C CNN
F 2 "Resistors_SMD:R_0603_HandSoldering" V 1530 4150 50  0001 C CNN
F 3 "" H 1600 4150 50  0000 C CNN
	1    1600 4150
	-1   0    0    1   
$EndComp
$Comp
L R R5
U 1 1 5944625B
P 2200 3500
F 0 "R5" V 2280 3500 50  0000 C CNN
F 1 "15k" V 2200 3500 50  0000 C CNN
F 2 "Resistors_SMD:R_0603_HandSoldering" V 2130 3500 50  0001 C CNN
F 3 "" H 2200 3500 50  0000 C CNN
	1    2200 3500
	-1   0    0    1   
$EndComp
$Comp
L C C4
U 1 1 594462A5
P 5300 4750
F 0 "C4" H 5325 4850 50  0000 L CNN
F 1 "4.7p" H 5325 4650 50  0000 L CNN
F 2 "Capacitors_SMD:C_0603_HandSoldering" H 5338 4600 50  0001 C CNN
F 3 "" H 5300 4750 50  0000 C CNN
	1    5300 4750
	0    1    1    0   
$EndComp
$Comp
L C C3
U 1 1 594464A7
P 1900 3800
F 0 "C3" H 1925 3900 50  0000 L CNN
F 1 "1nF" H 1925 3700 50  0000 L CNN
F 2 "Capacitors_SMD:C_0603_HandSoldering" H 1938 3650 50  0001 C CNN
F 3 "" H 1900 3800 50  0000 C CNN
	1    1900 3800
	0    1    1    0   
$EndComp
$Comp
L C C2
U 1 1 59446539
P 1550 3500
F 0 "C2" H 1575 3600 50  0000 L CNN
F 1 "1nF" H 1575 3400 50  0000 L CNN
F 2 "Capacitors_SMD:C_0603_HandSoldering" H 1588 3350 50  0001 C CNN
F 3 "" H 1550 3500 50  0000 C CNN
	1    1550 3500
	-1   0    0    1   
$EndComp
$Comp
L GNDA #PWR01
U 1 1 594473C8
P 1600 4450
F 0 "#PWR01" H 1600 4200 50  0001 C CNN
F 1 "GNDA" H 1600 4300 50  0000 C CNN
F 2 "" H 1600 4450 50  0000 C CNN
F 3 "" H 1600 4450 50  0000 C CNN
	1    1600 4450
	1    0    0    -1  
$EndComp
$Comp
L GNDA #PWR02
U 1 1 594491B2
P 2550 4350
F 0 "#PWR02" H 2550 4100 50  0001 C CNN
F 1 "GNDA" H 2550 4200 50  0000 C CNN
F 2 "" H 2550 4350 50  0000 C CNN
F 3 "" H 2550 4350 50  0000 C CNN
	1    2550 4350
	1    0    0    -1  
$EndComp
$Comp
L GNDA #PWR03
U 1 1 5944C89B
P 2600 1650
F 0 "#PWR03" H 2600 1400 50  0001 C CNN
F 1 "GNDA" H 2600 1500 50  0000 C CNN
F 2 "" H 2600 1650 50  0000 C CNN
F 3 "" H 2600 1650 50  0000 C CNN
	1    2600 1650
	1    0    0    -1  
$EndComp
$Comp
L FGPMMOPA6H U3
U 1 1 594523A1
P 3050 6300
F 0 "U3" H 3050 6850 60  0000 C CNN
F 1 "FGPMMOPA6H" H 3050 5550 60  0000 C CNN
F 2 "Transmitter:FGPMMOPA6H" H 3050 6300 60  0001 C CNN
F 3 "" H 3050 6300 60  0000 C CNN
	1    3050 6300
	1    0    0    -1  
$EndComp
$Comp
L +3.3V #PWR04
U 1 1 59452BA5
P 1800 5850
F 0 "#PWR04" H 1800 5700 50  0001 C CNN
F 1 "+3.3V" H 1800 5990 50  0000 C CNN
F 2 "" H 1800 5850 50  0000 C CNN
F 3 "" H 1800 5850 50  0000 C CNN
	1    1800 5850
	1    0    0    -1  
$EndComp
$Comp
L GNDD #PWR05
U 1 1 59452C24
P 2050 6950
F 0 "#PWR05" H 2050 6700 50  0001 C CNN
F 1 "GNDD" H 2050 6800 50  0000 C CNN
F 2 "" H 2050 6950 50  0000 C CNN
F 3 "" H 2050 6950 50  0000 C CNN
	1    2050 6950
	1    0    0    -1  
$EndComp
$Comp
L GNDD #PWR06
U 1 1 59452C6F
P 3950 7000
F 0 "#PWR06" H 3950 6750 50  0001 C CNN
F 1 "GNDD" H 3950 6850 50  0000 C CNN
F 2 "" H 3950 7000 50  0000 C CNN
F 3 "" H 3950 7000 50  0000 C CNN
	1    3950 7000
	1    0    0    -1  
$EndComp
NoConn ~ 2500 6000
Text Label 3900 6600 2    60   ~ 0
PPS
NoConn ~ 3600 6500
$Comp
L R R3
U 1 1 5945325E
P 1550 6300
F 0 "R3" V 1630 6300 50  0000 C CNN
F 1 "470" V 1550 6300 50  0000 C CNN
F 2 "Resistors_SMD:R_0603_HandSoldering" V 1480 6300 50  0001 C CNN
F 3 "" H 1550 6300 50  0000 C CNN
	1    1550 6300
	0    1    1    0   
$EndComp
$Comp
L LED D2
U 1 1 594532E2
P 1950 6300
F 0 "D2" H 1950 6400 50  0000 C CNN
F 1 "LED" H 1950 6200 50  0000 C CNN
F 2 "Diodes_SMD:D_0603" H 1950 6300 50  0001 C CNN
F 3 "" H 1950 6300 50  0000 C CNN
	1    1950 6300
	1    0    0    -1  
$EndComp
$Comp
L C C1
U 1 1 59453C60
P 1300 6100
F 0 "C1" H 1325 6200 50  0000 L CNN
F 1 "10uF" H 1325 6000 50  0000 L CNN
F 2 "Capacitors_SMD:C_0603_HandSoldering" H 1338 5950 50  0001 C CNN
F 3 "" H 1300 6100 50  0000 C CNN
	1    1300 6100
	1    0    0    -1  
$EndComp
Text Label 2200 6700 0    60   ~ 0
TX
Text Label 2200 6800 0    60   ~ 0
RX
Text Label 2250 6200 0    60   ~ 0
Vbat
$Comp
L EX_ANT E1
U 1 1 59456C97
P 4350 6800
F 0 "E1" H 4450 7000 60  0000 C CNN
F 1 "EX_ANT" H 4350 6350 60  0000 C CNN
F 2 "Transmitter:SMA-RP_SMD_CONN" H 4350 6800 60  0001 C CNN
F 3 "" H 4350 6800 60  0000 C CNN
	1    4350 6800
	1    0    0    -1  
$EndComp
$Comp
L GNDD #PWR07
U 1 1 59457179
P 4600 7200
F 0 "#PWR07" H 4600 6950 50  0001 C CNN
F 1 "GNDD" H 4600 7050 50  0000 C CNN
F 2 "" H 4600 7200 50  0000 C CNN
F 3 "" H 4600 7200 50  0000 C CNN
	1    4600 7200
	1    0    0    -1  
$EndComp
$Comp
L INDUCTOR L2
U 1 1 5945F470
P 6000 1200
F 0 "L2" V 6100 1450 50  0000 C CNN
F 1 "INDUCTOR" V 6100 1200 50  0000 C CNN
F 2 "Transmitter:Sumida_3pin_Ind" H 6000 1200 50  0001 C CNN
F 3 "" H 6000 1200 50  0000 C CNN
	1    6000 1200
	1    0    0    -1  
$EndComp
$Comp
L INDUCTOR L1
U 1 1 5945F9AE
P 5400 1200
F 0 "L1" V 5500 1450 50  0000 C CNN
F 1 "INDUCTOR" V 5500 1200 50  0000 C CNN
F 2 "Transmitter:Sumida_2pin_Ind" H 5400 1200 50  0001 C CNN
F 3 "" H 5400 1200 50  0000 C CNN
	1    5400 1200
	1    0    0    -1  
$EndComp
$Comp
L INDUCTOR L3
U 1 1 59461895
P 6000 1900
F 0 "L3" V 6100 2150 50  0000 C CNN
F 1 "INDUCTOR" V 6100 1900 50  0000 C CNN
F 2 "Transmitter:Sumida_2pin_Ind" H 6000 1900 50  0001 C CNN
F 3 "" H 6000 1900 50  0000 C CNN
	1    6000 1900
	1    0    0    -1  
$EndComp
$Comp
L JUMPER JP1
U 1 1 5946698D
P 5200 1200
F 0 "JP1" H 5200 1250 50  0000 C CNN
F 1 "JUMPER" H 5200 1120 50  0000 C CNN
F 2 "Resistors_SMD:R_0603_HandSoldering" H 5200 1200 50  0001 C CNN
F 3 "" H 5200 1200 50  0000 C CNN
	1    5200 1200
	0    -1   -1   0   
$EndComp
$Comp
L JUMPER JP2
U 1 1 59466B1D
P 5850 1200
F 0 "JP2" H 5850 1250 50  0000 C CNN
F 1 "JUMPER" H 5850 1120 50  0000 C CNN
F 2 "Resistors_SMD:R_0603_HandSoldering" H 5850 1200 50  0001 C CNN
F 3 "" H 5850 1200 50  0000 C CNN
	1    5850 1200
	0    -1   -1   0   
$EndComp
$Comp
L JUMPER JP3
U 1 1 59466BB1
P 5850 1900
F 0 "JP3" H 5850 1950 50  0000 C CNN
F 1 "JUMPER" H 5850 1820 50  0000 C CNN
F 2 "Resistors_SMD:R_0603_HandSoldering" H 5850 1900 50  0001 C CNN
F 3 "" H 5850 1900 50  0000 C CNN
	1    5850 1900
	0    -1   -1   0   
$EndComp
Text Label 6450 800  2    60   ~ 0
Hyd_Out
Text Label 600  3800 0    60   ~ 0
PC0
$Comp
L Nucleo144 J1
U 1 1 5944801A
P 10150 4750
F 0 "J1" H 9850 6100 60  0000 C CNN
F 1 "Nucleo144" H 9900 3100 60  0000 C CNN
F 2 "Transmitter:NUCLEO_CN8&9" H 10250 4300 60  0001 C CNN
F 3 "" H 10250 4300 60  0000 C CNN
	1    10150 4750
	1    0    0    -1  
$EndComp
$Comp
L +3.3V #PWR08
U 1 1 594485C5
P 8950 4000
F 0 "#PWR08" H 8950 3850 50  0001 C CNN
F 1 "+3.3V" H 8950 4140 50  0000 C CNN
F 2 "" H 8950 4000 50  0000 C CNN
F 3 "" H 8950 4000 50  0000 C CNN
	1    8950 4000
	1    0    0    -1  
$EndComp
Text Label 8900 4700 0    60   ~ 0
PPS
$Comp
L TEST_1P W2
U 1 1 59452907
P 10500 1150
F 0 "W2" H 10500 1420 50  0000 C CNN
F 1 "TEST_1P" V 10600 1300 50  0000 C CNN
F 2 "Transmitter:TestPoint" H 10700 1150 50  0001 C CNN
F 3 "" H 10700 1150 50  0000 C CNN
	1    10500 1150
	0    -1   -1   0   
$EndComp
Text Label 10700 1150 2    60   ~ 0
PC0
Text Label 10700 1350 2    60   ~ 0
PPS
$Comp
L TEST_1P W3
U 1 1 59453468
P 10500 1350
F 0 "W3" H 10500 1620 50  0000 C CNN
F 1 "TEST_1P" V 10600 1500 50  0000 C CNN
F 2 "Transmitter:TestPoint" H 10700 1350 50  0001 C CNN
F 3 "" H 10700 1350 50  0000 C CNN
	1    10500 1350
	0    -1   -1   0   
$EndComp
$Comp
L TEST_1P W4
U 1 1 594535CD
P 10500 1550
F 0 "W4" H 10500 1820 50  0000 C CNN
F 1 "TEST_1P" V 10600 1700 50  0000 C CNN
F 2 "Transmitter:TestPoint" H 10700 1550 50  0001 C CNN
F 3 "" H 10700 1550 50  0000 C CNN
	1    10500 1550
	0    -1   -1   0   
$EndComp
$Comp
L GNDA #PWR09
U 1 1 59453734
P 10700 1550
F 0 "#PWR09" H 10700 1300 50  0001 C CNN
F 1 "GNDA" H 10700 1400 50  0000 C CNN
F 2 "" H 10700 1550 50  0000 C CNN
F 3 "" H 10700 1550 50  0000 C CNN
	1    10700 1550
	1    0    0    -1  
$EndComp
$Comp
L LED D1
U 1 1 59456397
P 1150 1400
F 0 "D1" H 1150 1500 50  0000 C CNN
F 1 "VAOL GREEN LED" H 950 1300 50  0000 C CNN
F 2 "Diodes_SMD:D_0603" H 1150 1400 50  0001 C CNN
F 3 "" H 1150 1400 50  0000 C CNN
	1    1150 1400
	0    -1   -1   0   
$EndComp
$Comp
L R R1
U 1 1 5945655D
P 1150 1850
F 0 "R1" V 1230 1850 50  0000 C CNN
F 1 "500" V 1150 1850 50  0000 C CNN
F 2 "Resistors_SMD:R_0603_HandSoldering" V 1080 1850 50  0001 C CNN
F 3 "" H 1150 1850 50  0000 C CNN
	1    1150 1850
	-1   0    0    1   
$EndComp
$Comp
L GNDD #PWR010
U 1 1 59456656
P 1150 2100
F 0 "#PWR010" H 1150 1850 50  0001 C CNN
F 1 "GNDD" H 1150 1950 50  0000 C CNN
F 2 "" H 1150 2100 50  0000 C CNN
F 3 "" H 1150 2100 50  0000 C CNN
	1    1150 2100
	1    0    0    -1  
$EndComp
Text Label 800  1150 0    60   ~ 0
Vin
$Comp
L GNDA #PWR011
U 1 1 5945A301
P 8650 1250
F 0 "#PWR011" H 8650 1000 50  0001 C CNN
F 1 "GNDA" H 8650 1100 50  0000 C CNN
F 2 "" H 8650 1250 50  0000 C CNN
F 3 "" H 8650 1250 50  0000 C CNN
	1    8650 1250
	1    0    0    -1  
$EndComp
$Comp
L GNDD #PWR012
U 1 1 5945A8AC
P 9150 1250
F 0 "#PWR012" H 9150 1000 50  0001 C CNN
F 1 "GNDD" H 9150 1100 50  0000 C CNN
F 2 "" H 9150 1250 50  0000 C CNN
F 3 "" H 9150 1250 50  0000 C CNN
	1    9150 1250
	1    0    0    -1  
$EndComp
$Comp
L GNDD #PWR013
U 1 1 5945AC6B
P 9050 6200
F 0 "#PWR013" H 9050 5950 50  0001 C CNN
F 1 "GNDD" H 9050 6050 50  0000 C CNN
F 2 "" H 9050 6200 50  0000 C CNN
F 3 "" H 9050 6200 50  0000 C CNN
	1    9050 6200
	1    0    0    -1  
$EndComp
$Comp
L GNDD #PWR014
U 1 1 5945B379
P 10600 6200
F 0 "#PWR014" H 10600 5950 50  0001 C CNN
F 1 "GNDD" H 10600 6050 50  0000 C CNN
F 2 "" H 10600 6200 50  0000 C CNN
F 3 "" H 10600 6200 50  0000 C CNN
	1    10600 6200
	1    0    0    -1  
$EndComp
$Comp
L GNDD #PWR015
U 1 1 5945B40B
P 8900 4450
F 0 "#PWR015" H 8900 4200 50  0001 C CNN
F 1 "GNDD" H 8900 4300 50  0000 C CNN
F 2 "" H 8900 4450 50  0000 C CNN
F 3 "" H 8900 4450 50  0000 C CNN
	1    8900 4450
	1    0    0    -1  
$EndComp
NoConn ~ 9400 3850
NoConn ~ 9400 3950
NoConn ~ 9400 4150
NoConn ~ 10350 3750
NoConn ~ 10350 3850
NoConn ~ 10350 3950
NoConn ~ 10350 4050
NoConn ~ 10350 4150
NoConn ~ 10350 4250
NoConn ~ 10350 4350
NoConn ~ 10350 4450
NoConn ~ 10350 4700
NoConn ~ 10350 5000
NoConn ~ 10350 5100
NoConn ~ 10350 5300
NoConn ~ 10350 5400
NoConn ~ 10350 5500
NoConn ~ 10350 5600
NoConn ~ 10350 5700
NoConn ~ 10350 5800
NoConn ~ 10350 5900
NoConn ~ 10350 6000
NoConn ~ 10350 6100
NoConn ~ 9400 6100
NoConn ~ 9400 6000
NoConn ~ 9400 5900
NoConn ~ 9400 5700
NoConn ~ 9400 5600
NoConn ~ 9400 5500
NoConn ~ 9400 5400
NoConn ~ 9400 5200
NoConn ~ 9400 5100
NoConn ~ 9400 5000
NoConn ~ 9400 4900
Text Notes 600  5550 0    197  ~ 0
GPS 
Text Notes 550  750  0    197  ~ 0
Power Supply
Text Notes 4650 700  0    157  ~ 0
Impedance matching network\n
Text Label 8900 4800 0    60   ~ 0
PC0
$Comp
L CONN_01X02 P1
U 1 1 5946AAB7
P 9300 2100
F 0 "P1" H 9300 2250 50  0000 C CNN
F 1 "CONN_01X02" V 9400 2100 50  0000 C CNN
F 2 "Transmitter:2pinTerminal" H 9300 2100 50  0001 C CNN
F 3 "" H 9300 2100 50  0000 C CNN
	1    9300 2100
	1    0    0    -1  
$EndComp
$Comp
L CONN_01X02 P2
U 1 1 5946ABEC
P 9300 2700
F 0 "P2" H 9300 2850 50  0000 C CNN
F 1 "CONN_01X02" V 9400 2700 50  0000 C CNN
F 2 "Transmitter:2pinTerminal" H 9300 2700 50  0001 C CNN
F 3 "" H 9300 2700 50  0000 C CNN
	1    9300 2700
	1    0    0    -1  
$EndComp
$Comp
L GNDA #PWR016
U 1 1 5946D7BC
P 8850 2150
F 0 "#PWR016" H 8850 1900 50  0001 C CNN
F 1 "GNDA" H 8850 2000 50  0000 C CNN
F 2 "" H 8850 2150 50  0000 C CNN
F 3 "" H 8850 2150 50  0000 C CNN
	1    8850 2150
	1    0    0    -1  
$EndComp
$Comp
L GNDD #PWR017
U 1 1 5946E098
P 1600 1650
F 0 "#PWR017" H 1600 1400 50  0001 C CNN
F 1 "GNDD" H 1600 1500 50  0000 C CNN
F 2 "" H 1600 1650 50  0000 C CNN
F 3 "" H 1600 1650 50  0000 C CNN
	1    1600 1650
	1    0    0    -1  
$EndComp
$Comp
L GNDD #PWR018
U 1 1 5946EABC
P 8900 2800
F 0 "#PWR018" H 8900 2550 50  0001 C CNN
F 1 "GNDD" H 8900 2650 50  0000 C CNN
F 2 "" H 8900 2800 50  0000 C CNN
F 3 "" H 8900 2800 50  0000 C CNN
	1    8900 2800
	1    0    0    -1  
$EndComp
Text Label 8850 2650 0    60   ~ 0
Vin
Text Notes 750  2850 0    157  ~ 0
Analog bandpass filter & amplifier
Text Notes 8150 7650 0    59   ~ 0
16/06/2017
$Comp
L C C5
U 1 1 59473F16
P 7300 5350
F 0 "C5" H 7325 5450 50  0000 L CNN
F 1 "10uF" H 7325 5250 50  0000 L CNN
F 2 "Capacitors_SMD:C_0603_HandSoldering" H 7338 5200 50  0001 C CNN
F 3 "" H 7300 5350 50  0000 C CNN
	1    7300 5350
	1    0    0    -1  
$EndComp
$Comp
L C C7
U 1 1 59475801
P 7650 5350
F 0 "C7" H 7675 5450 50  0000 L CNN
F 1 "0.1uF" H 7675 5250 50  0000 L CNN
F 2 "Capacitors_SMD:C_0603_HandSoldering" H 7688 5200 50  0001 C CNN
F 3 "" H 7650 5350 50  0000 C CNN
	1    7650 5350
	1    0    0    -1  
$EndComp
$Comp
L C C6
U 1 1 594758B6
P 7300 6050
F 0 "C6" H 7325 6150 50  0000 L CNN
F 1 "10uF" H 7325 5950 50  0000 L CNN
F 2 "Capacitors_SMD:C_0603_HandSoldering" H 7338 5900 50  0001 C CNN
F 3 "" H 7300 6050 50  0000 C CNN
	1    7300 6050
	1    0    0    -1  
$EndComp
$Comp
L C C8
U 1 1 59475974
P 7650 6050
F 0 "C8" H 7675 6150 50  0000 L CNN
F 1 "0.1uF" H 7675 5950 50  0000 L CNN
F 2 "Capacitors_SMD:C_0603_HandSoldering" H 7688 5900 50  0001 C CNN
F 3 "" H 7650 6050 50  0000 C CNN
	1    7650 6050
	1    0    0    -1  
$EndComp
$Comp
L GNDA #PWR019
U 1 1 59475A51
P 6850 5750
F 0 "#PWR019" H 6850 5500 50  0001 C CNN
F 1 "GNDA" H 6850 5600 50  0000 C CNN
F 2 "" H 6850 5750 50  0000 C CNN
F 3 "" H 6850 5750 50  0000 C CNN
	1    6850 5750
	1    0    0    -1  
$EndComp
$Comp
L GNDD #PWR020
U 1 1 59478467
P 800 6950
F 0 "#PWR020" H 800 6700 50  0001 C CNN
F 1 "GNDD" H 800 6800 50  0000 C CNN
F 2 "" H 800 6950 50  0000 C CNN
F 3 "" H 800 6950 50  0000 C CNN
	1    800  6950
	1    0    0    -1  
$EndComp
$Comp
L Battery BT1
U 1 1 59478D6A
P 800 6600
F 0 "BT1" H 900 6650 50  0000 L CNN
F 1 "Battery" H 900 6550 50  0000 L CNN
F 2 "Transmitter:CR1632" V 800 6640 50  0001 C CNN
F 3 "" V 800 6640 50  0000 C CNN
	1    800  6600
	1    0    0    -1  
$EndComp
Text Label 800  6150 3    60   ~ 0
Vbat
$Comp
L EX_ANT E2
U 1 1 5947F58D
P 10350 2300
F 0 "E2" H 10450 2500 60  0000 C CNN
F 1 "EX_ANT" H 10350 1850 60  0000 C CNN
F 2 "Transmitter:SMA-RP_SMD_CONN" H 10350 2300 60  0001 C CNN
F 3 "" H 10350 2300 60  0000 C CNN
	1    10350 2300
	1    0    0    -1  
$EndComp
$Comp
L GNDA #PWR021
U 1 1 5947FCCB
P 10700 2700
F 0 "#PWR021" H 10700 2450 50  0001 C CNN
F 1 "GNDA" H 10700 2550 50  0000 C CNN
F 2 "" H 10700 2700 50  0000 C CNN
F 3 "" H 10700 2700 50  0000 C CNN
	1    10700 2700
	1    0    0    -1  
$EndComp
Text Label 10700 4800 2    60   ~ 0
TX
Text Label 10700 4900 2    60   ~ 0
RX
$Comp
L D D3
U 1 1 59447039
P 5800 3600
F 0 "D3" H 5800 3700 50  0000 C CNN
F 1 "D 5.36V" H 5800 3500 50  0000 C CNN
F 2 "Diodes_SMD:D_SMA" H 5800 3600 50  0001 C CNN
F 3 "" H 5800 3600 50  0000 C CNN
	1    5800 3600
	0    -1   -1   0   
$EndComp
$Comp
L GNDA #PWR022
U 1 1 5947AF99
P 3800 4350
F 0 "#PWR022" H 3800 4100 50  0001 C CNN
F 1 "GNDA" H 3800 4200 50  0000 C CNN
F 2 "" H 3800 4350 50  0000 C CNN
F 3 "" H 3800 4350 50  0000 C CNN
	1    3800 4350
	1    0    0    -1  
$EndComp
$Comp
L GNDA #PWR023
U 1 1 59482F73
P 4650 5050
F 0 "#PWR023" H 4650 4800 50  0001 C CNN
F 1 "GNDA" H 4650 4900 50  0000 C CNN
F 2 "" H 4650 5050 50  0000 C CNN
F 3 "" H 4650 5050 50  0000 C CNN
	1    4650 5050
	1    0    0    -1  
$EndComp
Wire Wire Line
	1300 3800 1750 3800
Wire Wire Line
	1550 3800 1550 3650
Connection ~ 1550 3800
Wire Wire Line
	1600 4000 1600 3800
Connection ~ 1600 3800
Wire Wire Line
	1600 4300 1600 4450
Wire Wire Line
	1550 3350 1550 3200
Wire Wire Line
	1550 3200 3500 3200
Wire Wire Line
	2200 3350 2200 3200
Connection ~ 2200 3200
Wire Wire Line
	2650 4000 2550 4000
Wire Wire Line
	2550 4000 2550 4350
Wire Wire Line
	2850 3500 2850 3600
Wire Wire Line
	2850 4200 2850 4300
Wire Wire Line
	3600 6000 3950 6000
Wire Wire Line
	3950 6000 3950 7000
Wire Wire Line
	3600 6700 3950 6700
Connection ~ 3950 6700
Wire Wire Line
	2150 6100 2500 6100
Wire Wire Line
	3600 6600 3900 6600
Wire Wire Line
	2500 6300 2150 6300
Wire Wire Line
	1750 6300 1700 6300
Wire Wire Line
	1800 5850 1800 5950
Wire Wire Line
	1800 5900 2500 5900
Wire Wire Line
	2050 6600 2050 6950
Wire Wire Line
	1300 6900 2050 6900
Wire Wire Line
	2500 6600 2050 6600
Connection ~ 2050 6900
Wire Wire Line
	1400 6300 1300 6300
Wire Wire Line
	1300 6250 1300 6900
Connection ~ 1300 6300
Wire Wire Line
	1800 5950 1300 5950
Connection ~ 1800 5900
Wire Wire Line
	2500 6700 2200 6700
Wire Wire Line
	2500 6800 2200 6800
Wire Wire Line
	2150 6100 2150 6600
Connection ~ 2150 6600
Wire Wire Line
	2500 6200 2250 6200
Wire Wire Line
	3600 6800 4150 6800
Wire Wire Line
	4550 7150 4600 7150
Wire Wire Line
	4600 7050 4600 7200
Wire Wire Line
	4550 7050 4600 7050
Connection ~ 4600 7150
Wire Wire Line
	5200 1500 5400 1500
Wire Wire Line
	5850 2200 6000 2200
Wire Wire Line
	5850 1600 6000 1600
Wire Wire Line
	5850 1500 6000 1500
Wire Wire Line
	5950 2300 5950 2200
Connection ~ 5950 2200
Connection ~ 5900 1600
Wire Wire Line
	5900 900  5900 800 
Wire Wire Line
	8950 4000 8950 4050
Wire Wire Line
	8950 4050 9400 4050
Wire Wire Line
	9400 4700 8900 4700
Wire Wire Line
	10500 1150 10700 1150
Wire Wire Line
	10500 1350 10700 1350
Wire Wire Line
	10500 1550 10700 1550
Wire Wire Line
	1150 2100 1150 2000
Wire Wire Line
	1150 1600 1150 1700
Wire Wire Line
	800  1150 1650 1150
Wire Wire Line
	1150 1150 1150 1200
Connection ~ 1150 1150
Wire Wire Line
	8650 1250 8650 1150
Wire Wire Line
	8650 1150 9150 1150
Wire Wire Line
	9150 1150 9150 1250
Wire Wire Line
	9400 5800 9050 5800
Wire Wire Line
	9050 5800 9050 6200
Wire Wire Line
	10350 5200 10600 5200
Wire Wire Line
	10600 5200 10600 6200
Wire Notes Line
	500  5250 5150 5250
Wire Notes Line
	5150 5250 5150 7750
Wire Notes Line
	5150 5300 5150 5750
Wire Notes Line
	500  2550 8200 2550
Wire Notes Line
	3750 2550 3750 500 
Wire Wire Line
	5400 900  5200 900 
Connection ~ 5300 900 
Wire Notes Line
	8200 500  8200 6500
Wire Wire Line
	8900 4800 9400 4800
Wire Wire Line
	9100 2050 8750 2050
Wire Wire Line
	9100 2150 8850 2150
Wire Wire Line
	9100 2750 8900 2750
Wire Wire Line
	8900 2750 8900 2800
Wire Wire Line
	9100 2650 8850 2650
Wire Wire Line
	7650 5500 7650 5900
Wire Wire Line
	6850 5700 8000 5700
Wire Wire Line
	6850 5700 6850 5750
Connection ~ 7650 5700
Wire Wire Line
	7300 5500 7300 5900
Connection ~ 7300 5700
Wire Wire Line
	7300 6200 8000 6200
Wire Wire Line
	7300 5200 8000 5200
Wire Wire Line
	7500 5050 7500 5200
Connection ~ 7500 5200
Wire Wire Line
	7500 6300 7500 6200
Connection ~ 7500 6200
Wire Wire Line
	800  6750 800  6950
Wire Wire Line
	800  6450 800  6150
Connection ~ 5300 1500
Wire Wire Line
	5300 900  5300 800 
Wire Wire Line
	5300 800  5600 800 
Wire Wire Line
	5600 800  5600 2300
Wire Wire Line
	5600 2300 5950 2300
Wire Wire Line
	5900 800  6450 800 
Wire Wire Line
	10550 2550 10700 2550
Wire Wire Line
	10700 2550 10700 2700
Wire Wire Line
	10550 2650 10700 2650
Connection ~ 10700 2650
Wire Wire Line
	9800 2300 10150 2300
Wire Wire Line
	5850 900  6000 900 
Connection ~ 5900 900 
Connection ~ 5900 1500
Wire Wire Line
	5900 1600 5900 1500
Wire Wire Line
	10350 4900 10700 4900
Wire Wire Line
	10350 4800 10700 4800
Wire Wire Line
	1000 3800 600  3800
Wire Wire Line
	2050 3800 2650 3800
Wire Wire Line
	2200 3650 2200 3800
Connection ~ 2200 3800
Wire Wire Line
	3250 3900 4150 3900
Wire Wire Line
	3500 3200 3500 3900
Wire Wire Line
	3800 3900 3800 4000
Connection ~ 3500 3900
Wire Wire Line
	3800 4300 3800 4350
Wire Wire Line
	4700 3800 4150 3800
Wire Wire Line
	4150 3800 4150 3900
Connection ~ 3800 3900
Wire Wire Line
	4650 4950 4650 5050
Wire Wire Line
	4700 4000 4650 4000
Wire Wire Line
	4650 4000 4650 4650
Wire Wire Line
	4900 3300 4900 3600
Wire Wire Line
	4900 4200 4900 4250
Wire Wire Line
	5150 4550 4650 4550
Connection ~ 4650 4550
Wire Wire Line
	5150 4750 5000 4750
Wire Wire Line
	5000 4750 5000 4550
Connection ~ 5000 4550
$Comp
L D D4
U 1 1 59484E9C
P 5800 4150
F 0 "D4" H 5800 4250 50  0000 C CNN
F 1 "D 5.36V" H 5800 4050 50  0000 C CNN
F 2 "Diodes_SMD:D_SMA" H 5800 4150 50  0001 C CNN
F 3 "" H 5800 4150 50  0000 C CNN
	1    5800 4150
	0    -1   -1   0   
$EndComp
Wire Wire Line
	5300 3900 5800 3900
Wire Wire Line
	5800 3750 5800 4000
Connection ~ 5800 3900
$Comp
L R R12
U 1 1 59485D0A
P 6750 4000
F 0 "R12" V 6830 4000 50  0000 C CNN
F 1 "2.2" V 6750 4000 50  0000 C CNN
F 2 "Resistors_SMD:R_2512_HandSoldering" V 6680 4000 50  0001 C CNN
F 3 "" H 6750 4000 50  0000 C CNN
	1    6750 4000
	0    1    1    0   
$EndComp
Wire Wire Line
	6900 3750 7100 3750
Wire Wire Line
	7100 3750 7100 4000
Wire Wire Line
	7100 4000 6900 4000
Connection ~ 7100 3850
$Comp
L R R9
U 1 1 59486A07
P 5800 3200
F 0 "R9" V 5880 3200 50  0000 C CNN
F 1 "5.1k" V 5800 3200 50  0000 C CNN
F 2 "Resistors_SMD:R_0603_HandSoldering" V 5730 3200 50  0001 C CNN
F 3 "" H 5800 3200 50  0000 C CNN
	1    5800 3200
	-1   0    0    1   
$EndComp
$Comp
L R R10
U 1 1 59486B24
P 5800 4550
F 0 "R10" V 5880 4550 50  0000 C CNN
F 1 "5.1k" V 5800 4550 50  0000 C CNN
F 2 "Resistors_SMD:R_0603_HandSoldering" V 5730 4550 50  0001 C CNN
F 3 "" H 5800 4550 50  0000 C CNN
	1    5800 4550
	-1   0    0    1   
$EndComp
Wire Wire Line
	5800 4300 5800 4400
Wire Wire Line
	5800 3350 5800 3450
Wire Wire Line
	5450 4550 5550 4550
Wire Wire Line
	5450 4750 5550 4750
Connection ~ 5550 4750
$Comp
L R R13
U 1 1 594871AE
P 7400 3850
F 0 "R13" V 7480 3850 50  0000 C CNN
F 1 "51" V 7400 3850 50  0000 C CNN
F 2 "Resistors_SMD:R_2512_HandSoldering" V 7330 3850 50  0001 C CNN
F 3 "" H 7400 3850 50  0000 C CNN
	1    7400 3850
	0    1    1    0   
$EndComp
Wire Wire Line
	6250 2850 6250 2900
Wire Wire Line
	5800 2900 6500 2900
Wire Wire Line
	5800 2900 5800 3050
Wire Wire Line
	5800 4700 5800 4800
Wire Wire Line
	5800 4800 6500 4800
Wire Wire Line
	6250 4800 6250 4900
$Comp
L TIP32C Q2
U 1 1 5948E904
P 6400 4350
F 0 "Q2" H 6600 4425 50  0000 L CNN
F 1 "TIP32C" H 6600 4350 50  0000 L CNN
F 2 "TO_SOT_Packages_THT:TO-220_Horizontal" H 6600 4275 50  0000 L CIN
F 3 "" H 6400 4350 50  0000 L CNN
	1    6400 4350
	1    0    0    1   
$EndComp
Connection ~ 6250 4800
Connection ~ 5800 4350
Wire Wire Line
	6600 4000 6500 4000
$Comp
L TIP31C Q1
U 1 1 5948F793
P 6400 3400
F 0 "Q1" H 6600 3475 50  0000 L CNN
F 1 "TIP31C" H 6600 3400 50  0000 L CNN
F 2 "TO_SOT_Packages_THT:TO-220_Horizontal" H 6600 3325 50  0000 L CIN
F 3 "" H 6400 3400 50  0000 L CNN
	1    6400 3400
	1    0    0    -1  
$EndComp
Wire Wire Line
	6200 3400 5800 3400
Connection ~ 5800 3400
Wire Wire Line
	6500 2900 6500 3200
Connection ~ 6250 2900
Wire Wire Line
	6500 3600 6500 3750
Wire Wire Line
	6500 3750 6600 3750
Wire Wire Line
	5550 5150 7150 5150
Wire Wire Line
	5550 4550 5550 5150
Wire Wire Line
	7150 5150 7150 4650
Wire Wire Line
	6500 4000 6500 4150
Wire Wire Line
	6200 4350 5800 4350
Wire Wire Line
	6500 4800 6500 4550
Wire Wire Line
	7550 3850 8100 3850
Wire Wire Line
	5300 1500 5300 1700
Wire Wire Line
	5300 1700 4700 1700
Text Label 4700 1700 0    60   ~ 0
Imp_Net
Text Label 8100 3850 2    60   ~ 0
Imp_Net
Wire Wire Line
	7250 3850 7100 3850
Wire Wire Line
	7200 3850 7200 4650
Connection ~ 7200 3850
Wire Wire Line
	7200 4650 7150 4650
Text Label 8750 2050 0    60   ~ 0
Hyd_Out
Text Label 9800 2300 0    60   ~ 0
Hyd_Out
$Comp
L TEST_1P W1
U 1 1 5949DBB0
P 10500 900
F 0 "W1" H 10500 1170 50  0000 C CNN
F 1 "TEST_1P" V 10600 1050 50  0000 C CNN
F 2 "Transmitter:TestPoint" H 10700 900 50  0001 C CNN
F 3 "" H 10700 900 50  0000 C CNN
	1    10500 900 
	0    -1   -1   0   
$EndComp
Text Label 10900 900  2    60   ~ 0
Hyd_Out
Wire Wire Line
	10900 900  10500 900 
$Comp
L DCW08A-15 U1
U 1 1 594A37D8
P 2050 1450
F 0 "U1" H 1800 1900 60  0000 C CNN
F 1 "DCW08A-15" H 2100 1250 60  0000 C CNN
F 2 "Transmitter:DCW08A-15" H 2050 1450 60  0001 C CNN
F 3 "" H 2050 1450 60  0000 C CNN
	1    2050 1450
	1    0    0    -1  
$EndComp
Wire Wire Line
	1650 1250 1500 1250
Wire Wire Line
	1500 1250 1500 1150
Connection ~ 1500 1150
Wire Wire Line
	1650 1400 1600 1400
Wire Wire Line
	1600 1400 1600 1650
Wire Wire Line
	1650 1500 1600 1500
Connection ~ 1600 1500
Wire Wire Line
	2500 1500 2600 1500
Wire Wire Line
	2600 1400 2600 1650
Wire Wire Line
	2500 1400 2600 1400
Connection ~ 2600 1500
Wire Wire Line
	2500 1150 3250 1150
Wire Wire Line
	3250 1150 3250 1050
Wire Wire Line
	2500 1250 3250 1250
Wire Wire Line
	3250 1250 3250 1500
$Comp
L +15V #PWR024
U 1 1 594A4CF0
P 3250 1050
F 0 "#PWR024" H 3250 900 50  0001 C CNN
F 1 "+15V" H 3250 1190 50  0000 C CNN
F 2 "" H 3250 1050 50  0000 C CNN
F 3 "" H 3250 1050 50  0000 C CNN
	1    3250 1050
	1    0    0    -1  
$EndComp
$Comp
L -15VA #PWR025
U 1 1 594A5A6A
P 3250 1500
F 0 "#PWR025" H 3250 1350 50  0001 C CNN
F 1 "-15VA" H 3250 1640 50  0000 C CNN
F 2 "" H 3250 1500 50  0000 C CNN
F 3 "" H 3250 1500 50  0000 C CNN
	1    3250 1500
	-1   0    0    1   
$EndComp
$Comp
L -15VA #PWR026
U 1 1 594A67D4
P 2850 3500
F 0 "#PWR026" H 2850 3350 50  0001 C CNN
F 1 "-15VA" H 2850 3640 50  0000 C CNN
F 2 "" H 2850 3500 50  0000 C CNN
F 3 "" H 2850 3500 50  0000 C CNN
	1    2850 3500
	1    0    0    -1  
$EndComp
$Comp
L -15VA #PWR027
U 1 1 594A6957
P 4900 4250
F 0 "#PWR027" H 4900 4100 50  0001 C CNN
F 1 "-15VA" H 4900 4390 50  0000 C CNN
F 2 "" H 4900 4250 50  0000 C CNN
F 3 "" H 4900 4250 50  0000 C CNN
	1    4900 4250
	-1   0    0    1   
$EndComp
$Comp
L +15V #PWR028
U 1 1 594A70E8
P 2850 4300
F 0 "#PWR028" H 2850 4150 50  0001 C CNN
F 1 "+15V" H 2850 4440 50  0000 C CNN
F 2 "" H 2850 4300 50  0000 C CNN
F 3 "" H 2850 4300 50  0000 C CNN
	1    2850 4300
	-1   0    0    1   
$EndComp
$Comp
L +15V #PWR029
U 1 1 594A7275
P 4900 3300
F 0 "#PWR029" H 4900 3150 50  0001 C CNN
F 1 "+15V" H 4900 3440 50  0000 C CNN
F 2 "" H 4900 3300 50  0000 C CNN
F 3 "" H 4900 3300 50  0000 C CNN
	1    4900 3300
	1    0    0    -1  
$EndComp
$Comp
L +15V #PWR030
U 1 1 594A7752
P 6250 2850
F 0 "#PWR030" H 6250 2700 50  0001 C CNN
F 1 "+15V" H 6250 2990 50  0000 C CNN
F 2 "" H 6250 2850 50  0000 C CNN
F 3 "" H 6250 2850 50  0000 C CNN
	1    6250 2850
	1    0    0    -1  
$EndComp
$Comp
L -15VA #PWR031
U 1 1 594A77EA
P 6250 4900
F 0 "#PWR031" H 6250 4750 50  0001 C CNN
F 1 "-15VA" H 6250 5040 50  0000 C CNN
F 2 "" H 6250 4900 50  0000 C CNN
F 3 "" H 6250 4900 50  0000 C CNN
	1    6250 4900
	-1   0    0    1   
$EndComp
$Comp
L -15VA #PWR032
U 1 1 594A7AB8
P 7500 6300
F 0 "#PWR032" H 7500 6150 50  0001 C CNN
F 1 "-15VA" H 7500 6440 50  0000 C CNN
F 2 "" H 7500 6300 50  0000 C CNN
F 3 "" H 7500 6300 50  0000 C CNN
	1    7500 6300
	-1   0    0    1   
$EndComp
$Comp
L +15V #PWR033
U 1 1 594A7BAE
P 7500 5050
F 0 "#PWR033" H 7500 4900 50  0001 C CNN
F 1 "+15V" H 7500 5190 50  0000 C CNN
F 2 "" H 7500 5050 50  0000 C CNN
F 3 "" H 7500 5050 50  0000 C CNN
	1    7500 5050
	1    0    0    -1  
$EndComp
$Comp
L CP1 C9
U 1 1 594A7DC0
P 8000 5400
F 0 "C9" H 8025 5500 50  0000 L CNN
F 1 "33uF" H 8025 5300 50  0000 L CNN
F 2 "Capacitors_ThroughHole:CP_Radial_D6.3mm_P2.50mm" H 8000 5400 50  0001 C CNN
F 3 "" H 8000 5400 50  0000 C CNN
	1    8000 5400
	1    0    0    -1  
$EndComp
$Comp
L CP1 C10
U 1 1 594A7E9F
P 8000 5950
F 0 "C10" H 8025 6050 50  0000 L CNN
F 1 "33uF" H 8025 5850 50  0000 L CNN
F 2 "Capacitors_ThroughHole:CP_Radial_D6.3mm_P2.50mm" H 8000 5950 50  0000 C CNN
F 3 "" H 8000 5950 50  0000 C CNN
	1    8000 5950
	1    0    0    -1  
$EndComp
Wire Wire Line
	8000 5550 8000 5800
Connection ~ 8000 5700
Wire Wire Line
	8000 5200 8000 5250
Connection ~ 7650 5200
Wire Wire Line
	8000 6200 8000 6100
Connection ~ 7650 6200
Wire Wire Line
	9400 4350 8900 4350
Wire Wire Line
	8900 4250 8900 4450
Wire Wire Line
	8900 4250 9400 4250
Connection ~ 8900 4350
Wire Wire Line
	9400 4450 9150 4450
Text Label 9150 4450 0    60   ~ 0
Vin
$EndSCHEMATC
