(export (version D)
  (design
    (source /home/eiscar/GDrive/AcousticPositioningSystem/UAR/Electronics/Transmitterv0.1/Transmitter.sch)
    (date "Mon 19 Jun 2017 09:21:49 AM EDT")
    (tool "Eeschema 4.0.2-4+6225~38~ubuntu14.04.1-stable")
    (sheet (number 1) (name /) (tstamps /)
      (title_block
        (title)
        (company)
        (rev)
        (date)
        (source Transmitter.sch)
        (comment (number 1) (value ""))
        (comment (number 2) (value ""))
        (comment (number 3) (value ""))
        (comment (number 4) (value "")))))
  (components
    (comp (ref U2)
      (value NE5532)
      (footprint Transmitter:TI_SOIC8)
      (libsource (lib Transmitter) (part TL072))
      (sheetpath (names /) (tstamps /))
      (tstamp 59445CCE))
    (comp (ref R8)
      (value 1.8k)
      (footprint Resistors_SMD:R_0603_HandSoldering)
      (libsource (lib Transmitter) (part R))
      (sheetpath (names /) (tstamps /))
      (tstamp 59445E72))
    (comp (ref R7)
      (value 220)
      (footprint Resistors_SMD:R_0603_HandSoldering)
      (libsource (lib Transmitter) (part R))
      (sheetpath (names /) (tstamps /))
      (tstamp 59445F13))
    (comp (ref R11)
      (value 2.2)
      (footprint Resistors_SMD:R_2512_HandSoldering)
      (libsource (lib Transmitter) (part R))
      (sheetpath (names /) (tstamps /))
      (tstamp 59446084))
    (comp (ref R6)
      (value 220)
      (footprint Resistors_SMD:R_0603_HandSoldering)
      (libsource (lib Transmitter) (part R))
      (sheetpath (names /) (tstamps /))
      (tstamp 594460FD))
    (comp (ref R2)
      (value 3.9k)
      (footprint Resistors_SMD:R_0603_HandSoldering)
      (libsource (lib Transmitter) (part R))
      (sheetpath (names /) (tstamps /))
      (tstamp 59446140))
    (comp (ref R4)
      (value 1.8k)
      (footprint Resistors_SMD:R_0603_HandSoldering)
      (libsource (lib Transmitter) (part R))
      (sheetpath (names /) (tstamps /))
      (tstamp 594461B0))
    (comp (ref R5)
      (value 15k)
      (footprint Resistors_SMD:R_0603_HandSoldering)
      (libsource (lib Transmitter) (part R))
      (sheetpath (names /) (tstamps /))
      (tstamp 5944625B))
    (comp (ref C4)
      (value 4.7p)
      (footprint Capacitors_SMD:C_0603_HandSoldering)
      (libsource (lib Transmitter) (part C))
      (sheetpath (names /) (tstamps /))
      (tstamp 594462A5))
    (comp (ref C3)
      (value 1nF)
      (footprint Capacitors_SMD:C_0603_HandSoldering)
      (libsource (lib Transmitter) (part C))
      (sheetpath (names /) (tstamps /))
      (tstamp 594464A7))
    (comp (ref C2)
      (value 1nF)
      (footprint Capacitors_SMD:C_0603_HandSoldering)
      (libsource (lib Transmitter) (part C))
      (sheetpath (names /) (tstamps /))
      (tstamp 59446539))
    (comp (ref U3)
      (value FGPMMOPA6H)
      (footprint Transmitter:FGPMMOPA6H)
      (libsource (lib Transmitter) (part FGPMMOPA6H))
      (sheetpath (names /) (tstamps /))
      (tstamp 594523A1))
    (comp (ref R3)
      (value 470)
      (footprint Resistors_SMD:R_0603_HandSoldering)
      (libsource (lib Transmitter) (part R))
      (sheetpath (names /) (tstamps /))
      (tstamp 5945325E))
    (comp (ref D2)
      (value LED)
      (footprint Diodes_SMD:D_0603)
      (libsource (lib Transmitter) (part LED))
      (sheetpath (names /) (tstamps /))
      (tstamp 594532E2))
    (comp (ref C1)
      (value 10uF)
      (footprint Capacitors_SMD:C_0603_HandSoldering)
      (libsource (lib Transmitter) (part C))
      (sheetpath (names /) (tstamps /))
      (tstamp 59453C60))
    (comp (ref E1)
      (value EX_ANT)
      (footprint Transmitter:SMA-RP_SMD_CONN)
      (libsource (lib Transmitter) (part EX_ANT))
      (sheetpath (names /) (tstamps /))
      (tstamp 59456C97))
    (comp (ref L2)
      (value INDUCTOR)
      (footprint Transmitter:Sumida_3pin_Ind)
      (libsource (lib Transmitter) (part INDUCTOR))
      (sheetpath (names /) (tstamps /))
      (tstamp 5945F470))
    (comp (ref L1)
      (value INDUCTOR)
      (footprint Transmitter:Sumida_2pin_Ind)
      (libsource (lib Transmitter) (part INDUCTOR))
      (sheetpath (names /) (tstamps /))
      (tstamp 5945F9AE))
    (comp (ref L3)
      (value INDUCTOR)
      (footprint Transmitter:Sumida_2pin_Ind)
      (libsource (lib Transmitter) (part INDUCTOR))
      (sheetpath (names /) (tstamps /))
      (tstamp 59461895))
    (comp (ref JP1)
      (value JUMPER)
      (footprint Resistors_SMD:R_0603_HandSoldering)
      (libsource (lib Transmitter) (part JUMPER))
      (sheetpath (names /) (tstamps /))
      (tstamp 5946698D))
    (comp (ref JP2)
      (value JUMPER)
      (footprint Resistors_SMD:R_0603_HandSoldering)
      (libsource (lib Transmitter) (part JUMPER))
      (sheetpath (names /) (tstamps /))
      (tstamp 59466B1D))
    (comp (ref JP3)
      (value JUMPER)
      (footprint Resistors_SMD:R_0603_HandSoldering)
      (libsource (lib Transmitter) (part JUMPER))
      (sheetpath (names /) (tstamps /))
      (tstamp 59466BB1))
    (comp (ref J1)
      (value Nucleo144)
      (footprint Transmitter:NUCLEO_CN8&9)
      (libsource (lib Transmitter) (part Nucleo144))
      (sheetpath (names /) (tstamps /))
      (tstamp 5944801A))
    (comp (ref W2)
      (value TEST_1P)
      (footprint Transmitter:TestPoint)
      (libsource (lib Transmitter) (part TEST_1P))
      (sheetpath (names /) (tstamps /))
      (tstamp 59452907))
    (comp (ref W3)
      (value TEST_1P)
      (footprint Transmitter:TestPoint)
      (libsource (lib Transmitter) (part TEST_1P))
      (sheetpath (names /) (tstamps /))
      (tstamp 59453468))
    (comp (ref W4)
      (value TEST_1P)
      (footprint Transmitter:TestPoint)
      (libsource (lib Transmitter) (part TEST_1P))
      (sheetpath (names /) (tstamps /))
      (tstamp 594535CD))
    (comp (ref D1)
      (value "VAOL GREEN LED")
      (footprint Diodes_SMD:D_0603)
      (libsource (lib Transmitter) (part LED))
      (sheetpath (names /) (tstamps /))
      (tstamp 59456397))
    (comp (ref R1)
      (value 500)
      (footprint Resistors_SMD:R_0603_HandSoldering)
      (libsource (lib Transmitter) (part R))
      (sheetpath (names /) (tstamps /))
      (tstamp 5945655D))
    (comp (ref P1)
      (value CONN_01X02)
      (footprint Transmitter:2pinTerminal)
      (libsource (lib Transmitter) (part CONN_01X02))
      (sheetpath (names /) (tstamps /))
      (tstamp 5946AAB7))
    (comp (ref P2)
      (value CONN_01X02)
      (footprint Transmitter:2pinTerminal)
      (libsource (lib Transmitter) (part CONN_01X02))
      (sheetpath (names /) (tstamps /))
      (tstamp 5946ABEC))
    (comp (ref C5)
      (value 10uF)
      (footprint Capacitors_SMD:C_0603_HandSoldering)
      (libsource (lib Transmitter) (part C))
      (sheetpath (names /) (tstamps /))
      (tstamp 59473F16))
    (comp (ref C7)
      (value 0.1uF)
      (footprint Capacitors_SMD:C_0603_HandSoldering)
      (libsource (lib Transmitter) (part C))
      (sheetpath (names /) (tstamps /))
      (tstamp 59475801))
    (comp (ref C6)
      (value 10uF)
      (footprint Capacitors_SMD:C_0603_HandSoldering)
      (libsource (lib Transmitter) (part C))
      (sheetpath (names /) (tstamps /))
      (tstamp 594758B6))
    (comp (ref C8)
      (value 0.1uF)
      (footprint Capacitors_SMD:C_0603_HandSoldering)
      (libsource (lib Transmitter) (part C))
      (sheetpath (names /) (tstamps /))
      (tstamp 59475974))
    (comp (ref BT1)
      (value Battery)
      (footprint Transmitter:CR1632)
      (libsource (lib Transmitter) (part Battery))
      (sheetpath (names /) (tstamps /))
      (tstamp 59478D6A))
    (comp (ref E2)
      (value EX_ANT)
      (footprint Transmitter:SMA-RP_SMD_CONN)
      (libsource (lib Transmitter) (part EX_ANT))
      (sheetpath (names /) (tstamps /))
      (tstamp 5947F58D))
    (comp (ref D3)
      (value "D 5.36V")
      (footprint Diodes_SMD:D_SMA)
      (libsource (lib Transmitter) (part D))
      (sheetpath (names /) (tstamps /))
      (tstamp 59447039))
    (comp (ref D4)
      (value "D 5.36V")
      (footprint Diodes_SMD:D_SMA)
      (libsource (lib Transmitter) (part D))
      (sheetpath (names /) (tstamps /))
      (tstamp 59484E9C))
    (comp (ref R12)
      (value 2.2)
      (footprint Resistors_SMD:R_2512_HandSoldering)
      (libsource (lib Transmitter) (part R))
      (sheetpath (names /) (tstamps /))
      (tstamp 59485D0A))
    (comp (ref R9)
      (value 5.1k)
      (footprint Resistors_SMD:R_0603_HandSoldering)
      (libsource (lib Transmitter) (part R))
      (sheetpath (names /) (tstamps /))
      (tstamp 59486A07))
    (comp (ref R10)
      (value 5.1k)
      (footprint Resistors_SMD:R_0603_HandSoldering)
      (libsource (lib Transmitter) (part R))
      (sheetpath (names /) (tstamps /))
      (tstamp 59486B24))
    (comp (ref R13)
      (value 51)
      (footprint Resistors_SMD:R_2512_HandSoldering)
      (libsource (lib Transmitter) (part R))
      (sheetpath (names /) (tstamps /))
      (tstamp 594871AE))
    (comp (ref Q2)
      (value TIP32C)
      (footprint TO_SOT_Packages_THT:TO-220_Horizontal)
      (libsource (lib Transmitter) (part TIP32C))
      (sheetpath (names /) (tstamps /))
      (tstamp 5948E904))
    (comp (ref Q1)
      (value TIP31C)
      (footprint TO_SOT_Packages_THT:TO-220_Horizontal)
      (libsource (lib Transmitter) (part TIP31C))
      (sheetpath (names /) (tstamps /))
      (tstamp 5948F793))
    (comp (ref W1)
      (value TEST_1P)
      (footprint Transmitter:TestPoint)
      (libsource (lib Transmitter) (part TEST_1P))
      (sheetpath (names /) (tstamps /))
      (tstamp 5949DBB0))
    (comp (ref U1)
      (value DCW08A-15)
      (footprint Transmitter:DCW08A-15)
      (libsource (lib Transmitter) (part DCW08A-15))
      (sheetpath (names /) (tstamps /))
      (tstamp 594A37D8))
    (comp (ref C9)
      (value 33uF)
      (footprint Capacitors_ThroughHole:CP_Radial_D6.3mm_P2.50mm)
      (libsource (lib Transmitter) (part CP1))
      (sheetpath (names /) (tstamps /))
      (tstamp 594A7DC0))
    (comp (ref C10)
      (value 33uF)
      (footprint Capacitors_ThroughHole:CP_Radial_D6.3mm_P2.50mm)
      (libsource (lib Transmitter) (part CP1))
      (sheetpath (names /) (tstamps /))
      (tstamp 594A7E9F)))
  (libparts
    (libpart (lib Transmitter) (part Battery)
      (fields
        (field (name Reference) BT)
        (field (name Value) Battery))
      (pins
        (pin (num 1) (name ~) (type passive))
        (pin (num 2) (name ~) (type passive))))
    (libpart (lib Transmitter) (part C)
      (footprints
        (fp C?)
        (fp C_????_*)
        (fp C_????)
        (fp SMD*_c)
        (fp Capacitor*))
      (fields
        (field (name Reference) C)
        (field (name Value) C))
      (pins
        (pin (num 1) (name ~) (type passive))
        (pin (num 2) (name ~) (type passive))))
    (libpart (lib Transmitter) (part CONN_01X02)
      (footprints
        (fp Pin_Header_Straight_1X02)
        (fp Pin_Header_Angled_1X02)
        (fp Socket_Strip_Straight_1X02)
        (fp Socket_Strip_Angled_1X02))
      (fields
        (field (name Reference) P)
        (field (name Value) CONN_01X02))
      (pins
        (pin (num 1) (name P1) (type passive))
        (pin (num 2) (name P2) (type passive))))
    (libpart (lib Transmitter) (part CP1)
      (footprints
        (fp SMD*_Pol)
        (fp c_elec*)
        (fp C*elec)
        (fp TantalC*)
        (fp Elko*)
        (fp CP*))
      (fields
        (field (name Reference) C)
        (field (name Value) CP1))
      (pins
        (pin (num 1) (name ~) (type passive))
        (pin (num 2) (name ~) (type passive))))
    (libpart (lib Transmitter) (part D)
      (footprints
        (fp Diode_*)
        (fp D-Pak_TO252AA)
        (fp *SingleDiode)
        (fp *_Diode_*)
        (fp *SingleDiode*))
      (fields
        (field (name Reference) D)
        (field (name Value) D))
      (pins
        (pin (num 1) (name K) (type passive))
        (pin (num 2) (name A) (type passive))))
    (libpart (lib Transmitter) (part DCW08A-15)
      (fields
        (field (name Reference) U)
        (field (name Value) DCW08A-15))
      (pins
        (pin (num 1) (name Vin+) (type passive))
        (pin (num 2) (name Vin+) (type passive))
        (pin (num 3) (name Vin-) (type passive))
        (pin (num 4) (name Vin-) (type passive))
        (pin (num 5) (name Vout+) (type passive))
        (pin (num 6) (name Vout-) (type passive))
        (pin (num 7) (name Com) (type passive))
        (pin (num 8) (name Com) (type passive))))
    (libpart (lib Transmitter) (part EX_ANT)
      (fields
        (field (name Reference) E)
        (field (name Value) EX_ANT))
      (pins
        (pin (num 1) (name INT) (type power_in))
        (pin (num 2) (name EXT) (type power_in))
        (pin (num 3) (name EXT2) (type power_in))))
    (libpart (lib Transmitter) (part FGPMMOPA6H)
      (fields
        (field (name Reference) U)
        (field (name Value) FGPMMOPA6H))
      (pins
        (pin (num 1) (name Vcc) (type power_in))
        (pin (num 2) (name NRESET) (type input))
        (pin (num 3) (name GND) (type power_in))
        (pin (num 4) (name Vbackup) (type power_in))
        (pin (num 5) (name 3D-FIx) (type power_in))
        (pin (num 6) (name NC) (type NotConnected))
        (pin (num 7) (name NC) (type NotConnected))
        (pin (num 8) (name GND) (type power_in))
        (pin (num 9) (name TX) (type output))
        (pin (num 10) (name RX) (type output))
        (pin (num 11) (name EX_ANT) (type output))
        (pin (num 12) (name GND) (type power_in))
        (pin (num 13) (name PPS) (type power_in))
        (pin (num 14) (name RTCM) (type BiDi))
        (pin (num 15) (name NC) (type NotConnected))
        (pin (num 16) (name NC) (type NotConnected))
        (pin (num 17) (name NC) (type NotConnected))
        (pin (num 18) (name NC) (type NotConnected))
        (pin (num 19) (name GND) (type power_in))
        (pin (num 20) (name NC) (type power_in))))
    (libpart (lib Transmitter) (part INDUCTOR)
      (fields
        (field (name Reference) L)
        (field (name Value) INDUCTOR))
      (pins
        (pin (num 1) (name 1) (type passive))
        (pin (num 2) (name 2) (type passive))))
    (libpart (lib Transmitter) (part JUMPER)
      (fields
        (field (name Reference) JP)
        (field (name Value) JUMPER))
      (pins
        (pin (num 1) (name 1) (type passive))
        (pin (num 2) (name 2) (type passive))))
    (libpart (lib Transmitter) (part LED)
      (footprints
        (fp LED-3MM)
        (fp LED-5MM)
        (fp LED-10MM)
        (fp LED-0603)
        (fp LED-0805)
        (fp LED-1206)
        (fp LEDV))
      (fields
        (field (name Reference) D)
        (field (name Value) LED))
      (pins
        (pin (num 1) (name K) (type passive))
        (pin (num 2) (name A) (type passive))))
    (libpart (lib Transmitter) (part LM358)
      (aliases
        (alias LMC6062)
        (alias LMC6082)
        (alias LM358N)
        (alias TL072)
        (alias TL082))
      (fields
        (field (name Reference) U)
        (field (name Value) LM358))
      (pins
        (pin (num 1) (name ~) (type output))
        (pin (num 2) (name -) (type input))
        (pin (num 3) (name +) (type input))
        (pin (num 4) (name V-) (type power_in))
        (pin (num 5) (name +) (type input))
        (pin (num 6) (name -) (type input))
        (pin (num 7) (name ~) (type output))
        (pin (num 8) (name V+) (type power_in))))
    (libpart (lib Transmitter) (part Nucleo144)
      (fields
        (field (name Reference) J)
        (field (name Value) Nucleo144))
      (pins
        (pin (num 1) (name NC) (type NotConnected))
        (pin (num 2) (name PC8) (type power_in))
        (pin (num 3) (name IORef) (type power_in))
        (pin (num 4) (name PC9) (type power_in))
        (pin (num 5) (name RESET) (type power_in))
        (pin (num 6) (name PC10) (type power_in))
        (pin (num 7) (name +3V3) (type power_in))
        (pin (num 8) (name PC11) (type power_in))
        (pin (num 9) (name +5V) (type power_in))
        (pin (num 10) (name PC12) (type power_in))
        (pin (num 11) (name GND) (type power_in))
        (pin (num 12) (name PD2) (type power_in))
        (pin (num 13) (name GND) (type BiDi))
        (pin (num 14) (name PG2) (type BiDi))
        (pin (num 15) (name Vin) (type BiDi))
        (pin (num 16) (name PG3) (type BiDi))
        (pin (num 17) (name PA3) (type BiDi))
        (pin (num 18) (name PD7) (type BiDi))
        (pin (num 19) (name PC0) (type BiDi))
        (pin (num 20) (name PD6) (type BiDi))
        (pin (num 21) (name PC3) (type BiDi))
        (pin (num 22) (name PD5) (type BiDi))
        (pin (num 23) (name PF3) (type BiDi))
        (pin (num 24) (name PD4) (type BiDi))
        (pin (num 25) (name PF5) (type 3state))
        (pin (num 26) (name PD3) (type 3state))
        (pin (num 27) (name PF10) (type BiDi))
        (pin (num 28) (name GND) (type BiDi))
        (pin (num 29) (name NC) (type NotConnected))
        (pin (num 30) (name PE2) (type BiDi))
        (pin (num 31) (name PA7) (type BiDi))
        (pin (num 32) (name PE4) (type BiDi))
        (pin (num 33) (name PF2) (type BiDi))
        (pin (num 34) (name PE5) (type BiDi))
        (pin (num 35) (name PF1) (type BiDi))
        (pin (num 36) (name PE6) (type BiDi))
        (pin (num 37) (name PF0) (type BiDi))
        (pin (num 38) (name PE3) (type BiDi))
        (pin (num 39) (name GND) (type BiDi))
        (pin (num 40) (name PF8) (type BiDi))
        (pin (num 41) (name PD0) (type BiDi))
        (pin (num 42) (name PF7) (type BiDi))
        (pin (num 43) (name PD1) (type BiDi))
        (pin (num 44) (name PF9) (type BiDi))
        (pin (num 45) (name PG0) (type BiDi))
        (pin (num 46) (name PG1) (type BiDi))))
    (libpart (lib Transmitter) (part R)
      (footprints
        (fp R_*)
        (fp Resistor_*))
      (fields
        (field (name Reference) R)
        (field (name Value) R))
      (pins
        (pin (num 1) (name ~) (type passive))
        (pin (num 2) (name ~) (type passive))))
    (libpart (lib Transmitter) (part TEST_1P)
      (fields
        (field (name Reference) W)
        (field (name Value) TEST_1P))
      (pins
        (pin (num 1) (name 1) (type passive))))
    (libpart (lib Transmitter) (part TIP31C)
      (footprints
        (fp TO-92*))
      (fields
        (field (name Reference) Q)
        (field (name Value) TIP31C)
        (field (name Footprint) TO-220))
      (pins
        (pin (num 1) (name B) (type input))
        (pin (num 2) (name C) (type passive))
        (pin (num 3) (name E) (type passive))))
    (libpart (lib Transmitter) (part TIP32C)
      (footprints
        (fp TO-92*))
      (fields
        (field (name Reference) Q)
        (field (name Value) TIP32C)
        (field (name Footprint) TO-220))
      (pins
        (pin (num 1) (name B) (type input))
        (pin (num 2) (name C) (type passive))
        (pin (num 3) (name E) (type passive)))))
  (libraries
    (library (logical Transmitter)
      (uri /home/eiscar/GDrive/AcousticPositioningSystem/UAR/Electronics/Transmitterv0.1/lib_sch/Transmitter.lib)))
  (nets
    (net (code 1) (name "Net-(C4-Pad2)")
      (node (ref R8) (pin 2))
      (node (ref C4) (pin 2))
      (node (ref U2) (pin 6))
      (node (ref R7) (pin 2)))
    (net (code 2) (name "Net-(C3-Pad1)")
      (node (ref R5) (pin 1))
      (node (ref C3) (pin 1))
      (node (ref U2) (pin 2)))
    (net (code 3) (name /PC0)
      (node (ref W2) (pin 1))
      (node (ref J1) (pin 19))
      (node (ref R2) (pin 2)))
    (net (code 4) (name "Net-(JP2-Pad1)")
      (node (ref JP3) (pin 2))
      (node (ref JP2) (pin 1))
      (node (ref L3) (pin 1))
      (node (ref L2) (pin 2)))
    (net (code 5) (name "Net-(D2-Pad1)")
      (node (ref D2) (pin 1))
      (node (ref R3) (pin 1)))
    (net (code 6) (name /RX)
      (node (ref J1) (pin 22))
      (node (ref U3) (pin 10)))
    (net (code 7) (name /TX)
      (node (ref J1) (pin 20))
      (node (ref U3) (pin 9)))
    (net (code 8) (name +3V3)
      (node (ref U3) (pin 1))
      (node (ref C1) (pin 1))
      (node (ref J1) (pin 7)))
    (net (code 9) (name /Vbat)
      (node (ref U3) (pin 4))
      (node (ref BT1) (pin 1)))
    (net (code 10) (name "Net-(D2-Pad2)")
      (node (ref D2) (pin 2))
      (node (ref U3) (pin 5)))
    (net (code 11) (name /PPS)
      (node (ref W3) (pin 1))
      (node (ref U3) (pin 13))
      (node (ref J1) (pin 17)))
    (net (code 12) (name "Net-(C2-Pad2)")
      (node (ref C2) (pin 2))
      (node (ref U2) (pin 1))
      (node (ref R5) (pin 2))
      (node (ref U2) (pin 5))
      (node (ref R6) (pin 2)))
    (net (code 13) (name "Net-(D1-Pad1)")
      (node (ref R1) (pin 2))
      (node (ref D1) (pin 1)))
    (net (code 14) (name "Net-(JP1-Pad2)")
      (node (ref JP1) (pin 2))
      (node (ref L1) (pin 1))
      (node (ref L3) (pin 2))
      (node (ref JP3) (pin 1)))
    (net (code 15) (name "Net-(E1-Pad1)")
      (node (ref U3) (pin 11))
      (node (ref E1) (pin 1)))
    (net (code 16) (name -15VA)
      (node (ref C8) (pin 2))
      (node (ref R10) (pin 1))
      (node (ref U1) (pin 6))
      (node (ref C10) (pin 2))
      (node (ref Q2) (pin 2))
      (node (ref U2) (pin 4))
      (node (ref C6) (pin 2)))
    (net (code 17) (name +15V)
      (node (ref Q1) (pin 2))
      (node (ref R9) (pin 2))
      (node (ref U2) (pin 8))
      (node (ref C9) (pin 1))
      (node (ref C7) (pin 1))
      (node (ref C5) (pin 1))
      (node (ref U1) (pin 5)))
    (net (code 18) (name /Hyd_Out)
      (node (ref L2) (pin 1))
      (node (ref JP2) (pin 2))
      (node (ref P1) (pin 1))
      (node (ref E2) (pin 1))
      (node (ref W1) (pin 1)))
    (net (code 19) (name /Vin)
      (node (ref J1) (pin 15))
      (node (ref P2) (pin 1))
      (node (ref U1) (pin 2))
      (node (ref D1) (pin 2))
      (node (ref U1) (pin 1)))
    (net (code 20) (name "Net-(D4-Pad1)")
      (node (ref R10) (pin 2))
      (node (ref Q2) (pin 1))
      (node (ref D4) (pin 1)))
    (net (code 21) (name "Net-(C4-Pad1)")
      (node (ref R13) (pin 2))
      (node (ref R12) (pin 1))
      (node (ref C4) (pin 1))
      (node (ref R8) (pin 1))
      (node (ref R11) (pin 1)))
    (net (code 22) (name "Net-(Q2-Pad3)")
      (node (ref R12) (pin 2))
      (node (ref Q2) (pin 3)))
    (net (code 23) (name "Net-(D3-Pad1)")
      (node (ref U2) (pin 7))
      (node (ref D3) (pin 1))
      (node (ref D4) (pin 2)))
    (net (code 24) (name /Imp_Net)
      (node (ref R13) (pin 1))
      (node (ref L1) (pin 2))
      (node (ref JP1) (pin 1)))
    (net (code 25) (name "Net-(Q1-Pad3)")
      (node (ref Q1) (pin 3))
      (node (ref R11) (pin 2)))
    (net (code 26) (name "Net-(D3-Pad2)")
      (node (ref R9) (pin 1))
      (node (ref D3) (pin 2))
      (node (ref Q1) (pin 1)))
    (net (code 27) (name "Net-(U3-Pad14)")
      (node (ref U3) (pin 14)))
    (net (code 28) (name "Net-(U3-Pad2)")
      (node (ref U3) (pin 2)))
    (net (code 29) (name "Net-(J1-Pad21)")
      (node (ref J1) (pin 21)))
    (net (code 30) (name "Net-(J1-Pad44)")
      (node (ref J1) (pin 44)))
    (net (code 31) (name "Net-(J1-Pad34)")
      (node (ref J1) (pin 34)))
    (net (code 32) (name "Net-(J1-Pad24)")
      (node (ref J1) (pin 24)))
    (net (code 33) (name "Net-(J1-Pad14)")
      (node (ref J1) (pin 14)))
    (net (code 34) (name "Net-(J1-Pad43)")
      (node (ref J1) (pin 43)))
    (net (code 35) (name "Net-(J1-Pad33)")
      (node (ref J1) (pin 33)))
    (net (code 36) (name "Net-(J1-Pad23)")
      (node (ref J1) (pin 23)))
    (net (code 37) (name "Net-(J1-Pad42)")
      (node (ref J1) (pin 42)))
    (net (code 38) (name "Net-(J1-Pad32)")
      (node (ref J1) (pin 32)))
    (net (code 39) (name "Net-(J1-Pad12)")
      (node (ref J1) (pin 12)))
    (net (code 40) (name "Net-(J1-Pad41)")
      (node (ref J1) (pin 41)))
    (net (code 41) (name "Net-(J1-Pad31)")
      (node (ref J1) (pin 31)))
    (net (code 42) (name "Net-(J1-Pad40)")
      (node (ref J1) (pin 40)))
    (net (code 43) (name "Net-(J1-Pad30)")
      (node (ref J1) (pin 30)))
    (net (code 44) (name "Net-(J1-Pad10)")
      (node (ref J1) (pin 10)))
    (net (code 45) (name "Net-(J1-Pad9)")
      (node (ref J1) (pin 9)))
    (net (code 46) (name "Net-(J1-Pad8)")
      (node (ref J1) (pin 8)))
    (net (code 47) (name "Net-(J1-Pad6)")
      (node (ref J1) (pin 6)))
    (net (code 48) (name "Net-(J1-Pad5)")
      (node (ref J1) (pin 5)))
    (net (code 49) (name "Net-(J1-Pad4)")
      (node (ref J1) (pin 4)))
    (net (code 50) (name "Net-(J1-Pad3)")
      (node (ref J1) (pin 3)))
    (net (code 51) (name "Net-(J1-Pad2)")
      (node (ref J1) (pin 2)))
    (net (code 52) (name "Net-(J1-Pad1)")
      (node (ref J1) (pin 1)))
    (net (code 53) (name GNDA)
      (node (ref BT1) (pin 2))
      (node (ref C5) (pin 2))
      (node (ref E2) (pin 2))
      (node (ref E2) (pin 3))
      (node (ref E1) (pin 3))
      (node (ref R1) (pin 1))
      (node (ref J1) (pin 39))
      (node (ref C6) (pin 1))
      (node (ref W4) (pin 1))
      (node (ref C8) (pin 1))
      (node (ref J1) (pin 28))
      (node (ref C7) (pin 2))
      (node (ref P1) (pin 2))
      (node (ref P2) (pin 2))
      (node (ref U1) (pin 8))
      (node (ref U1) (pin 7))
      (node (ref U1) (pin 4))
      (node (ref R7) (pin 1))
      (node (ref R3) (pin 2))
      (node (ref J1) (pin 13))
      (node (ref J1) (pin 11))
      (node (ref R4) (pin 1))
      (node (ref R6) (pin 1))
      (node (ref U2) (pin 3))
      (node (ref U3) (pin 19))
      (node (ref U3) (pin 12))
      (node (ref U3) (pin 8))
      (node (ref U3) (pin 3))
      (node (ref U1) (pin 3))
      (node (ref C10) (pin 1))
      (node (ref C9) (pin 2))
      (node (ref C1) (pin 2))
      (node (ref E1) (pin 2)))
    (net (code 54) (name "Net-(U3-Pad20)")
      (node (ref U3) (pin 20)))
    (net (code 55) (name "Net-(U3-Pad18)")
      (node (ref U3) (pin 18)))
    (net (code 56) (name "Net-(U3-Pad17)")
      (node (ref U3) (pin 17)))
    (net (code 57) (name "Net-(U3-Pad16)")
      (node (ref U3) (pin 16)))
    (net (code 58) (name "Net-(U3-Pad15)")
      (node (ref U3) (pin 15)))
    (net (code 59) (name "Net-(J1-Pad25)")
      (node (ref J1) (pin 25)))
    (net (code 60) (name "Net-(U3-Pad7)")
      (node (ref U3) (pin 7)))
    (net (code 61) (name "Net-(U3-Pad6)")
      (node (ref U3) (pin 6)))
    (net (code 62) (name "Net-(J1-Pad27)")
      (node (ref J1) (pin 27)))
    (net (code 63) (name "Net-(J1-Pad35)")
      (node (ref J1) (pin 35)))
    (net (code 64) (name "Net-(J1-Pad37)")
      (node (ref J1) (pin 37)))
    (net (code 65) (name "Net-(J1-Pad45)")
      (node (ref J1) (pin 45)))
    (net (code 66) (name "Net-(J1-Pad46)")
      (node (ref J1) (pin 46)))
    (net (code 67) (name "Net-(C2-Pad1)")
      (node (ref C2) (pin 1))
      (node (ref R2) (pin 1))
      (node (ref R4) (pin 2))
      (node (ref C3) (pin 2)))
    (net (code 68) (name "Net-(J1-Pad38)")
      (node (ref J1) (pin 38)))
    (net (code 69) (name "Net-(J1-Pad29)")
      (node (ref J1) (pin 29)))
    (net (code 70) (name "Net-(J1-Pad18)")
      (node (ref J1) (pin 18)))
    (net (code 71) (name "Net-(J1-Pad36)")
      (node (ref J1) (pin 36)))
    (net (code 72) (name "Net-(J1-Pad26)")
      (node (ref J1) (pin 26)))
    (net (code 73) (name "Net-(J1-Pad16)")
      (node (ref J1) (pin 16)))))